#define weather_forecast_day_rain_width 36
#define weather_forecast_day_rain_height 36
static unsigned char weather_forecast_day_rain_bits[] = {
   0x00, 0x00, 0x00, 0x00, 0x00, 0x00, 0x00, 0x00, 0x00, 0x00, 0x00, 0x00,
   0x00, 0x02, 0x00, 0x00, 0x00, 0x00, 0x02, 0x00, 0x00, 0x00, 0x00, 0x07,
   0x00, 0x00, 0x00, 0x00, 0x07, 0x00, 0x00, 0x00, 0x80, 0x0f, 0x00, 0x00,
   0x01, 0x80, 0x0f, 0x00, 0x00, 0x01, 0x00, 0x07, 0x00, 0x80, 0x03, 0x00,
   0x00, 0x00, 0x80, 0x03, 0x00, 0x00, 0x00, 0xc0, 0x07, 0x00, 0x00, 0x00,
   0xc0, 0x07, 0x00, 0x00, 0x00, 0xe0, 0x0f, 0x00, 0x00, 0x00, 0xf0, 0x1f,
   0x00, 0x00, 0x00, 0xf0, 0x1f, 0x00, 0x03, 0x00, 0xf0, 0x1f, 0x80, 0x07,
   0x00, 0xe0, 0x0f, 0x80, 0x07, 0x00, 0xc0, 0x07, 0xc0, 0x0f, 0x00, 0x80,
   0x03, 0xe0, 0x1f, 0x00, 0x00, 0x00, 0xf0, 0x3f, 0x00, 0x00, 0x00, 0xf0,
   0x3f, 0x00, 0x00, 0x00, 0xf0, 0x3f, 0x00, 0x00, 0x00, 0xf8, 0x7f, 0x00,
   0x00, 0x00, 0xfc, 0xef, 0x00, 0x00, 0x00, 0xfc, 0xc7, 0x00, 0x00, 0x00,
   0xfe, 0xcf, 0x01, 0x00, 0x00, 0xfe, 0xcf, 0x01, 0x00, 0x00, 0xfe, 0xcf,
   0x01, 0x00, 0x00, 0xfe, 0xcf, 0x01, 0x00, 0x00, 0xfc, 0xcf, 0x00, 0x00,
   0x00, 0xfc, 0xcf, 0x00, 0x00, 0x00, 0xfc, 0xff, 0x00, 0x00, 0x00, 0xf8,
   0x7f, 0x00, 0x00, 0x00, 0xe0, 0x1f, 0x00, 0x00, 0x00, 0xc0, 0x0f, 0x00 };
