#define weather_forecast_night_few_clouds_width 36
#define weather_forecast_night_few_clouds_height 36
static unsigned char weather_forecast_night_few_clouds_bits[] = {
   0x00, 0x00, 0x00, 0x00, 0x00, 0x00, 0x00, 0x00, 0x00, 0x00, 0x00, 0x00,
   0x00, 0x00, 0x00, 0x00, 0x00, 0xf8, 0x07, 0x00, 0x00, 0x00, 0xfe, 0x1f,
   0x00, 0x00, 0x80, 0xff, 0x7f, 0x00, 0x00, 0xc0, 0xff, 0xff, 0x00, 0x00,
   0x00, 0xfc, 0xff, 0x01, 0x00, 0xf0, 0xfb, 0xff, 0x01, 0x00, 0xf8, 0xf7,
   0xff, 0x03, 0x00, 0xfe, 0xef, 0xff, 0x03, 0x00, 0xff, 0xdf, 0xff, 0x07,
   0x00, 0xff, 0xdf, 0xff, 0x0f, 0x00, 0xff, 0xbf, 0xff, 0x0f, 0xc0, 0xff,
   0xbf, 0xff, 0x0f, 0xe0, 0xff, 0x7f, 0xff, 0x0f, 0xf0, 0xff, 0xff, 0xfc,
   0x0f, 0xf8, 0xff, 0xff, 0xfb, 0x0f, 0xfc, 0xff, 0xff, 0xf7, 0x0f, 0xfc,
   0xff, 0xff, 0xcf, 0x0f, 0xfe, 0xff, 0xff, 0x3f, 0x07, 0xff, 0xff, 0xff,
   0xff, 0x06, 0xff, 0xff, 0xff, 0xff, 0x01, 0xff, 0xff, 0xff, 0xff, 0x01,
   0xff, 0xff, 0xff, 0xff, 0x01, 0xff, 0xff, 0xff, 0xff, 0x01, 0xfe, 0xff,
   0xff, 0xff, 0x01, 0xfc, 0xff, 0xff, 0xff, 0x00, 0xf0, 0xff, 0xff, 0x7f,
   0x00, 0xe0, 0xff, 0xff, 0x3f, 0x00, 0x00, 0x00, 0x00, 0x00, 0x00, 0x00,
   0x00, 0x00, 0x00, 0x00, 0x00, 0x00, 0x00, 0x00, 0x00, 0x00, 0x00, 0x00,
   0x00, 0x00, 0x00, 0x00, 0x00, 0x00, 0x00, 0x00, 0x00, 0x00, 0x00, 0x00 };
