#define weather_forecast_night_rain_width 36
#define weather_forecast_night_rain_height 36
static unsigned char weather_forecast_night_rain_bits[] = {
   0x00, 0x08, 0x00, 0x10, 0x00, 0x00, 0x08, 0x00, 0x7c, 0x00, 0x00, 0x08,
   0x00, 0x10, 0x00, 0x00, 0x2a, 0x00, 0x10, 0x00, 0x00, 0x1c, 0x00, 0x00,
   0x00, 0xc0, 0xff, 0x01, 0x00, 0x00, 0x00, 0x1c, 0x00, 0x00, 0x00, 0x00,
   0x2a, 0x08, 0xc0, 0x00, 0x00, 0x08, 0x08, 0xc0, 0x00, 0x10, 0x08, 0x2a,
   0xe0, 0x01, 0x10, 0x08, 0x1c, 0xf0, 0x03, 0x7c, 0x80, 0xff, 0xf0, 0x03,
   0x10, 0x00, 0x1c, 0xf8, 0x06, 0x10, 0x02, 0x2a, 0xf8, 0x05, 0x00, 0x02,
   0x08, 0xf0, 0x03, 0x00, 0x02, 0x08, 0xe0, 0x01, 0x00, 0x02, 0x00, 0x00,
   0x00, 0x40, 0x12, 0x00, 0x00, 0x00, 0x80, 0x0a, 0x20, 0x60, 0x00, 0x00,
   0x07, 0x20, 0x60, 0x00, 0xfc, 0xff, 0x71, 0x60, 0x00, 0x00, 0x07, 0xf8,
   0xf0, 0x00, 0x80, 0x0a, 0xfc, 0xf1, 0x00, 0x40, 0x12, 0xfc, 0xf9, 0x01,
   0x00, 0x02, 0x7c, 0xfd, 0x03, 0x00, 0x02, 0xf8, 0xfc, 0x03, 0x00, 0x02,
   0x70, 0xfe, 0x07, 0x00, 0x02, 0x00, 0xff, 0x0e, 0x00, 0x00, 0x01, 0xff,
   0x0c, 0x00, 0x00, 0x01, 0xff, 0x0d, 0x00, 0x40, 0x05, 0xff, 0x0d, 0x00,
   0x80, 0x03, 0xff, 0x0f, 0x02, 0xf0, 0x1f, 0xfe, 0x07, 0x02, 0x80, 0x03,
   0xfc, 0x03, 0x0f, 0x40, 0x05, 0xf0, 0x00, 0x02, 0x00, 0x01, 0x00, 0x00 };
