#define weather_forecast_day_shower_rain_width 36
#define weather_forecast_day_shower_rain_height 36
static unsigned char weather_forecast_day_shower_rain_bits[] = {
   0x00, 0x04, 0x0c, 0x08, 0x00, 0x08, 0x0e, 0x0c, 0x00, 0x00, 0x1c, 0x06,
   0x0e, 0x00, 0x00, 0x0c, 0x06, 0x04, 0x00, 0x01, 0x0c, 0x07, 0x00, 0x80,
   0x03, 0x0e, 0x02, 0x80, 0x80, 0x01, 0x04, 0x00, 0xc0, 0x81, 0x01, 0x00,
   0x40, 0xc0, 0xc0, 0x01, 0x00, 0xe0, 0xc0, 0x80, 0x00, 0x20, 0x60, 0xe0,
   0x00, 0x00, 0x70, 0x60, 0x40, 0x00, 0x00, 0x30, 0x70, 0x00, 0x00, 0x00,
   0x30, 0x20, 0x00, 0x00, 0x08, 0x38, 0x00, 0x00, 0x08, 0x08, 0x10, 0x00,
   0x00, 0x1c, 0x08, 0x00, 0x00, 0x04, 0x0c, 0x0c, 0x00, 0x00, 0x0e, 0x0c,
   0x08, 0x00, 0x02, 0x06, 0x0e, 0x00, 0x00, 0x07, 0x06, 0x04, 0x00, 0x01,
   0x03, 0x07, 0x00, 0x00, 0x03, 0x03, 0x02, 0x00, 0x00, 0x81, 0x03, 0x00,
   0x40, 0x00, 0x01, 0x01, 0x00, 0xe0, 0x00, 0x01, 0x00, 0x40, 0x60, 0x00,
   0x00, 0x00, 0xe0, 0x60, 0x08, 0x00, 0x20, 0x60, 0x70, 0x00, 0x00, 0x70,
   0x60, 0x20, 0x00, 0x10, 0x30, 0x70, 0x00, 0x00, 0x38, 0x30, 0x20, 0x00,
   0x00, 0x18, 0x38, 0x00, 0x00, 0x00, 0x18, 0x10, 0x00, 0x00, 0x02, 0x1c,
   0x00, 0x00, 0x00, 0x07, 0x08, 0x00, 0x00, 0x02, 0x03, 0x00, 0x00, 0x02,
   0x07, 0x03, 0x00, 0x00, 0x07, 0x83, 0x03, 0x00, 0x01, 0x03, 0x03, 0x01 };
