#define anemometer_width 36
#define anemometer_height 28
static char anemometer_bits[] = {
  0x00, 0x60, 0x00, 0x00, 0x00, 0x00, 0xF8, 0x00, 0x00, 0x00, 0x00, 0xF8, 
  0x00, 0xE0, 0x03, 0xF8, 0xFC, 0x00, 0xF0, 0x07, 0xFC, 0xFD, 0xC4, 0xF0, 
  0x0F, 0xFE, 0xFD, 0xEF, 0xF9, 0x0F, 0xFE, 0xFF, 0xFE, 0xFB, 0x0F, 0xFE, 
  0x71, 0xEC, 0xF3, 0x0F, 0xFE, 0x01, 0xEC, 0xF3, 0x07, 0xFC, 0x00, 0xEC, 
  0xE1, 0x03, 0x78, 0x00, 0xEC, 0x01, 0x00, 0x00, 0x00, 0xCE, 0x00, 0x00, 
  0x00, 0x00, 0x0E, 0x00, 0x00, 0x00, 0x00, 0x1F, 0x00, 0x00, 0x00, 0x00, 
  0x3F, 0x00, 0x00, 0x00, 0x00, 0x3F, 0x00, 0x00, 0x00, 0x00, 0x3F, 0x00, 
  0x00, 0x00, 0x00, 0x3F, 0x00, 0x00, 0x00, 0x00, 0x3F, 0x00, 0x00, 0x00, 
  0x00, 0x3F, 0x00, 0x00, 0x00, 0x00, 0x3F, 0x00, 0x00, 0x00, 0x00, 0x3F, 
  0x00, 0x00, 0x00, 0x00, 0x3F, 0x00, 0x00, 0x00, 0x00, 0x3F, 0x00, 0x00, 
  0x00, 0x00, 0x3F, 0x00, 0x00, 0x00, 0x00, 0x3F, 0x00, 0x00, 0x00, 0x00, 
  0x1F, 0x00, 0x00, 0x00, 0x00, 0x0E, 0x00, 0x00, };
