#define wind_north_west_width 36
#define wind_north_west_height 36
static char wind_north_west_bits[] = {
  0x00, 0x00, 0x0F, 0x00, 0x00, 0x00, 0xF0, 0xFF, 0x00, 0x00, 0x00, 0x1C, 
  0x80, 0x03, 0x00, 0x00, 0x07, 0x06, 0x0E, 0x00, 0x80, 0x01, 0x06, 0x18, 
  0x00, 0xC0, 0x00, 0x06, 0x30, 0x00, 0x60, 0x00, 0x06, 0x60, 0x00, 0x30, 
  0x80, 0x1B, 0xC0, 0x00, 0x18, 0x80, 0x1B, 0x80, 0x01, 0x08, 0x80, 0x1F, 
  0x00, 0x01, 0x0C, 0x80, 0x1D, 0x00, 0x03, 0x04, 0x80, 0x19, 0x00, 0x02, 
  0x06, 0x00, 0x00, 0x00, 0x06, 0x02, 0x00, 0x00, 0x00, 0x04, 0x02, 0x60, 
  0x00, 0x00, 0x04, 0x02, 0xC0, 0x01, 0x00, 0x04, 0x03, 0xC0, 0x07, 0x00, 
  0x0C, 0x7B, 0x80, 0x1F, 0xC0, 0x0F, 0x7B, 0x00, 0x3F, 0xC0, 0x0F, 0x03, 
  0x00, 0x0F, 0x00, 0x04, 0x02, 0x00, 0x06, 0x00, 0x04, 0x02, 0x00, 0x06, 
  0x00, 0x04, 0x02, 0x00, 0x00, 0x00, 0x04, 0x06, 0x00, 0x00, 0x00, 0x06, 
  0x04, 0x00, 0x00, 0x00, 0x02, 0x0C, 0x00, 0x00, 0x00, 0x03, 0x08, 0x00, 
  0x00, 0x00, 0x01, 0x18, 0x00, 0x00, 0x80, 0x01, 0x30, 0x00, 0x00, 0xC0, 
  0x00, 0x60, 0x00, 0x06, 0x60, 0x00, 0xC0, 0x00, 0x06, 0x30, 0x00, 0x80, 
  0x01, 0x06, 0x18, 0x00, 0x00, 0x07, 0x06, 0x0E, 0x00, 0x00, 0x1C, 0x80, 
  0x03, 0x00, 0x00, 0xF0, 0xFF, 0x00, 0x00, 0x00, 0x00, 0x0F, 0x00, 0x00, 
  };
