#define weather_pictogram_volcano_width 24
#define weather_pictogram_volcano_height 28
static char weather_pictogram_volcano_bits[] = {
  0x00, 0x00, 0x00, 0x00, 0x0E, 0x00, 0x00, 0x1F, 0x00, 0x00, 0x3F, 0x00, 
  0xC0, 0xFF, 0x00, 0xC0, 0xFF, 0x01, 0xC0, 0xFF, 0x01, 0xC0, 0xFF, 0x01, 
  0x80, 0xFF, 0x00, 0x00, 0xFE, 0x00, 0x00, 0x7C, 0x00, 0x00, 0x3C, 0x00, 
  0x00, 0x18, 0x00, 0x00, 0x00, 0x00, 0x00, 0x3C, 0x00, 0x00, 0x34, 0x00, 
  0x00, 0x76, 0x00, 0x00, 0x77, 0x00, 0x00, 0xF7, 0x00, 0xC0, 0xE7, 0x01, 
  0xE0, 0xCF, 0x03, 0xF0, 0x8F, 0x07, 0xF8, 0x9F, 0x0F, 0xF8, 0x1F, 0x1F, 
  0xFC, 0x8F, 0x3F, 0xFC, 0x83, 0x3F, 0xFC, 0xC0, 0x3F, 0x00, 0x00, 0x00, 
  };
