#define weather_pictogram_celsius_width 28
#define weather_pictogram_celsius_height 28
static char weather_pictogram_celsius_bits[] = {
  0x00, 0x00, 0x00, 0x00, 0x00, 0x00, 0x00, 0x00, 0x78, 0x00, 0xFE, 0x00, 
  0xFC, 0x81, 0xFF, 0x03, 0xCE, 0x81, 0xFF, 0x07, 0x86, 0xC3, 0x01, 0x07, 
  0x87, 0xE3, 0x01, 0x0E, 0x87, 0xE3, 0x00, 0x06, 0x8E, 0xE1, 0x00, 0x00, 
  0xFE, 0xE1, 0x00, 0x00, 0xFC, 0xE0, 0x00, 0x00, 0x00, 0xE0, 0x00, 0x00, 
  0x00, 0xE0, 0x00, 0x00, 0x00, 0xE0, 0x00, 0x00, 0x00, 0xE0, 0x00, 0x00, 
  0x00, 0xE0, 0x00, 0x00, 0x00, 0xE0, 0x00, 0x00, 0x00, 0xE0, 0x00, 0x00, 
  0x00, 0xE0, 0x00, 0x00, 0x00, 0xE0, 0x00, 0x00, 0x00, 0xE0, 0x00, 0x06, 
  0x00, 0xE0, 0x01, 0x0E, 0x00, 0xC0, 0x01, 0x07, 0x00, 0xC0, 0xFF, 0x07, 
  0x00, 0x80, 0xFF, 0x03, 0x00, 0x00, 0xFE, 0x00, 0x00, 0x00, 0x00, 0x00, 
  0x00, 0x00, 0x00, 0x00, };
