#define weather_pictogram_thermometer_internal_width 16
#define weather_pictogram_thermometer_internal_height 28
static char weather_pictogram_thermometer_internal_bits[] = {
  0x80, 0x01, 0x80, 0x01, 0x80, 0x01, 0x80, 0x01, 0x80, 0x01, 0x80, 0x01, 
  0x80, 0x01, 0x80, 0x01, 0x80, 0x01, 0x80, 0x01, 0x80, 0x01, 0x80, 0x01, 
  0x80, 0x01, 0x80, 0x01, 0x80, 0x01, 0x80, 0x01, 0x80, 0x01, 0xE0, 0x07, 
  0xF0, 0x0F, 0xF8, 0x1F, 0xF8, 0x1F, 0xF8, 0x1F, 0xF8, 0x1F, 0xF8, 0x1F, 
  0xF8, 0x1F, 0xF0, 0x0F, 0xE0, 0x07, 0x80, 0x01, };
