#define weather_pictogram_gale_warning_width 18
#define weather_pictogram_gale_warning_height 28
static char weather_pictogram_gale_warning_bits[] = {
  0x00, 0x00, 0x00, 0x04, 0x00, 0x00, 0x76, 0x00, 0x00, 0xF6, 0x01, 0x00, 
  0xF6, 0x07, 0x00, 0xF6, 0x3F, 0x00, 0xF6, 0xFF, 0x00, 0xF6, 0x7F, 0x00, 
  0xF6, 0x1F, 0x00, 0xF6, 0x07, 0x00, 0xF6, 0x00, 0x00, 0x36, 0x00, 0x00, 
  0x06, 0x00, 0x00, 0x36, 0x00, 0x00, 0xF6, 0x01, 0x00, 0xF6, 0x07, 0x00, 
  0xF6, 0x1F, 0x00, 0xF6, 0xFF, 0x00, 0xF6, 0xFF, 0x00, 0xF6, 0x1F, 0x00, 
  0xF6, 0x07, 0x00, 0xF6, 0x00, 0x00, 0x36, 0x00, 0x00, 0x06, 0x00, 0x00, 
  0x06, 0x00, 0x00, 0x06, 0x00, 0x00, 0x00, 0x00, 0x00, 0x00, 0x00, 0x00, 
  };
