#define weather_pictogram_raindrop_width 24
#define weather_pictogram_raindrop_height 28
static char weather_pictogram_raindrop_bits[] = {
  0x00, 0x00, 0x00, 0x00, 0x18, 0x00, 0x00, 0x3C, 0x00, 0x00, 0x3E, 0x00, 
  0x00, 0x7F, 0x00, 0x00, 0xFF, 0x00, 0x80, 0xFF, 0x01, 0xC0, 0xFF, 0x03, 
  0xE0, 0xFF, 0x07, 0xE0, 0xFF, 0x07, 0xF0, 0xFF, 0x0F, 0xF0, 0xFF, 0x0F, 
  0xF8, 0xFF, 0x1F, 0xF8, 0xFF, 0x1F, 0xFC, 0xFF, 0x3F, 0xFC, 0xFF, 0x3F, 
  0xFC, 0xFF, 0x3F, 0xFC, 0xFF, 0x3F, 0xFC, 0xFF, 0x3F, 0xFC, 0xFF, 0x3F, 
  0xFC, 0xFF, 0x1F, 0xF8, 0xFF, 0x1F, 0xF0, 0xFF, 0x0F, 0xF0, 0xFF, 0x0F, 
  0xE0, 0xFF, 0x07, 0x80, 0xFF, 0x01, 0x00, 0x7E, 0x00, 0x00, 0x00, 0x00, 
  };
