#define weather_pictogram_na_width 28
#define weather_pictogram_na_height 28
static char weather_pictogram_na_bits[] = {
  0x00, 0x00, 0x00, 0x00, 0x00, 0x00, 0x00, 0x00, 0x00, 0x00, 0x00, 0x00, 
  0x00, 0x00, 0x00, 0x00, 0x00, 0x00, 0x00, 0x00, 0x00, 0x00, 0x00, 0x00, 
  0x00, 0x00, 0x00, 0x00, 0x00, 0x00, 0x00, 0x00, 0x00, 0x00, 0x03, 0x00, 
  0x9E, 0x87, 0xF3, 0x00, 0x9E, 0x87, 0xF9, 0x00, 0xBE, 0xC7, 0xF9, 0x00, 
  0xBE, 0xC7, 0xF8, 0x01, 0xFE, 0xC7, 0xDC, 0x01, 0xEE, 0xE7, 0xDC, 0x01, 
  0xEE, 0x67, 0xFE, 0x03, 0xCE, 0x77, 0xFE, 0x03, 0xCE, 0x37, 0xFE, 0x03, 
  0x8E, 0x37, 0x8F, 0x07, 0x00, 0x30, 0x00, 0x00, 0x00, 0x00, 0x00, 0x00, 
  0x00, 0x00, 0x00, 0x00, 0x00, 0x00, 0x00, 0x00, 0x00, 0x00, 0x00, 0x00, 
  0x00, 0x00, 0x00, 0x00, 0x00, 0x00, 0x00, 0x00, 0x00, 0x00, 0x00, 0x00, 
  0x00, 0x00, 0x00, 0x00, };
