#define weather_pictogram_lunar_eclipse_width 28
#define weather_pictogram_lunar_eclipse_height 28
static char weather_pictogram_lunar_eclipse_bits[] = {
  0x00, 0x00, 0x00, 0x00, 0x00, 0x00, 0x00, 0x00, 0x00, 0xFC, 0x03, 0x00, 
  0x00, 0xFF, 0x0F, 0x00, 0xC0, 0xFF, 0x3F, 0x00, 0xE0, 0xFF, 0x7F, 0x00, 
  0xF0, 0x3F, 0xFE, 0x00, 0xF0, 0xFF, 0xF8, 0x00, 0xF8, 0xFF, 0xF1, 0x01, 
  0xF8, 0xFF, 0xE3, 0x01, 0xFC, 0xFF, 0xC7, 0x03, 0xFC, 0xFF, 0xC7, 0x03, 
  0xFC, 0xFF, 0xC7, 0x03, 0xFC, 0xFF, 0xC7, 0x03, 0xFC, 0xFF, 0xC7, 0x03, 
  0xFC, 0xFF, 0xC7, 0x03, 0xFC, 0xFF, 0xC7, 0x03, 0xFC, 0xFF, 0xC7, 0x03, 
  0xF8, 0xFF, 0xE3, 0x01, 0xF8, 0xFF, 0xF3, 0x01, 0xF0, 0xFF, 0xF8, 0x00, 
  0xF0, 0x7F, 0xFC, 0x00, 0xE0, 0xFF, 0x7F, 0x00, 0xC0, 0xFF, 0x3F, 0x00, 
  0x00, 0xFF, 0x0F, 0x00, 0x00, 0xFC, 0x03, 0x00, 0x00, 0x00, 0x00, 0x00, 
  0x00, 0x00, 0x00, 0x00, };
