#define weather_forecast_night_alt_snow_wind_width 22
#define weather_forecast_night_alt_snow_wind_height 22
static unsigned char weather_forecast_night_alt_snow_wind_bits[] = {
   0x00, 0xc0, 0x01, 0x00, 0xe0, 0x03, 0x00, 0xf7, 0x03, 0xc0, 0xff, 0x07,
   0xe0, 0xf0, 0x0f, 0x70, 0xe0, 0x3f, 0x30, 0xc0, 0x3f, 0x3c, 0xc0, 0x3f,
   0x0e, 0x00, 0x3f, 0x06, 0x00, 0x1e, 0x03, 0x00, 0x0c, 0x01, 0x00, 0x08,
   0x01, 0x00, 0x18, 0x03, 0x00, 0x18, 0x07, 0x00, 0x0c, 0x8c, 0x08, 0x06,
   0x00, 0x80, 0x01, 0x20, 0x22, 0x00, 0x00, 0x00, 0x00, 0x80, 0x08, 0x00,
   0x00, 0x00, 0x00, 0x00, 0x00, 0x00 };
