#define weather_forecast_day_snow_width 22
#define weather_forecast_day_snow_height 22
static unsigned char weather_forecast_day_snow_bits[] = {
   0x00, 0x20, 0x00, 0x40, 0x20, 0x10, 0x80, 0x20, 0x08, 0x00, 0x01, 0x04,
   0x00, 0x70, 0x00, 0xc0, 0x8d, 0x01, 0xe0, 0x07, 0x01, 0x30, 0x04, 0x02,
   0x18, 0x08, 0x3a, 0x18, 0x18, 0x02, 0x0e, 0x60, 0x01, 0x03, 0x80, 0x01,
   0x01, 0x80, 0x00, 0x01, 0x00, 0x05, 0x01, 0x01, 0x09, 0x02, 0x80, 0x10,
   0x2c, 0x68, 0x00, 0x00, 0x01, 0x00, 0x00, 0x00, 0x00, 0x20, 0x08, 0x00,
   0x00, 0x01, 0x00, 0x00, 0x00, 0x00 };
