#define weather_forecast_night_sleet_width 22
#define weather_forecast_night_sleet_height 22
static unsigned char weather_forecast_night_sleet_bits[] = {
   0x00, 0x80, 0x03, 0x00, 0xe6, 0x0f, 0x80, 0xff, 0x1f, 0xe0, 0xf1, 0x1f,
   0x60, 0xe0, 0x3f, 0x30, 0xc0, 0x3f, 0x38, 0xc0, 0x3f, 0x3c, 0x80, 0x1f,
   0x0e, 0x00, 0x1e, 0x06, 0x00, 0x0c, 0x03, 0x00, 0x08, 0x01, 0x00, 0x18,
   0x01, 0x00, 0x18, 0x03, 0x00, 0x18, 0x07, 0x04, 0x0c, 0x9e, 0x20, 0x07,
   0x00, 0x04, 0x00, 0x80, 0x22, 0x00, 0x40, 0x10, 0x00, 0x00, 0x04, 0x00,
   0x80, 0x20, 0x00, 0x00, 0x00, 0x00 };
