#define weather_forecast_cloudy_windy_width 36
#define weather_forecast_cloudy_windy_height 36
static unsigned char weather_forecast_cloudy_windy_bits[] = {
   0x00, 0x00, 0x00, 0x00, 0x00, 0x00, 0x00, 0x00, 0x00, 0x00, 0x00, 0x00,
   0x00, 0x00, 0x00, 0x00, 0x00, 0x00, 0x00, 0x00, 0x00, 0x00, 0x00, 0x00,
   0x00, 0x00, 0x00, 0x3e, 0x00, 0x00, 0x00, 0xc0, 0xff, 0x00, 0x00, 0x00,
   0xe0, 0xff, 0x01, 0x00, 0x00, 0xf0, 0xc0, 0x03, 0x00, 0x00, 0x70, 0x00,
   0x07, 0x00, 0x00, 0x38, 0x00, 0x07, 0x00, 0x00, 0x18, 0x00, 0x0e, 0x00,
   0x00, 0x1e, 0x00, 0x7e, 0x00, 0x00, 0x1f, 0x00, 0xfe, 0x01, 0x80, 0x07,
   0x00, 0xe0, 0x03, 0xc0, 0x01, 0x00, 0x80, 0x07, 0xc0, 0x00, 0x00, 0x00,
   0x07, 0x00, 0x00, 0x00, 0x00, 0x06, 0x00, 0x00, 0x00, 0x00, 0x06, 0xf0,
   0xff, 0x0f, 0x00, 0x06, 0xf0, 0xff, 0x0f, 0x00, 0x06, 0x00, 0x00, 0x00,
   0x00, 0x07, 0x00, 0x00, 0x00, 0x80, 0x07, 0x00, 0x00, 0x00, 0xc0, 0x03,
   0xfe, 0xff, 0xfc, 0xff, 0x01, 0xfe, 0xff, 0xfc, 0xff, 0x00, 0x00, 0x00,
   0x00, 0x00, 0x00, 0x00, 0x00, 0x00, 0x00, 0x00, 0x00, 0x00, 0x00, 0x00,
   0x00, 0x80, 0xff, 0x7f, 0x00, 0x00, 0x80, 0xff, 0x7f, 0x00, 0x00, 0x00,
   0x00, 0x00, 0x00, 0x00, 0x00, 0x00, 0x00, 0x00, 0x00, 0x00, 0x00, 0x00,
   0x00, 0x00, 0x00, 0x00, 0x00, 0x00, 0x00, 0x00, 0x00, 0x00, 0x00, 0x00 };
