#define weather_forecast_cloudy_gusts_width 36
#define weather_forecast_cloudy_gusts_height 36
static unsigned char weather_forecast_cloudy_gusts_bits[] = {
   0x00, 0x00, 0x00, 0x00, 0x00, 0x00, 0x00, 0x00, 0x00, 0x00, 0x00, 0x00,
   0x00, 0x00, 0x00, 0x00, 0x00, 0x00, 0x00, 0x00, 0x00, 0x00, 0x00, 0x00,
   0x00, 0x00, 0x80, 0x3f, 0x00, 0x00, 0x00, 0xe0, 0xff, 0x00, 0x00, 0x00,
   0xf0, 0xf0, 0x01, 0x00, 0x00, 0x78, 0xc0, 0x03, 0x00, 0x00, 0x38, 0x80,
   0x03, 0x00, 0x00, 0x1c, 0x00, 0x07, 0x00, 0x00, 0x0c, 0x00, 0x1f, 0x00,
   0x00, 0x0f, 0x00, 0x7e, 0x00, 0xc0, 0x0f, 0x00, 0xfe, 0x01, 0xc0, 0x01,
   0x0f, 0xc0, 0x01, 0xe0, 0x80, 0x1f, 0x80, 0x03, 0x60, 0x80, 0x39, 0x00,
   0x03, 0x00, 0x00, 0x38, 0x00, 0x07, 0x00, 0x00, 0x38, 0x00, 0x07, 0xfe,
   0xff, 0x1f, 0x00, 0x07, 0xfe, 0xff, 0x0f, 0x00, 0x03, 0x00, 0x00, 0x00,
   0x80, 0x03, 0x00, 0x00, 0x00, 0xc0, 0x03, 0x00, 0x00, 0x00, 0xe0, 0x01,
   0xfe, 0x1f, 0xfe, 0xff, 0x00, 0xfe, 0x3f, 0xfe, 0x3f, 0x00, 0x00, 0x38,
   0x00, 0x00, 0x00, 0x00, 0x30, 0x00, 0x00, 0x00, 0x00, 0x38, 0x00, 0x00,
   0x00, 0x00, 0x3f, 0x00, 0x00, 0x00, 0x00, 0x1f, 0x00, 0x00, 0x00, 0x00,
   0x00, 0x00, 0x00, 0x00, 0x00, 0x00, 0x00, 0x00, 0x00, 0x00, 0x00, 0x00,
   0x00, 0x00, 0x00, 0x00, 0x00, 0x00, 0x00, 0x00, 0x00, 0x00, 0x00, 0x00 };
