#define weather_forecast_night_alt_cloudy_gusts_width 36
#define weather_forecast_night_alt_cloudy_gusts_height 36
static unsigned char weather_forecast_night_alt_cloudy_gusts_bits[] = {
   0x00, 0x00, 0x00, 0x00, 0x00, 0x00, 0x00, 0x00, 0x00, 0x00, 0x00, 0x00,
   0x00, 0x00, 0x00, 0x00, 0x00, 0x00, 0x3c, 0x00, 0x00, 0x00, 0x00, 0x7f,
   0x00, 0x00, 0x00, 0xc0, 0x7f, 0x00, 0x00, 0x00, 0xcf, 0x7f, 0x00, 0x00,
   0xe0, 0xff, 0x7f, 0x00, 0x00, 0xf0, 0xff, 0x7f, 0x00, 0x00, 0x78, 0xe0,
   0xff, 0x00, 0x00, 0x3c, 0xc0, 0xff, 0x01, 0x00, 0x1c, 0x80, 0xff, 0x03,
   0x00, 0x0c, 0x00, 0xff, 0x07, 0x00, 0x0f, 0x00, 0xff, 0x07, 0x80, 0x0f,
   0x00, 0xff, 0x07, 0xc0, 0x07, 0x07, 0xf8, 0x03, 0xe0, 0x80, 0x0f, 0xc0,
   0x01, 0x70, 0xc0, 0x1d, 0x80, 0x03, 0x20, 0x00, 0x18, 0x80, 0x03, 0x00,
   0x00, 0x18, 0x00, 0x03, 0x00, 0x00, 0x1c, 0x00, 0x03, 0xff, 0xff, 0x0f,
   0x80, 0x03, 0xff, 0xff, 0x07, 0x80, 0x03, 0x00, 0x00, 0x00, 0xc0, 0x01,
   0x00, 0x00, 0x00, 0xe0, 0x01, 0x00, 0x00, 0xfe, 0xff, 0x00, 0xff, 0x1f,
   0xfe, 0x7f, 0x00, 0xff, 0x3f, 0x00, 0x00, 0x00, 0x00, 0x38, 0x00, 0x00,
   0x00, 0x00, 0x30, 0x00, 0x00, 0x00, 0x80, 0x39, 0x00, 0x00, 0x00, 0x80,
   0x1f, 0x00, 0x00, 0x00, 0x00, 0x06, 0x00, 0x00, 0x00, 0x00, 0x00, 0x00,
   0x00, 0x00, 0x00, 0x00, 0x00, 0x00, 0x00, 0x00, 0x00, 0x00, 0x00, 0x00 };
