#define weather_forecast_night_cloudy_windy_width 36
#define weather_forecast_night_cloudy_windy_height 36
static unsigned char weather_forecast_night_cloudy_windy_bits[] = {
   0x00, 0x00, 0x00, 0x00, 0x00, 0x00, 0x00, 0x00, 0x00, 0x00, 0x00, 0x00,
   0x00, 0x00, 0x00, 0x00, 0x00, 0x00, 0x00, 0x00, 0x00, 0x00, 0x00, 0x00,
   0x00, 0x00, 0x00, 0x00, 0x7e, 0x00, 0x00, 0x00, 0x00, 0xff, 0x01, 0x00,
   0x80, 0xff, 0xff, 0x03, 0x00, 0xc0, 0xff, 0xff, 0x03, 0x00, 0xe0, 0xc0,
   0xff, 0x07, 0x00, 0x70, 0x80, 0xff, 0x0f, 0x00, 0x38, 0x00, 0xff, 0x0f,
   0x00, 0x38, 0x00, 0xff, 0x0f, 0x00, 0x1c, 0x00, 0xfe, 0x0f, 0x00, 0x0f,
   0x00, 0xfe, 0x0f, 0x80, 0x07, 0x00, 0xe0, 0x07, 0xc0, 0x01, 0x00, 0x80,
   0x03, 0xc0, 0x00, 0x00, 0x00, 0x03, 0x00, 0x00, 0x00, 0x00, 0x03, 0x00,
   0x00, 0x00, 0x00, 0x06, 0xf0, 0xff, 0x0f, 0x00, 0x06, 0xf0, 0xff, 0x0f,
   0x00, 0x03, 0x00, 0x00, 0x00, 0x00, 0x03, 0x00, 0x00, 0x00, 0x80, 0x01,
   0x00, 0x00, 0x00, 0xe0, 0x01, 0xff, 0xff, 0xfc, 0x7f, 0x00, 0xff, 0xff,
   0xfc, 0x1f, 0x00, 0x00, 0x00, 0x00, 0x00, 0x00, 0x00, 0x00, 0x00, 0x00,
   0x00, 0x00, 0x00, 0x00, 0x00, 0x00, 0x80, 0xff, 0x3f, 0x00, 0x00, 0x80,
   0xff, 0x3f, 0x00, 0x00, 0x00, 0x00, 0x00, 0x00, 0x00, 0x00, 0x00, 0x00,
   0x00, 0x00, 0x00, 0x00, 0x00, 0x00, 0x00, 0x00, 0x00, 0x00, 0x00, 0x00 };
