<?xml version="1.0" encoding="UTF-8" standalone="no"?>
<!-- Generator: Adobe Illustrator 22.0.1, SVG Export Plug-In . SVG Version: 6.00 Build 0)  -->

<svg
   version="1.1"
   id="Layer_1"
   x="0px"
   y="0px"
   viewBox="0 0 18 18"
   xml:space="preserve"
   sodipodi:docname="weather_forecast_day_scattered_clouds.svg"
   width="18"
   height="18"
   inkscape:version="1.1.2 (0a00cf5339, 2022-02-04, custom)"
   xmlns:inkscape="http://www.inkscape.org/namespaces/inkscape"
   xmlns:sodipodi="http://sodipodi.sourceforge.net/DTD/sodipodi-0.dtd"
   xmlns="http://www.w3.org/2000/svg"
   xmlns:svg="http://www.w3.org/2000/svg"><defs
   id="defs7" /><sodipodi:namedview
   id="namedview5"
   pagecolor="#ffffff"
   bordercolor="#666666"
   borderopacity="1.0"
   inkscape:pageshadow="2"
   inkscape:pageopacity="0.0"
   inkscape:pagecheckerboard="0"
   showgrid="false"
   width="36px"
   inkscape:zoom="13.783333"
   inkscape:cx="15.018138"
   inkscape:cy="15.018138"
   inkscape:window-width="1920"
   inkscape:window-height="987"
   inkscape:window-x="0"
   inkscape:window-y="0"
   inkscape:window-maximized="1"
   inkscape:current-layer="Layer_1" />
<path
   d="m 0.6334003,10.819876 c 0,-0.9260425 0.2898918,-1.7474025 0.8696754,-2.4721325 0.579784,-0.724729 1.312566,-1.191777 2.206399,-1.393091 0.249629,-1.103199 0.82136,-2.005085 1.699088,-2.713709 0.877728,-0.708625 1.892349,-1.062937 3.027759,-1.062937 1.111252,0 2.1017153,0.34626 2.9713913,1.030727 0.869675,0.684466 1.433354,1.570247 1.691035,2.649288 h 0.265734 c 0.72473,0 1.393092,0.177157 2.005085,0.523416 0.611994,0.34626 1.1032,0.829413 1.457512,1.441407 0.354312,0.611993 0.539521,1.2723035 0.539521,1.9970325 0,0.708624 -0.169104,1.368934 -0.507311,1.972875 -0.338207,0.603941 -0.805255,1.087094 -1.393091,1.449459 -0.587836,0.362365 -1.240093,0.555626 -1.940665,0.579783 H 4.4986247 c -1.079042,-0.04831 -1.98898,-0.458995 -2.737867,-1.23204 -0.748888,-0.764992 -1.1273574,-1.691035 -1.1273574,-2.770078 z m 1.3769864,0 c 0,0.700573 0.241576,1.304514 0.724729,1.819877 0.483153,0.515364 1.070989,0.78915 1.763509,0.829412 h 9.0108033 c 0.69252,-0.03221 1.280356,-0.314049 1.763509,-0.829412 0.491205,-0.515363 0.732782,-1.127357 0.732782,-1.819877 0,-0.708624 -0.265734,-1.3125655 -0.78915,-1.8279285 -0.523416,-0.515363 -1.143462,-0.773045 -1.868192,-0.773045 h -1.288408 c -0.08858,0 -0.136893,-0.04831 -0.136893,-0.144946 l -0.05637,-0.458995 c -0.08858,-0.869675 -0.467048,-1.602457 -1.127357,-2.190293 -0.660309,-0.587836 -1.4253013,-0.885781 -2.3030293,-0.885781 -0.877728,0 -1.650773,0.297945 -2.294977,0.885781 -0.652257,0.587836 -1.022674,1.320618 -1.103199,2.190293 l -0.06442,0.458996 c 0,0.09663 -0.05637,0.144945 -0.161051,0.144945 h -0.426785 c -0.676414,0.08053 -1.240093,0.370418 -1.691036,0.861623 -0.450942,0.491206 -0.684466,1.0709885 -0.684466,1.7393505 z"
   id="path2"
   style="stroke-width:0.805255" />
</svg>
