<?xml version="1.0" encoding="UTF-8" standalone="no"?>
<!-- Generator: Adobe Illustrator 22.0.1, SVG Export Plug-In . SVG Version: 6.00 Build 0)  -->

<svg
   version="1.1"
   id="Layer_1"
   x="0px"
   y="0px"
   viewBox="0 0 18 18"
   xml:space="preserve"
   sodipodi:docname="weather_forecast_night_mist.svg"
   width="18"
   height="18"
   inkscape:version="1.1.2 (0a00cf5339, 2022-02-04, custom)"
   xmlns:inkscape="http://www.inkscape.org/namespaces/inkscape"
   xmlns:sodipodi="http://sodipodi.sourceforge.net/DTD/sodipodi-0.dtd"
   xmlns="http://www.w3.org/2000/svg"
   xmlns:svg="http://www.w3.org/2000/svg"><defs
   id="defs7" /><sodipodi:namedview
   id="namedview5"
   pagecolor="#ffffff"
   bordercolor="#666666"
   borderopacity="1.0"
   inkscape:pageshadow="2"
   inkscape:pageopacity="0.0"
   inkscape:pagecheckerboard="0"
   showgrid="false"
   width="36px"
   inkscape:zoom="37.759502"
   inkscape:cx="11.387862"
   inkscape:cy="8.474688"
   inkscape:window-width="1920"
   inkscape:window-height="987"
   inkscape:window-x="0"
   inkscape:window-y="0"
   inkscape:window-maximized="1"
   inkscape:current-layer="Layer_1" />

<path
   id="path2-3"
   style="stroke-width:0.5669"
   d="m 5.6990864,0.8862238 c -0.7691194,-0.13322319 -0.18737,1.009231 -0.561524,1.400391 -0.379823,0.391161 -1.372071,0.084857 -1.372071,0.624023 0,0.5391664 0.997917,0.231886 1.372071,0.623047 0.374154,0.391161 0.017427,1.3886341 0.561524,1.400391 0.6276682,0.013563 0.18737,-1.00923 0.561523,-1.400391 0.374154,-0.391161 1.366211,-0.084015 1.366211,-0.623047 0,-0.5390321 -0.992057,-0.232862 -1.366211,-0.624023 -0.374153,-0.39116 -0.025285,-1.30750643 -0.561523,-1.400391 z m -3.81543,2.670898 c -0.367216,0.030555 -0.124969,0.685706 -0.385743,0.952149 -0.255105,0.266443 -0.93456995,0.055928 -0.93456995,0.424805 0,0.3688773 0.67946495,0.159338 0.93456995,0.425781 0.255105,0.266443 0.020602,0.9026278 0.385743,0.952148 0.6472176,0.087775 0.124778,-0.685705 0.379882,-0.952148 0.255105,-0.266443 0.935547,-0.056904 0.935547,-0.425781 0,-0.3688771 -0.680442,-0.158362 -0.935547,-0.424805 -0.255104,-0.266443 0.1973229,-1.0001762 -0.379882,-0.952149 z m 7.665039,0.02246 c -0.7136092,0.043198 -0.187179,1.00923 -0.555664,1.400391 -0.374153,0.385492 -1.366211,0.078156 -1.366211,0.617188 0,0.5390321 0.992058,0.232863 1.366211,0.624023 0.374154,0.391161 0.00711,1.3995476 0.555664,1.40625 0.8594596,0.010501 0.186393,-1.00923 0.5605466,-1.40039 0.374153,-0.391161 1.37207,-0.084993 1.37207,-0.624024 0,-0.5390313 -0.997916,-0.231886 -1.37207,-0.623047 -0.3741536,-0.391161 0.153062,-1.4435894 -0.5605466,-1.400391 z m -5.09668,2.732422 C 3.6968936,6.2917083 4.3009772,7.9252949 3.8021052,8.4468419 3.3032342,8.9740589 1.9918677,8.0828801 1.8836564,9.0161058 1.7754451,9.9493315 3.2270459,9.0317321 3.7259169,9.5532791 4.2247889,10.074826 3.687898,11.752899 4.4520154,11.708488 5.2161328,11.664077 4.4337887,9.9622043 4.9326607,9.4406568 5.4315317,8.9191098 7.0928373,9.9364814 7.0252574,9.0161058 6.9576775,8.0957302 5.4374992,8.7295604 5.0406702,8.4801244 4.6495092,8.2363574 5.0242884,8.0404848 4.7918594,7.6323168 4.5650994,7.2241488 5.2071372,6.3322993 4.4520154,6.3120038 Z m 3.15918,3.5374687 c -0.119049,0 -0.222542,0.04383 -0.303711,0.125 -0.08117,0.08117 -0.124024,0.3766855 -0.124023,0.4957355 0,0.119048 0.04871,0.221564 0.129882,0.302734 0.08117,0.08117 0.183686,0.125 0.302735,0.125 h 6.5371086 c 0.113638,0 0.210823,-0.04383 0.291992,-0.125 0.08117,-0.08658 0.119142,-0.183686 0.119142,-0.302734 0,-0.119051 -0.03797,-0.414566 -0.119142,-0.4957355 -0.08117,-0.08117 -0.178354,-0.125 -0.291992,-0.125 z m 6.6768576,2.1746815 c -0.124459,0 -0.227423,0.03797 -0.308593,0.119141 -0.08117,0.08117 -0.119141,0.184133 -0.119141,0.308592 0,0.11905 0.06936,0.419521 0.155947,0.489869 0.08117,0.08117 0.18511,0.118164 0.309571,0.118164 h 2.445312 c 0.119049,0 0.221565,-0.0424 0.302735,-0.118164 0.08117,-0.07576 0.08722,-0.376679 0.08722,-0.495727 0,-0.119049 -0.03797,-0.221566 -0.11914,-0.302735 -0.08117,-0.08117 -0.184134,-0.11914 -0.308594,-0.11914 z m -7.9003896,0.0049 c -0.119049,0 -0.222013,0.03895 -0.308594,0.120118 -0.08117,0.08117 -0.124023,0.183684 -0.124023,0.302734 0,0.119048 0.069364,0.41944 0.1559473,0.50061 0.08117,0.08117 0.189545,0.118164 0.308594,0.118164 H 12.95572 c 0.119048,0 0.217209,-0.0424 0.292968,-0.118164 0.08117,-0.07576 0.08624,-0.376679 0.08624,-0.495728 0,-0.124461 -0.0424,-0.226447 -0.118164,-0.307616 -0.07576,-0.08117 -0.17392,-0.120118 -0.292968,-0.120118 z m 4.0792646,2.090948 c -0.119049,0 -0.216234,0.0424 -0.291993,0.118164 -0.08117,0.07576 -0.11914,0.17392 -0.11914,0.292969 0,0.12446 0.0879,0.446476 0.163663,0.527646 0.07576,0.08117 0.172944,0.120117 0.291993,0.120117 h 6.536132 c 0.11905,0 0.22299,-0.03895 0.309571,-0.120117 0.08117,-0.08117 0.0795,-0.403714 0.0795,-0.522763 0,-0.119051 -0.03744,-0.216682 -0.124023,-0.297852 -0.08117,-0.08117 -0.190522,-0.118164 -0.309571,-0.118164 z m -3.8154299,0.01074 c -0.119049,0 -0.221565,0.0424 -0.302734,0.118165 -0.08117,0.07576 -0.119141,0.173919 -0.119141,0.292968 0,0.119049 0.082493,0.441595 0.1636644,0.522764 0.08117,0.08117 0.184133,0.11914 0.308593,0.11914 h 2.445313 c 0.12446,0 0.227425,-0.03797 0.308594,-0.11914 0.08117,-0.08117 0.074617,-0.404165 0.074617,-0.528622 0,-0.119051 -0.03744,-0.216763 -0.124023,-0.28711 -0.08117,-0.08117 -0.184134,-0.118164 -0.308594,-0.118164 z m 2.7145803,2.039607 c -0.113638,0 -0.2118,0.04383 -0.292969,0.125 -0.08117,0.08658 -0.118164,0.288246 -0.118164,0.407295 0,0.119049 0.037,0.216682 0.118164,0.297852 0.08117,0.08117 0.179331,0.124023 0.292969,0.124023 H 15.90807 c 0.119049,0 0.221565,-0.04285 0.302734,-0.124023 0.08117,-0.08117 0.124024,-0.178803 0.124024,-0.297852 0,-0.119049 -0.04871,-0.326125 -0.129883,-0.407295 -0.08117,-0.08117 -0.183685,-0.125 -0.302734,-0.125 z"
   sodipodi:nodetypes="sczssszsssczssszsszczssszszzczscszcczsssssscssssssscsssssssscscsscscssscsssscscssscsssssscssscscsssssss" /></svg>
