# Fdb version 3
["makeindex StationMeteoESP8266.idx"] 1675441128 "StationMeteoESP8266.idx" "StationMeteoESP8266.ind" "StationMeteoESP8266" 1675441132
  "StationMeteoESP8266.idx" 0 -1 0 "pdflatex"
  (generated)
  "StationMeteoESP8266.ilg"
  "StationMeteoESP8266.ind"
["pdflatex"] 1675441130 "StationMeteoESP8266.tex" "StationMeteoESP8266.pdf" "StationMeteoESP8266" 1675441132
  "/usr/share/texmf-dist/fonts/map/fontname/texfonts.map" 1650183167 3524 cb3e574dea2d1052e39280babc910dc8 ""
  "/usr/share/texmf-dist/fonts/tfm/adobe/zapfding/pzdr.tfm" 1650183167 1528 f853c4d1b4e0550255e02831fdc8496f ""
  "/usr/share/texmf-dist/fonts/tfm/public/amsfonts/cmextra/cmex7.tfm" 1650183167 1004 54797486969f23fa377b128694d548df ""
  "/usr/share/texmf-dist/fonts/tfm/public/amsfonts/cmextra/cmex8.tfm" 1650183167 988 bdf658c3bfc2d96d3c8b02cfc1c94c20 ""
  "/usr/share/texmf-dist/fonts/tfm/public/amsfonts/symbols/msam10.tfm" 1650183167 916 f87d7c45f9c908e672703b83b72241a3 ""
  "/usr/share/texmf-dist/fonts/tfm/public/amsfonts/symbols/msam5.tfm" 1650183167 924 9904cf1d39e9767e7a3622f2a125a565 ""
  "/usr/share/texmf-dist/fonts/tfm/public/amsfonts/symbols/msam7.tfm" 1650183167 928 2dc8d444221b7a635bb58038579b861a ""
  "/usr/share/texmf-dist/fonts/tfm/public/amsfonts/symbols/msbm10.tfm" 1650183167 908 2921f8a10601f252058503cc6570e581 ""
  "/usr/share/texmf-dist/fonts/tfm/public/amsfonts/symbols/msbm5.tfm" 1650183167 940 75ac932a52f80982a9f8ea75d03a34cf ""
  "/usr/share/texmf-dist/fonts/tfm/public/amsfonts/symbols/msbm7.tfm" 1650183167 940 228d6584342e91276bf566bcf9716b83 ""
  "/usr/share/texmf-dist/fonts/tfm/public/cm/cmex10.tfm" 1650183167 992 662f679a0b3d2d53c1b94050fdaa3f50 ""
  "/usr/share/texmf-dist/fonts/tfm/public/cm/cmmi12.tfm" 1650183167 1524 4414a8315f39513458b80dfc63bff03a ""
  "/usr/share/texmf-dist/fonts/tfm/public/cm/cmmi6.tfm" 1650183167 1512 f21f83efb36853c0b70002322c1ab3ad ""
  "/usr/share/texmf-dist/fonts/tfm/public/cm/cmmi8.tfm" 1650183167 1520 eccf95517727cb11801f4f1aee3a21b4 ""
  "/usr/share/texmf-dist/fonts/tfm/public/cm/cmr12.tfm" 1650183167 1288 655e228510b4c2a1abe905c368440826 ""
  "/usr/share/texmf-dist/fonts/tfm/public/cm/cmr17.tfm" 1650183167 1292 296a67155bdbfc32aa9c636f21e91433 ""
  "/usr/share/texmf-dist/fonts/tfm/public/cm/cmr6.tfm" 1650183167 1300 b62933e007d01cfd073f79b963c01526 ""
  "/usr/share/texmf-dist/fonts/tfm/public/cm/cmr8.tfm" 1650183167 1292 21c1c5bfeaebccffdb478fd231a0997d ""
  "/usr/share/texmf-dist/fonts/tfm/public/cm/cmsy10.tfm" 1650183167 1124 6c73e740cf17375f03eec0ee63599741 ""
  "/usr/share/texmf-dist/fonts/tfm/public/cm/cmsy6.tfm" 1650183167 1116 933a60c408fc0a863a92debe84b2d294 ""
  "/usr/share/texmf-dist/fonts/tfm/public/cm/cmsy8.tfm" 1650183167 1120 8b7d695260f3cff42e636090a8002094 ""
  "/usr/share/texmf-dist/tex/generic/atbegshi/atbegshi.sty" 1650183167 24708 5584a51a7101caf7e6bbf1fc27d8f7b1 ""
  "/usr/share/texmf-dist/tex/generic/babel-french/french.ldf" 1650183167 67482 0072396597d217335316b2928ec3a940 ""
  "/usr/share/texmf-dist/tex/generic/babel/babel.sty" 1650183167 147649 823237dc86e8acfaa45204ca8085a60e ""
  "/usr/share/texmf-dist/tex/generic/babel/txtbabel.def" 1650183167 5233 d5e383ed66bf272b71b1a90b596e21c6 ""
  "/usr/share/texmf-dist/tex/generic/babel/xebabel.def" 1650183167 11961 9e0815b2ee2cfdc5b07c723327566dcb ""
  "/usr/share/texmf-dist/tex/generic/bigintcalc/bigintcalc.sty" 1650183167 40635 c40361e206be584d448876bba8a64a3b ""
  "/usr/share/texmf-dist/tex/generic/bitset/bitset.sty" 1650183167 33961 6b5c75130e435b2bfdb9f480a09a39f9 ""
  "/usr/share/texmf-dist/tex/generic/etexcmds/etexcmds.sty" 1650183167 7734 b98cbb34c81f667027c1e3ebdbfce34b ""
  "/usr/share/texmf-dist/tex/generic/gettitlestring/gettitlestring.sty" 1650183167 8371 9d55b8bd010bc717624922fb3477d92e ""
  "/usr/share/texmf-dist/tex/generic/iftex/iftex.sty" 1650183167 7237 bdd120a32c8fdb4b433cf9ca2e7cd98a ""
  "/usr/share/texmf-dist/tex/generic/iftex/ifvtex.sty" 1650183167 1057 525c2192b5febbd8c1f662c9468335bb ""
  "/usr/share/texmf-dist/tex/generic/infwarerr/infwarerr.sty" 1650183167 8356 7bbb2c2373aa810be568c29e333da8ed ""
  "/usr/share/texmf-dist/tex/generic/intcalc/intcalc.sty" 1650183167 31769 002a487f55041f8e805cfbf6385ffd97 ""
  "/usr/share/texmf-dist/tex/generic/kvdefinekeys/kvdefinekeys.sty" 1650183167 5412 d5a2436094cd7be85769db90f29250a6 ""
  "/usr/share/texmf-dist/tex/generic/kvsetkeys/kvsetkeys.sty" 1650183167 13807 952b0226d4efca026f0e19dd266dcc22 ""
  "/usr/share/texmf-dist/tex/generic/ltxcmds/ltxcmds.sty" 1650183167 17859 4409f8f50cd365c68e684407e5350b1b ""
  "/usr/share/texmf-dist/tex/generic/pdfescape/pdfescape.sty" 1650183167 19007 15924f7228aca6c6d184b115f4baa231 ""
  "/usr/share/texmf-dist/tex/generic/pdftexcmds/pdftexcmds.sty" 1650183167 20089 80423eac55aa175305d35b49e04fe23b ""
  "/usr/share/texmf-dist/tex/generic/stringenc/stringenc.sty" 1650183167 21514 b7557edcee22835ef6b03ede1802dad4 ""
  "/usr/share/texmf-dist/tex/generic/uniquecounter/uniquecounter.sty" 1650183167 7008 f92eaa0a3872ed622bbf538217cd2ab7 ""
  "/usr/share/texmf-dist/tex/latex/amsfonts/amsfonts.sty" 1650183167 5949 3f3fd50a8cc94c3d4cbf4fc66cd3df1c ""
  "/usr/share/texmf-dist/tex/latex/amsfonts/amssymb.sty" 1650183167 13829 94730e64147574077f8ecfea9bb69af4 ""
  "/usr/share/texmf-dist/tex/latex/amsfonts/umsa.fd" 1650183167 961 6518c6525a34feb5e8250ffa91731cff ""
  "/usr/share/texmf-dist/tex/latex/amsfonts/umsb.fd" 1650183167 961 d02606146ba5601b5645f987c92e6193 ""
  "/usr/share/texmf-dist/tex/latex/amsmath/amsbsy.sty" 1650183167 2222 da905dc1db75412efd2d8f67739f0596 ""
  "/usr/share/texmf-dist/tex/latex/amsmath/amsgen.sty" 1650183167 4173 bc0410bcccdff806d6132d3c1ef35481 ""
  "/usr/share/texmf-dist/tex/latex/amsmath/amsmath.sty" 1650183167 87648 07fbb6e9169e00cb2a2f40b31b2dbf3c ""
  "/usr/share/texmf-dist/tex/latex/amsmath/amsopn.sty" 1650183167 4128 8eea906621b6639f7ba476a472036bbe ""
  "/usr/share/texmf-dist/tex/latex/amsmath/amstext.sty" 1650183167 2444 926f379cc60fcf0c6e3fee2223b4370d ""
  "/usr/share/texmf-dist/tex/latex/atveryend/atveryend.sty" 1650183167 19336 ce7ae9438967282886b3b036cfad1e4d ""
  "/usr/share/texmf-dist/tex/latex/auxhook/auxhook.sty" 1650183167 3935 57aa3c3e203a5c2effb4d2bd2efbc323 ""
  "/usr/share/texmf-dist/tex/latex/base/alltt.sty" 1650183167 3137 2366459cfce784001c7405ed16a872fb ""
  "/usr/share/texmf-dist/tex/latex/base/atbegshi-ltx.sty" 1650183167 3034 3bfb87122e6fa8758225c0dd3cbaceba ""
  "/usr/share/texmf-dist/tex/latex/base/atveryend-ltx.sty" 1650183167 2462 754d6b31b2ab5a09bb72c348ace2ec75 ""
  "/usr/share/texmf-dist/tex/latex/base/fontenc.sty" 1650183167 4946 461cc78f6f26901410d9f1d725079cc6 ""
  "/usr/share/texmf-dist/tex/latex/base/makeidx.sty" 1650183167 1939 e44505a18ba4edebb8b70993e32c6350 ""
  "/usr/share/texmf-dist/tex/latex/base/report.cls" 1650183167 23203 8fbc410e29d3fd675970d5f9698c9c11 ""
  "/usr/share/texmf-dist/tex/latex/base/size12.clo" 1650183167 8449 bc7344e882df4d7e51c046514dee83e4 ""
  "/usr/share/texmf-dist/tex/latex/base/textcomp.sty" 1650183167 2894 55431114fc0e491ecee275edafd6c881 ""
  "/usr/share/texmf-dist/tex/latex/base/ts1cmr.fd" 1650183167 2430 06a89bcded389391906798ea7a3f3aaa ""
  "/usr/share/texmf-dist/tex/latex/base/tuenc.def" 1650183167 29098 3e2b8f2cbae539bde3ed8f63503c0954 ""
  "/usr/share/texmf-dist/tex/latex/capt-of/capt-of.sty" 1650181202 1311 063f8536a047a2d9cb1803321f793f37 ""
  "/usr/share/texmf-dist/tex/latex/carlisle/scalefnt.sty" 1650183167 1360 df2086bf924b14b72d6121fe9502fcdb ""
  "/usr/share/texmf-dist/tex/latex/cmap/cmap.sty" 1650183167 3574 ddc11a0ae1c579d351ed20d2319ad422 ""
  "/usr/share/texmf-dist/tex/latex/colortbl/colortbl.sty" 1650183167 10793 d0af3aa11e27ae35ba4685b17597b122 ""
  "/usr/share/texmf-dist/tex/latex/fancyhdr/fancyhdr.sty" 1650183167 17086 7ed8cbc4d361ec87392817e0dd4f65ec ""
  "/usr/share/texmf-dist/tex/latex/fancyvrb/fancyvrb.sty" 1650183167 44020 81e985253f43a03ce2683caca98d0d1b ""
  "/usr/share/texmf-dist/tex/latex/float/float.sty" 1650183167 6749 16d2656a1984957e674b149555f1ea1d ""
  "/usr/share/texmf-dist/tex/latex/fncychap/fncychap.sty" 1650181202 19488 fdd52eb173b3197d748e1ec25acb042f ""
  "/usr/share/texmf-dist/tex/latex/fontspec/fontspec-xetex.sty" 1650183167 162076 2f6d31c4632f2730c57b9c0fda038e15 ""
  "/usr/share/texmf-dist/tex/latex/fontspec/fontspec.cfg" 1650183167 549 c4adac819276241fea8eb79c5ab7b99e ""
  "/usr/share/texmf-dist/tex/latex/fontspec/fontspec.sty" 1650183167 1656 7e824878bad4df5a3e8bba4e463d9126 ""
  "/usr/share/texmf-dist/tex/latex/framed/framed.sty" 1650181202 22449 7ec15c16d0d66790f28e90343c5434a3 ""
  "/usr/share/texmf-dist/tex/latex/geometry/geometry.sty" 1650183167 41601 9cf6c5257b1bc7af01a58859749dd37a ""
  "/usr/share/texmf-dist/tex/latex/graphics-cfg/color.cfg" 1650183167 1213 620bba36b25224fa9b7e1ccb4ecb76fd ""
  "/usr/share/texmf-dist/tex/latex/graphics-cfg/graphics.cfg" 1650183167 1224 978390e9c2234eab29404bc21b268d1e ""
  "/usr/share/texmf-dist/tex/latex/graphics-def/xetex.def" 1650183167 14363 d3c336f2f510c0b73629f44e987d2e6a ""
  "/usr/share/texmf-dist/tex/latex/graphics/color.sty" 1650183167 7197 eb6c1ebf41667a05cb50c23c19d5e8bc ""
  "/usr/share/texmf-dist/tex/latex/graphics/graphics.sty" 1650183167 18399 7e40f80366dffb22c0e7b70517db5cb4 ""
  "/usr/share/texmf-dist/tex/latex/graphics/graphicx.sty" 1650183167 7996 a8fb260d598dcaf305a7ae7b9c3e3229 ""
  "/usr/share/texmf-dist/tex/latex/graphics/keyval.sty" 1650183167 2671 4de6781a30211fe0ea4c672e4a2a8166 ""
  "/usr/share/texmf-dist/tex/latex/graphics/trig.sty" 1650183167 4009 187ea2dc3194cd5a76cd99a8d7a6c4d0 ""
  "/usr/share/texmf-dist/tex/latex/hycolor/hycolor.sty" 1650183167 17914 4c28a13fc3d975e6e81c9bea1d697276 ""
  "/usr/share/texmf-dist/tex/latex/hyperref/hxetex.def" 1650183167 45016 0a35faa45750bcb80114f8df2443e9c1 ""
  "/usr/share/texmf-dist/tex/latex/hyperref/hyperref.sty" 1650183167 220999 6145ea83914c186e178d1d31c50b37df ""
  "/usr/share/texmf-dist/tex/latex/hyperref/nameref.sty" 1650183167 13242 133e617c5eebffdd05e421624022b267 ""
  "/usr/share/texmf-dist/tex/latex/hyperref/pd1enc.def" 1650183167 14132 e8e7e61e51ade521a7238fac8362786c ""
  "/usr/share/texmf-dist/tex/latex/hyperref/puenc.def" 1650183167 117004 ed1c2cc82bb9836e9d59549dd8c33098 ""
  "/usr/share/texmf-dist/tex/latex/kvoptions/kvoptions.sty" 1650183167 22521 d2fceb764a442a2001d257ef11db7618 ""
  "/usr/share/texmf-dist/tex/latex/l3backend/l3backend-xetex.def" 1650183167 35763 558b6bb076dfa9b058fe5c58dc6e0434 ""
  "/usr/share/texmf-dist/tex/latex/l3kernel/expl3.sty" 1650183167 6107 e4124ef96db512db87780f95c2a6b136 ""
  "/usr/share/texmf-dist/tex/latex/l3packages/xparse/xparse.sty" 1650183167 6758 7d9d899cbbfc962fbc4bb93f4c69eec2 ""
  "/usr/share/texmf-dist/tex/latex/letltxmacro/letltxmacro.sty" 1650183167 5766 13a9e8766c47f30327caf893ece86ac8 ""
  "/usr/share/texmf-dist/tex/latex/needspace/needspace.sty" 1650181202 852 0e34dbb72efc69fa07602405ad95585e ""
  "/usr/share/texmf-dist/tex/latex/oberdiek/hypcap.sty" 1650183167 3822 b53c749cd81352b4679a35b0dafefb95 ""
  "/usr/share/texmf-dist/tex/latex/parskip/parskip-2001-04-09.sty" 1650183167 2757 ea00cb4f4e9abc702916f74d3812ef67 ""
  "/usr/share/texmf-dist/tex/latex/parskip/parskip.sty" 1650183167 4288 94714aa7f535440f33181fec52a31963 ""
  "/usr/share/texmf-dist/tex/latex/refcount/refcount.sty" 1650183167 9878 9e94e8fa600d95f9c7731bb21dfb67a4 ""
  "/usr/share/texmf-dist/tex/latex/rerunfilecheck/rerunfilecheck.sty" 1650183167 9715 b051d5b493d9fe5f4bc251462d039e5f ""
  "/usr/share/texmf-dist/tex/latex/tabulary/tabulary.sty" 1650181202 13791 8c83287d79183c3bf58fd70871e8a70b ""
  "/usr/share/texmf-dist/tex/latex/titlesec/titlesec.sty" 1650181202 48833 3b7b4cfab1a3d15596bfd3772a77ab65 ""
  "/usr/share/texmf-dist/tex/latex/tools/array.sty" 1650183167 12694 6c23725d50ab9d1e2d3ce482c58ffcf3 ""
  "/usr/share/texmf-dist/tex/latex/tools/longtable.sty" 1650183167 12892 3ffe092fc7f5d1cb9866f1bcb071d0d6 ""
  "/usr/share/texmf-dist/tex/latex/tools/multicol.sty" 1650183167 32262 2bb622a0aa56c4a7a5cbdfe9d122c15a ""
  "/usr/share/texmf-dist/tex/latex/upquote/upquote.sty" 1650181202 1048 517e01cde97c1c0baf72e69d43aa5a2e ""
  "/usr/share/texmf-dist/tex/latex/url/url.sty" 1650183167 12796 8edb7d69a20b857904dd0ea757c14ec9 ""
  "/usr/share/texmf-dist/tex/latex/varwidth/varwidth.sty" 1650181202 10894 d359a13923460b2a73d4312d613554c8 ""
  "/usr/share/texmf-dist/tex/latex/wrapfig/wrapfig.sty" 1650181202 26220 3701aebf80ccdef248c0c20dd062fea9 ""
  "/usr/share/texmf-dist/tex/latex/xcolor/xcolor.sty" 1650183167 56029 3f7889dab51d620aa43177c391b7b190 ""
  "/usr/share/texmf-dist/web2c/texmf.cnf" 1650183167 39911 2da6c67557ec033436fe5418a70a8a61 ""
  "/var/lib/texmf/web2c/xetex/xelatex.fmt" 1668453214 5825174 e3352ab21ca7401eb9a587ae91e18487 ""
  "ADS1115.jpg" 1650284079 308333 4b054f8146460d28fe5e60f1a5b3d92a ""
  "AHT10.jpg" 1650284109 317657 61a210197ecb9d6979dff9438020b44e ""
  "Anémomètre.jpg" 1650284138 460604 cef92aeec51909c95bc193144dc0d606 ""
  "BH1750FVI.jpg" 1650284188 477958 e7e755a895a335aaa2bfd0a98f963bb0 ""
  "BME280.jpg" 1650284215 343244 778f3d8e667ca57bc472eae916a0e857 ""
  "BMP180.jpg" 1650284239 454620 c4c5f610be7e03d3ab660e5ec9314181 ""
  "CapteurHumiditéSol.jpg" 1650284264 323484 9bd92512851bc6e8eb46e6eeeeb6a873 ""
  "CapteurPluie.jpg" 1650284288 606068 1f782f2fb7dfe306ed39b3a4dd851023 ""
  "CapteurPluie2.jpg" 1650284311 324904 3a86219e808db7c1d0a461b65a8f1f8e ""
  "DHT11.jpg" 1650284346 528466 34c8c03d962a121478b8d14a96851cb4 ""
  "ESP8266.jpg" 1650284374 470357 e4e3c8e84cbfced9f3398dd9d02c30ec ""
  "Girouette.jpg" 1650284398 472919 9ed2cef05ee649a7d3108e9972cc45ff ""
  "InfoMétéo.png" 1650284430 831497 2d95d2813d2c755f0e3efabca096d02a ""
  "InfoSystem.png" 1650284452 209636 ec073121707c2b913b1added6b0c45f6 ""
  "OLED-BleuJaune0.96.jpg" 1650284534 422763 cb927546ccb9d4b801355a5cd273ca02 ""
  "PCF8574T.jpg" 1650284584 287523 02bcdcc091ce7be197881f2c8c58862a ""
  "PlatinePGA.jpg" 1650284607 307567 f5ee9e0ac2975d5f868af29c9e2e2830 ""
  "Pluviomètre.jpg" 1650284630 464751 e2da2b565e77fb36a74db299749b8c13 ""
  "SHTC3.jpg" 1650284652 254991 7ea42c737915d6622b5966b519003c82 ""
  "Site_Web_Mesures_Locales.png" 1606046713 30913 3682aeab92959eebf0f8adb2c83929ce ""
  "StationMeteo.jpg" 1650284692 432670 5625443be51d2a9134cc580c864a4413 ""
  "StationMeteoESP8266.aux" 1675441132 2675 b950869e448dea6c9e25d103d35f6a7b "pdflatex"
  "StationMeteoESP8266.ind" 0 -1 0 "makeindex StationMeteoESP8266.idx"
  "StationMeteoESP8266.out" 1675441132 1321 3fc2ddf137f209c8c9345dc2a6ffc49e "pdflatex"
  "StationMeteoESP8266.tex" 1675441123 20822 61025ecbb607d35ac12cb022f5957ec4 ""
  "StationMeteoESP8266.toc" 1675441132 622 cee95cd5a628af983c3b1dd8b067713d "pdflatex"
  "graphviz-0d2b3f4d67443004cb9a46f6e1ecef6f37a1445f.pdf" 1675441123 10507 fef8a60dafaa1d167e5db18c99d9369a ""
  "sphinx.sty" 1666015218 36948 4c5348dcae5ec5bcf690d6226a2c6721 ""
  "sphinxhighlight.sty" 1675441125 7490 72d023191655734567e0798eade2a1f7 ""
  "sphinxlatexadmonitions.sty" 1666015218 10155 37f3cbe6b251ec0f2ce20d0b8c4fa3d7 ""
  "sphinxlatexcontainers.sty" 1666015218 901 d3a3a1b7b2547f47ade2499350b5c420 ""
  "sphinxlatexgraphics.sty" 1666015218 4840 a9578332b6f3b35e198751fb632c9b79 ""
  "sphinxlatexindbibtoc.sty" 1666015218 2066 b93f8504d02f6337fde3074b179de55e ""
  "sphinxlatexlists.sty" 1666015218 5139 c2de2a1d98d3c6ceedfe46505abd3c07 ""
  "sphinxlatexliterals.sty" 1666015218 47804 3791e65c47beab112518c173e4def1bf ""
  "sphinxlatexnumfig.sty" 1666015218 4532 3633caf84afa1a98e1a060b7868202bb ""
  "sphinxlatexobjects.sty" 1666015218 9066 e76a2bc206b95eeeabf9b0331cad3113 ""
  "sphinxlatexshadowbox.sty" 1666015218 6689 da4fb0dca3ce0e780fbe8b70615b5873 ""
  "sphinxlatexstyleheadings.sty" 1666015218 3292 6582c81efeed7396df7e0fc148798242 ""
  "sphinxlatexstylepage.sty" 1666015218 3064 abce6c3018a84afee0afb08a431944ea ""
  "sphinxlatexstyletext.sty" 1666015218 6310 230e9c67ef82453e767773679e1f6816 ""
  "sphinxlatextables.sty" 1666015218 57830 6dde33374ef653202d83f31844e4f3c5 ""
  "sphinxmanual.cls" 1666015218 4241 7b0d7a37df7b5715fb0dbd585c52ecdb ""
  "sphinxmessages.sty" 1675441125 742 57bfa84249e53808c286b99adea1854e ""
  "sphinxoptionsgeometry.sty" 1666015218 2061 47bb34b8ed8a78823eb0c886abfb9f4d ""
  "sphinxoptionshyperref.sty" 1666015218 1094 79beb8b8a3f10784f8cce804e0f9d3aa ""
  "sphinxpackageboxes.sty" 1666015218 18408 cacf96116848f46194438f1e659006ed ""
  "sphinxpackagefootnote.sty" 1666015218 15254 d93f70cf000a9adb198015bf1b2f136c ""
  (generated)
  "StationMeteoESP8266.aux"
  "StationMeteoESP8266.idx"
  "StationMeteoESP8266.log"
  "StationMeteoESP8266.out"
  "StationMeteoESP8266.pdf"
  "StationMeteoESP8266.toc"
