\relax 
\providecommand\hyper@newdestlabel[2]{}
\providecommand\babel@aux[2]{}
\@nameuse{bbl@beforestart}
\providecommand\HyperFirstAtBeginDocument{\AtBeginDocument}
\HyperFirstAtBeginDocument{\ifx\hyper@anchor\@undefined
\global\let\oldcontentsline\contentsline
\gdef\contentsline#1#2#3#4{\oldcontentsline{#1}{#2}{#3}}
\global\let\oldnewlabel\newlabel
\gdef\newlabel#1#2{\newlabelxx{#1}#2}
\gdef\newlabelxx#1#2#3#4#5#6{\oldnewlabel{#1}{{#2}{#3}}}
\AtEndDocument{\ifx\hyper@anchor\@undefined
\let\contentsline\oldcontentsline
\let\newlabel\oldnewlabel
\fi}
\fi}
\global\let\hyper@last\relax 
\gdef\HyperFirstAtBeginDocument#1{#1}
\providecommand*\HyPL@Entry[1]{}
\HyPL@Entry{0<</S/D>>}
\babel@aux{french}{}
\HyPL@Entry{2<</S/r>>}
\HyPL@Entry{4<</S/D>>}
\newlabel{index::doc}{{}{1}{}{section*.2}{}}
\@writefile{toc}{\contentsline {chapter}{\numberline {1}Projet}{3}{chapter.1}\protected@file@percent }
\@writefile{lof}{\addvspace {10\p@ }}
\@writefile{lot}{\addvspace {10\p@ }}
\newlabel{index:projet}{{1}{3}{Projet}{chapter.1}{}}
\@writefile{toc}{\contentsline {section}{\numberline {1.1}Le setup}{4}{section.1.1}\protected@file@percent }
\newlabel{index:le-setup}{{1.1}{4}{Le setup}{section.1.1}{}}
\@writefile{toc}{\contentsline {section}{\numberline {1.2}Une GUI sur un afficheur OLED est possible}{5}{section.1.2}\protected@file@percent }
\newlabel{index:une-gui-sur-un-afficheur-oled-est-possible}{{1.2}{5}{Une GUI sur un afficheur OLED est possible}{section.1.2}{}}
\@writefile{toc}{\contentsline {section}{\numberline {1.3}Des affichages pour gérer les différentes informations de la station météo}{5}{section.1.3}\protected@file@percent }
\newlabel{index:des-affichages-pour-gerer-les-differentes-informations-de-la-station-meteo}{{1.3}{5}{Des affichages pour gérer les différentes informations de la station météo}{section.1.3}{}}
\@writefile{toc}{\contentsline {chapter}{\numberline {2}Matériel}{9}{chapter.2}\protected@file@percent }
\@writefile{lof}{\addvspace {10\p@ }}
\@writefile{lot}{\addvspace {10\p@ }}
\newlabel{index:materiel}{{2}{9}{Matériel}{chapter.2}{}}
\@writefile{toc}{\contentsline {chapter}{\numberline {3}Logiciel}{17}{chapter.3}\protected@file@percent }
\@writefile{lof}{\addvspace {10\p@ }}
\@writefile{lot}{\addvspace {10\p@ }}
\newlabel{index:logiciel}{{3}{17}{Logiciel}{chapter.3}{}}
\@writefile{toc}{\contentsline {chapter}{\numberline {4}La station météo en fonctionnement}{19}{chapter.4}\protected@file@percent }
\@writefile{lof}{\addvspace {10\p@ }}
\@writefile{lot}{\addvspace {10\p@ }}
\newlabel{index:la-station-meteo-en-fonctionnement}{{4}{19}{La station météo en fonctionnement}{chapter.4}{}}
\gdef \@abspage@last{23}
