\babel@toc {french}{}\relax 
\contentsline {chapter}{\numberline {1}Projet}{3}{chapter.1}%
\contentsline {section}{\numberline {1.1}Le setup}{4}{section.1.1}%
\contentsline {section}{\numberline {1.2}Une GUI sur un afficheur OLED est possible}{5}{section.1.2}%
\contentsline {section}{\numberline {1.3}Des affichages pour gérer les différentes informations de la station météo}{5}{section.1.3}%
\contentsline {chapter}{\numberline {2}Matériel}{9}{chapter.2}%
\contentsline {chapter}{\numberline {3}Logiciel}{17}{chapter.3}%
\contentsline {chapter}{\numberline {4}La station météo en fonctionnement}{19}{chapter.4}%
