<?xml version="1.0" encoding="UTF-8" standalone="no"?>
<!-- Generator: Adobe Illustrator 22.0.1, SVG Export Plug-In . SVG Version: 6.00 Build 0)  -->

<svg
   version="1.1"
   id="Layer_1"
   x="0px"
   y="0px"
   viewBox="0 0 36 36"
   xml:space="preserve"
   sodipodi:docname="weather_forecast_snow_wind.svg"
   width="36"
   height="36"
   inkscape:version="1.1.1 (3bf5ae0d25, 2021-09-20, custom)"
   xmlns:inkscape="http://www.inkscape.org/namespaces/inkscape"
   xmlns:sodipodi="http://sodipodi.sourceforge.net/DTD/sodipodi-0.dtd"
   xmlns="http://www.w3.org/2000/svg"
   xmlns:svg="http://www.w3.org/2000/svg"><defs
   id="defs7" /><sodipodi:namedview
   id="namedview5"
   pagecolor="#ffffff"
   bordercolor="#666666"
   borderopacity="1.0"
   inkscape:pageshadow="2"
   inkscape:pageopacity="0.0"
   inkscape:pagecheckerboard="0"
   showgrid="false"
   width="36px"
   inkscape:zoom="18.879751"
   inkscape:cx="14.248069"
   inkscape:cy="17.532011"
   inkscape:window-width="1920"
   inkscape:window-height="987"
   inkscape:window-x="0"
   inkscape:window-y="0"
   inkscape:window-maximized="1"
   inkscape:current-layer="Layer_1" />
<path
   d="m 0.48932777,17.171392 c 0,-1.961601 0.59186243,-3.686457 1.79249763,-5.208389 C 3.4824606,10.441071 5.0213029,9.4602707 6.9152627,8.9867808 7.4394837,6.6869725 8.6232085,4.7930127 10.466437,3.3049015 12.309666,1.8167903 14.42346,1.089645 16.80782,1.089645 c 2.333629,0 4.396692,0.7271453 6.22301,2.1645254 1.826319,1.4373802 3.010044,3.2975193 3.551175,5.5635068 h 0.541131 c 1.505022,0 2.908581,0.3720278 4.193768,1.1160831 1.285188,0.7440567 2.316719,1.7586777 3.060775,3.0438637 0.744057,1.285188 1.132994,2.688747 1.132994,4.193768 0,2.232167 -0.777877,4.176858 -2.35054,5.783342 -1.555752,1.623394 -3.466623,2.468912 -5.7157,2.536553 -0.219834,0 -0.338207,-0.101462 -0.338207,-0.287475 v -2.249078 c 0,-0.202924 0.118373,-0.304387 0.338207,-0.304387 1.437381,-0.06764 2.671836,-0.642593 3.686458,-1.724856 1.014621,-1.082262 1.521932,-2.333629 1.521932,-3.771009 0,-1.505021 -0.541132,-2.790208 -1.640305,-3.889381 -1.099173,-1.099174 -2.40127,-1.640305 -3.923202,-1.640305 h -2.722567 c -0.202924,0 -0.304387,-0.101462 -0.304387,-0.287475 L 23.927079,10.35652 C 23.741065,8.5302012 22.946278,6.9913589 21.57654,5.756903 20.189891,4.5224471 18.600318,3.8967639 16.757089,3.8967639 c -1.860139,0 -3.466623,0.6256832 -4.836362,1.8770494 -1.369739,1.2513663 -2.1476144,2.7902086 -2.316718,4.6503477 l -0.1014678,0.845518 c 0,0.202924 -0.1183725,0.321296 -0.3382071,0.321296 l -0.8962482,0.118373 c -1.4035594,0.118373 -2.5872843,0.693325 -3.5511745,1.758677 -0.9638903,1.065353 -1.4373802,2.282898 -1.4373802,3.703367 0,1.437381 0.5073106,2.688747 1.5219319,3.771009 1.0146213,1.082264 2.2490773,1.640305 3.6864574,1.724857 0.1860139,0 0.2874754,0.101462 0.2874754,0.304386 v 2.249078 c 0,0.186014 -0.1014625,0.287475 -0.2874754,0.287475 C 6.2219335,25.44056 4.3110634,24.595038 2.7384004,22.971644 1.2671995,21.34825 0.48932315,19.403559 0.48932315,17.171392 Z M 9.7900239,30.192366 c 0,-0.388938 0.1352809,-0.727145 0.4227581,-1.014621 0.270565,-0.253655 0.591863,-0.388938 0.963891,-0.388938 0.388938,0 0.727145,0.135283 0.997711,0.388938 0.270564,0.253655 0.405848,0.591862 0.405848,0.997711 0,0.405848 -0.135284,0.727145 -0.405848,0.997711 -0.270567,0.270565 -0.591863,0.388937 -0.997711,0.388937 -0.388939,0 -0.727145,-0.135283 -0.997712,-0.388937 C 9.9253069,30.919511 9.7900239,30.581304 9.7900239,30.192366 Z m 1.4542891,-6.138459 c 0,-0.372027 0.135283,-0.710234 0.405849,-0.980801 0.270566,-0.270566 0.591862,-0.405848 0.997711,-0.405848 0.388938,0 0.727145,0.135282 0.99771,0.405848 0.270566,0.270567 0.405849,0.608774 0.405849,0.980801 0,0.405848 -0.135283,0.744055 -0.405849,1.014622 -0.270565,0.287476 -0.591861,0.422758 -0.99771,0.422758 -0.388939,0 -0.727146,-0.135282 -0.997711,-0.422758 -0.270566,-0.270567 -0.405849,-0.608774 -0.405849,-1.014622 z m 3.212967,9.452889 c 0,-0.388939 0.135283,-0.727146 0.42276,-1.031532 0.270565,-0.270566 0.591861,-0.405849 0.963889,-0.405849 0.405849,0 0.744056,0.135283 1.031533,0.42276 0.287475,0.287475 0.422758,0.625682 0.422758,1.014621 0,0.388938 -0.135283,0.727145 -0.422758,0.997711 -0.287477,0.270565 -0.625684,0.405848 -1.031533,0.405848 -0.388938,0 -0.710235,-0.135283 -0.9808,-0.405848 -0.253656,-0.287476 -0.405849,-0.608773 -0.405849,-0.997711 z m 1.471201,-6.18919 c 0,-0.405849 0.135283,-0.744056 0.405848,-1.048442 0.270567,-0.270566 0.608774,-0.405848 0.980801,-0.405848 0.388938,0 0.727145,0.135282 1.014622,0.422758 0.287476,0.287476 0.422759,0.625683 0.422759,1.031532 0,0.388937 -0.135283,0.727144 -0.422759,1.014621 -0.287477,0.287476 -0.625684,0.422759 -1.014622,0.422759 -0.388938,0 -0.710234,-0.135283 -0.980801,-0.422759 -0.270565,-0.287477 -0.405848,-0.625684 -0.405848,-1.014621 z m 0.710235,-6.121549 c 0,-0.388938 0.135283,-0.727145 0.422759,-1.014621 0.304386,-0.270566 0.625683,-0.405848 0.96389,-0.405848 0.405849,0 0.744056,0.135282 1.031532,0.422758 0.287476,0.287476 0.422759,0.608773 0.422759,1.014621 0,0.388938 -0.135283,0.727145 -0.422759,0.997711 -0.287476,0.270566 -0.625683,0.405849 -1.031532,0.405849 -0.388938,0 -0.710235,-0.135283 -0.9808,-0.405849 -0.270566,-0.287476 -0.405849,-0.625683 -0.405849,-1.014621 z m 4.007755,8.996309 c 0,-0.388938 0.135283,-0.727145 0.405848,-1.014621 0.270566,-0.253655 0.608773,-0.388938 1.014621,-0.388938 0.405849,0 0.727146,0.135283 0.997711,0.388938 0.270566,0.270566 0.388938,0.591863 0.388938,0.997711 0,0.405848 -0.135282,0.727145 -0.388938,0.997711 -0.270565,0.270565 -0.591862,0.388937 -0.997711,0.388937 -0.405848,0 -0.744055,-0.135283 -1.014621,-0.405848 -0.270565,-0.253655 -0.405848,-0.574952 -0.405848,-0.96389 z m 1.437379,-6.138459 c 0,-0.372027 0.135283,-0.693324 0.42276,-0.9808 0.287476,-0.287477 0.625683,-0.422759 1.014621,-0.422759 0.388938,0 0.727145,0.135282 0.997711,0.405848 0.270565,0.270566 0.405849,0.608773 0.405849,0.980801 0,0.405848 -0.135284,0.744055 -0.405849,1.014621 -0.270566,0.287476 -0.591863,0.422759 -0.997711,0.422759 -0.405849,0 -0.744056,-0.135283 -1.014621,-0.422759 -0.270567,-0.270566 -0.42276,-0.608773 -0.42276,-0.997711 z"
   id="path2"
   style="stroke-width:1.69104" />
</svg>
