#define weather_forecast_night_hail_light_width 36
#define weather_forecast_night_hail_light_height 36
static unsigned char weather_forecast_night_hail_light_bits[] = {
   0x00, 0x00, 0x00, 0x3c, 0x00, 0x00, 0x00, 0x00, 0xff, 0x00, 0x00, 0x00,
   0xc0, 0xff, 0x03, 0x00, 0xf0, 0xc7, 0xff, 0x03, 0x00, 0xf8, 0xef, 0xff,
   0x07, 0x00, 0xfe, 0xfe, 0xff, 0x07, 0x00, 0x1e, 0xf0, 0xff, 0x0f, 0x00,
   0x07, 0xe0, 0xff, 0x0f, 0x80, 0x07, 0xc0, 0xff, 0x0f, 0x80, 0x03, 0x80,
   0xff, 0x0f, 0xc0, 0x03, 0x80, 0xff, 0x0f, 0xf0, 0x01, 0x80, 0xff, 0x0f,
   0xf8, 0x01, 0x00, 0xff, 0x07, 0x3c, 0x00, 0x00, 0xe0, 0x03, 0x1e, 0x00,
   0x00, 0xc0, 0x01, 0x0e, 0x00, 0x00, 0x80, 0x00, 0x0f, 0x00, 0x00, 0x80,
   0x01, 0x07, 0x00, 0x00, 0x00, 0x03, 0x07, 0x00, 0x00, 0x00, 0x02, 0x03,
   0x00, 0x00, 0x00, 0x02, 0x03, 0x00, 0x00, 0x00, 0x03, 0x06, 0x80, 0x01,
   0x00, 0x01, 0x0c, 0x80, 0x01, 0x80, 0x01, 0x18, 0xc0, 0x60, 0xc0, 0x00,
   0x70, 0xc0, 0x60, 0x70, 0x00, 0xc0, 0xc1, 0x60, 0x1c, 0x00, 0x00, 0x40,
   0x60, 0x00, 0x00, 0x00, 0x00, 0x30, 0x00, 0x00, 0x00, 0x00, 0x30, 0x00,
   0x00, 0x00, 0x60, 0x10, 0x00, 0x00, 0x00, 0x60, 0x00, 0x00, 0x00, 0x00,
   0x00, 0x00, 0x00, 0x00, 0x00, 0x00, 0x18, 0x00, 0x00, 0x00, 0x00, 0x18,
   0x00, 0x00, 0x00, 0x00, 0x00, 0x00, 0x00, 0x00, 0x00, 0x00, 0x00, 0x00 };
