#define weather_forecast_day_hail_light_width 36
#define weather_forecast_day_hail_light_height 36
static unsigned char weather_forecast_day_hail_light_bits[] = {
   0x00, 0x00, 0x00, 0x00, 0x00, 0x00, 0x00, 0x60, 0x00, 0x00, 0x00, 0x00,
   0x60, 0x00, 0x00, 0x00, 0x00, 0x60, 0x00, 0x00, 0x00, 0x18, 0x60, 0x00,
   0x00, 0x00, 0x38, 0x00, 0x60, 0x00, 0x00, 0x70, 0x00, 0x70, 0x00, 0x00,
   0x20, 0x00, 0x38, 0x00, 0x00, 0x00, 0xf8, 0x10, 0x00, 0x00, 0x78, 0xfe,
   0x03, 0x00, 0x00, 0xfe, 0x8e, 0x07, 0x00, 0x00, 0x87, 0x03, 0x06, 0x00,
   0x80, 0x03, 0x03, 0x0e, 0x00, 0xc0, 0x01, 0x06, 0x0c, 0x00, 0xc0, 0x00,
   0x04, 0x8c, 0x07, 0xe0, 0x00, 0x0c, 0x8c, 0x07, 0xf8, 0x00, 0x7c, 0x0c,
   0x00, 0x3c, 0x00, 0xc0, 0x0d, 0x00, 0x0c, 0x00, 0x00, 0x07, 0x00, 0x0e,
   0x00, 0x00, 0x07, 0x00, 0x06, 0x00, 0x00, 0x06, 0x00, 0x06, 0x00, 0x00,
   0x26, 0x00, 0x06, 0x30, 0x00, 0x76, 0x00, 0x0c, 0x30, 0x00, 0xe7, 0x00,
   0x08, 0x18, 0x06, 0xc1, 0x00, 0x38, 0x18, 0xc6, 0x01, 0x00, 0x60, 0x18,
   0x66, 0x00, 0x00, 0x40, 0x08, 0x26, 0x00, 0x00, 0x00, 0x00, 0x03, 0x00,
   0x00, 0x00, 0x00, 0x03, 0x00, 0x00, 0x00, 0x0c, 0x01, 0x00, 0x00, 0x00,
   0x0c, 0x00, 0x00, 0x00, 0x00, 0x00, 0x00, 0x00, 0x00, 0x00, 0x80, 0x01,
   0x00, 0x00, 0x00, 0x80, 0x01, 0x00, 0x00, 0x00, 0x00, 0x00, 0x00, 0x00 };
