#define weather_forecast_night_alt_snow_width 36
#define weather_forecast_night_alt_snow_height 36
static unsigned char weather_forecast_night_alt_snow_bits[] = {
   0x00, 0x00, 0x00, 0x1e, 0x00, 0x00, 0x00, 0xc0, 0x1f, 0x00, 0x00, 0x00,
   0xe0, 0x3f, 0x00, 0x00, 0x00, 0xf0, 0x3f, 0x00, 0x00, 0xf0, 0xf7, 0x3f,
   0x00, 0x00, 0xfc, 0xff, 0x3f, 0x00, 0x00, 0x3e, 0xf8, 0x7f, 0x00, 0x00,
   0x0f, 0xf0, 0xff, 0x00, 0x00, 0x07, 0xe0, 0xff, 0x03, 0x80, 0x03, 0xc0,
   0xff, 0x0f, 0x80, 0x03, 0xc0, 0xff, 0x0f, 0xe0, 0x01, 0x80, 0xff, 0x0f,
   0xf0, 0x01, 0x80, 0xff, 0x0f, 0xfc, 0x01, 0x00, 0xf8, 0x0f, 0x1c, 0x00,
   0x00, 0xe0, 0x07, 0x0e, 0x00, 0x00, 0xc0, 0x07, 0x0e, 0x00, 0x00, 0x80,
   0x03, 0x06, 0x00, 0x00, 0x80, 0x01, 0x06, 0x00, 0x00, 0x80, 0x00, 0x06,
   0x00, 0x00, 0x80, 0x01, 0x06, 0x00, 0x00, 0x80, 0x03, 0x0e, 0x00, 0x00,
   0xc0, 0x01, 0x0e, 0x00, 0x00, 0xc0, 0x01, 0x1c, 0x00, 0x00, 0xe0, 0x00,
   0x38, 0x00, 0x03, 0xf0, 0x00, 0x70, 0x30, 0x33, 0x38, 0x00, 0xc0, 0x33,
   0x30, 0x0f, 0x00, 0x00, 0x00, 0x00, 0x00, 0x00, 0x00, 0x00, 0x03, 0x00,
   0x00, 0x00, 0x00, 0x03, 0x00, 0x00, 0x00, 0x30, 0x30, 0x00, 0x00, 0x00,
   0x30, 0x30, 0x00, 0x00, 0x00, 0x00, 0x00, 0x00, 0x00, 0x00, 0x00, 0x03,
   0x00, 0x00, 0x00, 0x00, 0x03, 0x00, 0x00, 0x00, 0x00, 0x00, 0x00, 0x00 };
