#define weather_forecast_night_snow_wind_width 36
#define weather_forecast_night_snow_wind_height 36
static unsigned char weather_forecast_night_snow_wind_bits[] = {
   0x00, 0x00, 0x00, 0x1e, 0x00, 0x00, 0x00, 0x80, 0x7f, 0x00, 0x00, 0xc0,
   0xe3, 0xff, 0x01, 0x00, 0xe0, 0xf7, 0xff, 0x03, 0x00, 0xf8, 0xff, 0xff,
   0x03, 0x00, 0xfc, 0xf8, 0xff, 0x07, 0x00, 0x1e, 0xe0, 0xff, 0x07, 0x00,
   0x07, 0xc0, 0xff, 0x0f, 0x80, 0x07, 0xc0, 0xff, 0x0f, 0x80, 0x03, 0x80,
   0xff, 0x0f, 0xc0, 0x03, 0x80, 0xff, 0x0f, 0xf0, 0x01, 0x80, 0xff, 0x07,
   0xf8, 0x01, 0x00, 0xf8, 0x07, 0x3c, 0x00, 0x00, 0xe0, 0x03, 0x1c, 0x00,
   0x00, 0xc0, 0x03, 0x0e, 0x00, 0x00, 0x80, 0x01, 0x0e, 0x00, 0x00, 0x80,
   0x00, 0x06, 0x00, 0x00, 0x80, 0x00, 0x06, 0x00, 0x00, 0x80, 0x00, 0x06,
   0x00, 0x00, 0x80, 0x01, 0x06, 0x00, 0x00, 0x80, 0x01, 0x0e, 0x00, 0x00,
   0xc0, 0x01, 0x1e, 0x00, 0x00, 0xc0, 0x01, 0x3c, 0x00, 0x00, 0xf0, 0x00,
   0x38, 0x00, 0x03, 0xf8, 0x00, 0x70, 0x30, 0x33, 0x3c, 0x00, 0xc0, 0x33,
   0x30, 0x0f, 0x00, 0x00, 0x00, 0x00, 0x00, 0x00, 0x00, 0xc0, 0x00, 0x00,
   0x00, 0x00, 0xc6, 0x0c, 0x00, 0x00, 0x00, 0x06, 0x0c, 0x00, 0x00, 0x00,
   0x00, 0x00, 0x00, 0x00, 0x00, 0x30, 0x00, 0x00, 0x00, 0x00, 0x30, 0x00,
   0x00, 0x00, 0x00, 0x00, 0x00, 0x00, 0x00, 0x00, 0x00, 0x00, 0x00, 0x00 };
