<?xml version="1.0" encoding="UTF-8" standalone="no"?>
<!-- Generator: Adobe Illustrator 22.0.1, SVG Export Plug-In . SVG Version: 6.00 Build 0)  -->

<svg
   version="1.1"
   id="Layer_1"
   x="0px"
   y="0px"
   viewBox="0 0 36 36"
   xml:space="preserve"
   sodipodi:docname="weather_forecast_day_windy.svg"
   width="36"
   height="36"
   inkscape:version="1.1.1 (3bf5ae0d25, 2021-09-20, custom)"
   xmlns:inkscape="http://www.inkscape.org/namespaces/inkscape"
   xmlns:sodipodi="http://sodipodi.sourceforge.net/DTD/sodipodi-0.dtd"
   xmlns="http://www.w3.org/2000/svg"
   xmlns:svg="http://www.w3.org/2000/svg"><defs
   id="defs7" /><sodipodi:namedview
   id="namedview5"
   pagecolor="#ffffff"
   bordercolor="#666666"
   borderopacity="1.0"
   inkscape:pageshadow="2"
   inkscape:pageopacity="0.0"
   inkscape:pagecheckerboard="0"
   showgrid="false"
   width="36px"
   inkscape:zoom="19.492577"
   inkscape:cx="14.980061"
   inkscape:cy="17.032125"
   inkscape:window-width="1920"
   inkscape:window-height="987"
   inkscape:window-x="0"
   inkscape:window-y="0"
   inkscape:window-maximized="1"
   inkscape:current-layer="Layer_1" />
<path
   d="m 0.00488,28.43504 c 0,0.31944 0.11979,0.58564 0.35937,0.7986 0.22627,0.22627 0.49247,0.33275 0.81191,0.33275 h 7.82628 c 0.34606,0 0.63888,0.11979 0.90508,0.37268 0.2662,0.25289 0.3993,0.55902 0.3993,0.90508 0,0.34606 -0.1331,0.6655 -0.3993,0.91839 -0.2662,0.25289 -0.55902,0.38599 -0.90508,0.38599 -0.34606,0 -0.63888,-0.1331 -0.90508,-0.3993 -0.23958,-0.21296 -0.50578,-0.31944 -0.81191,-0.31944 -0.31944,0 -0.58564,0.10648 -0.7986,0.31944 -0.21296,0.21296 -0.31944,0.47916 -0.31944,0.7986 0,0.31944 0.10648,0.58564 0.31944,0.7986 0.70543,0.70543 1.54396,1.0648 2.51559,1.0648 0.98494,0 1.82347,-0.34606 2.50228,-1.03818 0.67881,-0.69212 1.03818,-1.53065 1.03818,-2.51559 0,-0.98494 -0.34606,-1.82347 -1.03818,-2.51559 C 10.8126,27.64975 9.97407,27.30369 9.00244,27.30369 H 1.17616 c -0.31944,0 -0.58564,0.10648 -0.82522,0.33275 -0.22627,0.22627 -0.34606,0.49247 -0.34606,0.7986 z m 0,-4.00631 c 0,0.30613 0.11979,0.55902 0.35937,0.77198 0.21296,0.21296 0.49247,0.31944 0.81191,0.31944 h 14.60107 c 0.98494,0 1.82347,-0.34606 2.51559,-1.03818 0.69212,-0.69212 1.03818,-1.53065 1.03818,-2.51559 0,-0.98494 -0.34606,-1.81016 -1.03818,-2.50228 -0.69212,-0.67881 -1.53065,-1.02487 -2.51559,-1.02487 -1.01156,0 -1.83678,0.33275 -2.50228,1.01156 -0.21296,0.21296 -0.30613,0.49247 -0.30613,0.81191 0,0.31944 0.10648,0.58564 0.30613,0.7986 0.19965,0.19965 0.46585,0.30613 0.7986,0.30613 0.31944,0 0.58564,-0.10648 0.82522,-0.30613 0.25289,-0.25289 0.54571,-0.37268 0.90508,-0.37268 0.35937,0 0.65219,0.11979 0.90508,0.37268 0.25289,0.25289 0.38599,0.55902 0.38599,0.90508 0,0.35937 -0.1331,0.6655 -0.38599,0.91839 -0.25289,0.25289 -0.55902,0.38599 -0.90508,0.38599 H 1.17616 c -0.31944,0 -0.58564,0.11979 -0.82522,0.34606 -0.22627,0.23958 -0.34606,0.50578 -0.34606,0.81191 z m 7.70649,-8.70474 c 0,-0.31944 0.11979,-0.58564 0.34606,-0.82522 0.23958,-0.21296 0.50578,-0.31944 0.7986,-0.31944 h 2.70193 c 0.30613,0 0.55902,0.10648 0.77198,0.33275 0.21296,0.22627 0.30613,0.49247 0.30613,0.81191 0,0.31944 -0.10648,0.58564 -0.30613,0.7986 -0.21296,0.22627 -0.46585,0.33275 -0.77198,0.33275 H 8.85603 c -0.31944,0 -0.58564,-0.10648 -0.81191,-0.33275 -0.22627,-0.22627 -0.33275,-0.49247 -0.33275,-0.7986 z m 3.79335,-9.21052 c 0,-0.30613 0.10648,-0.57233 0.30613,-0.81191 0.25289,-0.21296 0.54571,-0.31944 0.85184,-0.31944 0.29282,0 0.55902,0.10648 0.78529,0.31944 l 1.90333,1.95657 c 0.21296,0.19965 0.31944,0.46585 0.31944,0.78529 0,0.31944 -0.10648,0.58564 -0.31944,0.7986 -0.21296,0.21296 -0.47916,0.31944 -0.78529,0.31944 -0.31944,0 -0.58564,-0.10648 -0.78529,-0.31944 L 11.82416,7.33869 C 11.6112,7.11242 11.50472,6.84622 11.50472,6.51347 Z m 3.40736,9.0508 V 15.4711 c 0.02662,-1.21121 0.35937,-2.32925 0.98494,-3.36743 0.63888,-1.02487 1.47741,-1.83678 2.5289,-2.43573 1.05149,-0.59895 2.19615,-0.89177 3.42067,-0.89177 0.9317,0 1.82347,0.18634 2.68862,0.55902 0.85184,0.37268 1.5972,0.86515 2.20946,1.49072 0.62557,0.62557 1.11804,1.35762 1.47741,2.20946 0.35937,0.85184 0.54571,1.75692 0.54571,2.68862 0,1.25114 -0.30613,2.3958 -0.91839,3.4606 -0.61226,1.0648 -1.45079,1.90333 -2.50228,2.51559 -1.05149,0.62557 -2.20946,0.9317 -3.4606,0.94501 h -0.27951 c -0.09317,0 -0.17303,-0.02662 -0.22627,-0.09317 -0.06655,-0.06655 -0.09317,-0.14641 -0.09317,-0.23958 v -1.62382 c 0,-0.17303 0.09317,-0.2662 0.29282,-0.2662 h 0.31944 c 1.27776,-0.01331 2.38249,-0.46585 3.28757,-1.39755 0.90508,-0.91839 1.37093,-2.02312 1.37093,-3.31419 0,-1.27776 -0.46585,-2.36918 -1.38424,-3.28757 -0.91839,-0.90508 -2.02312,-1.35762 -3.3275,-1.35762 -1.25114,0 -2.34256,0.42592 -3.24764,1.30438 -0.90508,0.86515 -1.38424,1.91664 -1.43748,3.15447 0,0.07986 -0.03993,0.14641 -0.10648,0.22627 -0.06655,0.07986 -0.18634,0.11979 -0.34606,0.11979 H 15.2049 c -0.19965,0.01331 -0.29282,-0.09317 -0.29282,-0.30613 z m 5.78985,13.15028 v -2.64869 c 0,-0.31944 0.10648,-0.58564 0.33275,-0.7986 0.22627,-0.21296 0.49247,-0.31944 0.7986,-0.31944 0.33275,0 0.59895,0.10648 0.81191,0.31944 0.21296,0.21296 0.31944,0.47916 0.31944,0.7986 v 2.64869 c 0,0.31944 -0.10648,0.59895 -0.33275,0.82522 -0.22627,0.22627 -0.49247,0.33275 -0.7986,0.33275 -0.31944,0 -0.58564,-0.10648 -0.7986,-0.33275 -0.21296,-0.22627 -0.33275,-0.50578 -0.33275,-0.82522 z m 0,-23.26588 V 2.72012 c 0,-0.30613 0.10648,-0.57233 0.33275,-0.7986 0.22627,-0.22627 0.49247,-0.33275 0.7986,-0.33275 0.31944,0 0.58564,0.10648 0.7986,0.33275 0.21296,0.22627 0.33275,0.49247 0.33275,0.7986 v 2.71524 c 0,0.30613 -0.10648,0.55902 -0.33275,0.77198 -0.22627,0.19965 -0.49247,0.30613 -0.7986,0.30613 -0.31944,0 -0.58564,-0.10648 -0.7986,-0.30613 C 20.82172,6.00769 20.70193,5.7548 20.70193,5.44867 Z m 7.36043,17.54258 c 0,-0.30613 0.10648,-0.55902 0.30613,-0.74536 0.19965,-0.21296 0.45254,-0.30613 0.75867,-0.30613 0.31944,0 0.58564,0.10648 0.7986,0.30613 l 1.92995,1.89002 c 0.21296,0.22627 0.31944,0.50578 0.31944,0.81191 0,0.30613 -0.10648,0.57233 -0.31944,0.78529 -0.5324,0.41261 -1.0648,0.41261 -1.5972,0 L 28.36849,23.82978 C 28.15553,23.61682 28.06236,23.324 28.06236,22.99125 Z m 0,-14.54783 c 0,-0.33275 0.10648,-0.59895 0.30613,-0.78529 l 1.89002,-1.95657 c 0.23958,-0.21296 0.49247,-0.31944 0.78529,-0.31944 0.30613,0 0.57233,0.10648 0.7986,0.33275 0.22627,0.22627 0.33275,0.49247 0.33275,0.7986 0,0.33275 -0.10648,0.61226 -0.31944,0.82522 l -1.92995,1.90333 c -0.23958,0.21296 -0.50578,0.31944 -0.7986,0.31944 -0.30613,0 -0.54571,-0.10648 -0.75867,-0.31944 -0.21296,-0.21296 -0.30613,-0.47916 -0.30613,-0.7986 z m 3.00806,7.28057 c 0,-0.31944 0.10648,-0.58564 0.31944,-0.82522 0.21296,-0.21296 0.46585,-0.31944 0.75867,-0.31944 h 2.68862 c 0.30613,0 0.57233,0.11979 0.81191,0.34606 0.23958,0.22627 0.34606,0.49247 0.34606,0.7986 0,0.30613 -0.11979,0.57233 -0.34606,0.7986 -0.23958,0.22627 -0.50578,0.33275 -0.81191,0.33275 h -2.68862 c -0.30613,0 -0.55902,-0.10648 -0.77198,-0.33275 -0.21296,-0.21296 -0.30613,-0.47916 -0.30613,-0.7986 z"
   id="path2"
   style="stroke-width:1.331" />
</svg>
