<?xml version="1.0" encoding="UTF-8" standalone="no"?>
<!-- Generator: Adobe Illustrator 22.0.1, SVG Export Plug-In . SVG Version: 6.00 Build 0)  -->

<svg
   version="1.1"
   id="Layer_1"
   x="0px"
   y="0px"
   viewBox="0 0 36 36"
   xml:space="preserve"
   sodipodi:docname="weather_forecast_hot.svg"
   width="36"
   height="36"
   inkscape:version="1.1.1 (3bf5ae0d25, 2021-09-20, custom)"
   xmlns:inkscape="http://www.inkscape.org/namespaces/inkscape"
   xmlns:sodipodi="http://sodipodi.sourceforge.net/DTD/sodipodi-0.dtd"
   xmlns="http://www.w3.org/2000/svg"
   xmlns:svg="http://www.w3.org/2000/svg"><defs
   id="defs7" /><sodipodi:namedview
   id="namedview5"
   pagecolor="#ffffff"
   bordercolor="#666666"
   borderopacity="1.0"
   inkscape:pageshadow="2"
   inkscape:pageopacity="0.0"
   inkscape:pagecheckerboard="0"
   showgrid="false"
   width="36px"
   inkscape:zoom="19.492577"
   inkscape:cx="14.877458"
   inkscape:cy="17.54514"
   inkscape:window-width="1920"
   inkscape:window-height="987"
   inkscape:window-x="0"
   inkscape:window-y="0"
   inkscape:window-maximized="1"
   inkscape:current-layer="Layer_1" />
<path
   d="m 0.5098614,19.054884 c 0,-0.386523 0.1449459,-0.708625 0.4348377,-0.982411 0.2737867,-0.273787 0.6119938,-0.402628 0.9985162,-0.402628 h 3.3176506 c 0.3865224,0 0.7086244,0.128841 0.966306,0.402628 0.2737867,0.273786 0.4026275,0.595888 0.4026275,0.982411 0,0.402627 -0.1288408,0.740834 -0.4026275,1.014621 -0.2737867,0.273787 -0.5958887,0.402627 -0.966306,0.402627 H 1.9432153 c -0.4026275,0 -0.7408346,-0.12884 -1.0146213,-0.402627 C 0.6387022,19.795718 0.5098614,19.457511 0.5098614,19.054884 Z M 5.2125506,7.749104 c 0,-0.3704173 0.1288408,-0.7086244 0.3865224,-0.9985162 0.322102,-0.2576816 0.6603091,-0.4026275 1.0629366,-0.4026275 0.3382071,0 0.6603091,0.1288408 0.9502009,0.4026275 L 9.94745,9.1341426 c 0.273787,0.2576821 0.402628,0.579783 0.402628,0.9663064 0,0.386521 -0.128841,0.708625 -0.402628,0.966306 -0.2737867,0.273787 -0.5797836,0.402628 -0.966306,0.402628 -0.4187326,0 -0.7408346,-0.128841 -0.9824111,-0.402628 L 5.5829679,8.7476202 C 5.3574965,8.4738335 5.2125506,8.1356264 5.2125506,7.749104 Z m 4.2034311,11.30578 c 0,-1.143462 0.2254714,-2.238609 0.6925193,-3.285441 0.450943,-1.046831 1.079042,-1.964822 1.835981,-2.721762 0.773045,-0.756939 1.691036,-1.368933 2.737867,-1.819876 1.046832,-0.450943 2.158084,-0.692519 3.317651,-0.692519 1.54609,0 2.963338,0.386522 4.283957,1.159567 1.320618,0.773045 2.367449,1.803771 3.124389,3.124389 0.75694,1.304513 1.143462,2.721762 1.143462,4.235642 0,0.241576 -0.0161,0.467048 -0.04831,0.676414 -0.450943,-0.273787 -0.966306,-0.402628 -1.562195,-0.402628 -0.386522,0 -0.773044,0.08052 -1.159567,0.241577 0.0161,-0.112736 0.0161,-0.289892 0.0161,-0.515363 0,-1.5783 -0.563678,-2.915023 -1.70714,-4.026275 -1.143462,-1.111252 -2.512396,-1.674931 -4.106801,-1.674931 -1.594405,0 -2.947233,0.563679 -4.090695,1.674931 -1.143462,1.111252 -1.691036,2.447975 -1.691036,4.026275 v 0.289891 c -0.467048,0.03221 -0.91799,0.161051 -1.352828,0.402628 -0.0161,0.0161 -0.06442,0.04831 -0.161051,0.112736 -0.09664,0.06442 -0.193261,0.144946 -0.305997,0.225471 -0.112736,0.08053 -0.225471,0.177156 -0.370417,0.305997 C 9.8669267,20.520448 9.7219808,20.649289 9.59314,20.778129 9.4642992,20.262766 9.4159839,19.682983 9.4159839,19.054884 Z m 0.048312,5.878361 v -0.241576 c -0.016104,-0.144945 0,-0.322102 0.032208,-0.531468 0.080531,-0.579783 0.3059969,-1.127357 0.6764143,-1.64272 0.209366,-0.257682 0.354312,-0.434837 0.434838,-0.499259 0.0161,-0.03221 0.03221,-0.06442 0.06442,-0.09664 l 0.06442,-0.06442 c 0.04831,-0.0161 0.112735,-0.08052 0.193261,-0.16105 0.03221,-0.03221 0.08052,-0.08052 0.128841,-0.128842 0.04831,-0.04831 0.09663,-0.06442 0.112735,-0.09663 0.08052,-0.08052 0.161051,-0.128841 0.225472,-0.161051 l 0.273786,-0.177155 c 0.225472,-0.144946 0.499258,-0.225472 0.805255,-0.225472 h 0.04831 c 0.161051,0 0.305997,0.0161 0.418733,0.04831 0.04831,0.0161 0.112736,0.04831 0.209366,0.112735 v 0.0161 c 0.225472,0.09663 0.418733,0.257682 0.547574,0.467049 0.12884,0.209366 0.209366,0.434837 0.209366,0.676415 0,0.273785 -0.08052,0.499257 -0.225471,0.676414 -0.09664,0.144945 -0.225472,0.273785 -0.354313,0.370416 -0.03221,0.0161 -0.06442,0.03221 -0.09664,0.04831 -0.03221,0.0161 -0.06442,0.03221 -0.06442,0.03221 l -0.09664,0.06442 c -0.06442,0.04831 -0.112735,0.09664 -0.161051,0.128841 -0.04831,0.03221 -0.09664,0.09663 -0.177156,0.177156 -0.06442,0.08052 -0.12884,0.144946 -0.177156,0.225471 -0.04831,0.06442 -0.09664,0.161051 -0.144946,0.241577 -0.04831,0.09663 -0.08052,0.193261 -0.08052,0.273787 v 0.241576 c 0.06442,0.241577 0.128841,0.434838 0.177156,0.579784 0.112736,0.225471 0.289892,0.450942 0.547574,0.708624 0.0161,0.03221 0.144946,0.161051 0.386522,0.402628 1.385039,1.256197 2.045348,2.609027 1.948717,4.026275 -0.03221,0.483153 -0.144946,0.9502 -0.338207,1.401143 -0.193261,0.450943 -0.418732,0.82136 -0.692519,1.127357 -0.257682,0.305997 -0.467048,0.531469 -0.628099,0.69252 -0.161051,0.144945 -0.289892,0.257682 -0.402627,0.338208 -0.0161,0.0161 -0.04831,0.03221 -0.09663,0.06442 -0.04831,0.03221 -0.09664,0.06442 -0.112736,0.06442 -0.128841,0.06442 -0.241577,0.09663 -0.354312,0.112735 -0.144946,0.0161 -0.241577,0.03221 -0.322102,0.03221 -0.483153,0 -0.869676,-0.161052 -1.143462,-0.483154 -0.225472,-0.273786 -0.322102,-0.595888 -0.289892,-0.950201 0.03221,-0.354312 0.209366,-0.644204 0.531468,-0.85357 l 0.0161,-0.04831 c 0.0161,-0.0161 0.04831,-0.04831 0.08053,-0.06442 0.03221,-0.03221 0.06442,-0.06442 0.112736,-0.09662 0.04831,-0.03221 0.09663,-0.08053 0.128841,-0.128842 0.04831,-0.04831 0.09663,-0.112735 0.12884,-0.161051 0.04831,-0.06442 0.09663,-0.128841 0.128841,-0.193261 0.04831,-0.06442 0.09664,-0.144946 0.128841,-0.225471 0.04831,-0.08053 0.08052,-0.161051 0.112736,-0.241576 0.03221,-0.08053 0.04831,-0.161051 0.08052,-0.257682 0.0161,-0.09663 0.03221,-0.193261 0.03221,-0.273787 0.03221,-0.322101 -0.04831,-0.644203 -0.241577,-0.966306 -0.08052,-0.177155 -0.193261,-0.354311 -0.354312,-0.531467 -0.112736,-0.128841 -0.193261,-0.209367 -0.241577,-0.257682 -0.144945,-0.177156 -0.225471,-0.273787 -0.241576,-0.289892 -0.03221,-0.0161 -0.06442,-0.04831 -0.112736,-0.09663 -0.04831,-0.04831 -0.08053,-0.06442 -0.09664,-0.08052 C 10.962043,27.832149 10.784887,27.638888 10.656046,27.477837 10.462785,27.220155 10.317839,27.059104 10.269523,26.962473 9.9635265,26.54374 9.7541602,26.125008 9.6414245,25.706276 9.5770085,25.480803 9.5286888,25.303647 9.5125837,25.190911 c 0,-0.03221 -0.016104,-0.08052 -0.032208,-0.12884 -0.016104,-0.04831 -0.016104,-0.08053 -0.016104,-0.128841 z m 6.2487783,-0.531468 c 0,-0.09663 0,-0.161051 0.0161,-0.225472 0.03221,-0.354312 0.144946,-0.692519 0.322102,-1.030726 0.177157,-0.338207 0.354313,-0.628098 0.563679,-0.85357 0.209366,-0.225472 0.402627,-0.434838 0.611994,-0.611994 0.209366,-0.177156 0.370417,-0.305997 0.499258,-0.402628 l 0.193261,-0.112735 c 0.241577,-0.144946 0.515363,-0.225472 0.805255,-0.225472 0.177156,0 0.338207,0.0161 0.483153,0.04831 0.0161,0 0.03221,0.0161 0.08052,0.03221 0.04831,0.03221 0.08053,0.04831 0.09663,0.06442 0.0161,0 0.03221,0 0.04831,0.0161 0.0161,0 0.04831,0.03221 0.112736,0.08053 0.322102,0.193262 0.515363,0.483153 0.611994,0.869676 0,0.03221 0,0.06442 0,0.112735 0,0.03221 0,0.06442 0,0.08053 0,0.04831 -0.0161,0.112736 -0.03221,0.193262 -0.0161,0.08053 -0.03221,0.12884 -0.03221,0.144946 -0.112736,0.370417 -0.338208,0.628098 -0.676415,0.805255 -0.531468,0.354312 -0.82136,0.724729 -0.85357,1.111251 -0.0161,0.128841 -0.0161,0.241577 0,0.354313 0.03221,0.193261 0.128841,0.402627 0.273787,0.628099 0.177156,0.257681 0.305997,0.434837 0.386522,0.515363 0.257682,0.257681 0.402628,0.402627 0.450943,0.434837 0.193261,0.177157 0.450943,0.450943 0.75694,0.821361 0.869675,1.046831 1.272303,2.125873 1.191777,3.22102 -0.03221,0.483153 -0.144946,0.9502 -0.338207,1.401143 -0.193261,0.450943 -0.418733,0.82136 -0.692519,1.127357 -0.257682,0.289892 -0.483153,0.531469 -0.644204,0.69252 -0.177156,0.161051 -0.305997,0.273786 -0.402628,0.338207 l -0.193261,0.12884 c -0.177156,0.06442 -0.273787,0.09663 -0.338207,0.112736 -0.177156,0.0161 -0.289892,0.03221 -0.322102,0.03221 h -0.04831 c -0.128841,0 -0.225472,-0.0161 -0.305997,-0.03221 -0.03221,0 -0.08053,0 -0.128841,-0.0161 -0.04831,-0.0161 -0.09663,-0.0161 -0.112736,-0.0161 -0.0161,0 -0.03221,0 -0.04831,-0.0161 -0.0161,-0.0161 -0.03221,-0.0161 -0.06442,-0.03221 -0.0161,-0.0161 -0.03221,-0.0161 -0.04831,-0.0161 -0.241576,-0.177156 -0.386522,-0.273787 -0.418732,-0.338207 -0.257682,-0.289892 -0.354312,-0.611994 -0.305997,-0.966306 0.04831,-0.354312 0.225471,-0.628099 0.547573,-0.85357 l 0.04831,-0.06442 c 0.03221,-0.03221 0.08053,-0.08053 0.144946,-0.128841 l 0.193261,-0.193261 0.209367,-0.257682 0.193261,-0.305997 0.144946,-0.354312 0.06442,-0.386522 c 0.0161,-0.644204 -0.354312,-1.320619 -1.111252,-2.045348 -0.305997,-0.273787 -0.531468,-0.499258 -0.708624,-0.692519 -0.885781,-1.111252 -1.288408,-2.158084 -1.223988,-3.18881 z M 16.582751,6.4284858 V 3.0947301 c 0,-0.3865224 0.144946,-0.7247295 0.418733,-0.9985162 0.273787,-0.2737867 0.611994,-0.4026275 0.982411,-0.4026275 0.386522,0 0.724729,0.1288408 0.998516,0.4026275 0.273787,0.2737867 0.402628,0.6119938 0.402628,0.9985162 v 3.3337557 c 0,0.3865224 -0.128841,0.6925193 -0.402628,0.9502009 C 18.708624,7.6363683 18.386522,7.749104 18,7.749104 c -0.386522,0 -0.708624,-0.1288408 -0.982411,-0.3704173 C 16.727697,7.1210051 16.582751,6.8150082 16.582751,6.4284858 Z M 21.994065,24.1602 c 0.03221,-0.354312 0.144946,-0.692519 0.322102,-1.030726 0.177156,-0.338206 0.354312,-0.628099 0.563678,-0.85357 0.209367,-0.225472 0.402628,-0.434838 0.611994,-0.611994 0.193261,-0.177156 0.354312,-0.305997 0.483153,-0.402628 l 0.209366,-0.112735 c 0.03221,-0.03221 0.09663,-0.06442 0.161051,-0.128841 0.177156,-0.06442 0.386523,-0.112736 0.611994,-0.112736 0.547574,0 0.950201,0.209366 1.240093,0.611994 0.08052,0.112736 0.128841,0.225471 0.161051,0.370417 0.0161,0.03221 0.03221,0.08053 0.03221,0.128841 v 0.177156 c 0,0.499258 -0.241577,0.885781 -0.72473,1.127357 -0.515363,0.338207 -0.78915,0.708625 -0.837465,1.111252 -0.06442,0.547573 0.305997,1.191777 1.095147,1.932612 1.417249,1.240093 2.061453,2.592921 1.980927,4.026275 -0.03221,0.483153 -0.144946,0.950201 -0.338207,1.401144 -0.193261,0.450943 -0.434838,0.82136 -0.692519,1.127357 -0.273787,0.305997 -0.483153,0.531468 -0.628099,0.692519 -0.144946,0.161051 -0.289892,0.257682 -0.402628,0.338207 -0.257681,0.161051 -0.483153,0.241577 -0.660309,0.257682 -0.04831,0.0161 -0.12884,0.0161 -0.241576,0.0161 -0.483153,0 -0.85357,-0.161051 -1.111252,-0.483153 -0.241577,-0.273787 -0.338207,-0.595889 -0.305997,-0.950201 0.03221,-0.354312 0.209366,-0.644204 0.515363,-0.85357 0.04831,-0.0161 0.144946,-0.09664 0.289892,-0.225472 0.144946,-0.128841 0.289892,-0.338207 0.467048,-0.611994 0.161051,-0.289891 0.257682,-0.563678 0.273787,-0.85357 0.03221,-0.644204 -0.354313,-1.320618 -1.127357,-2.045348 -0.660309,-0.579783 -1.175673,-1.207882 -1.51388,-1.868191 -0.386522,-0.676414 -0.531468,-1.417249 -0.434837,-2.174189 z m 3.688068,-14.043647 c 0,-0.4026274 0.128841,-0.7247294 0.370417,-0.9663053 l 2.351345,-2.3835548 c 0.289891,-0.2737867 0.611993,-0.4026275 0.982411,-0.4026275 0.386522,0 0.708624,0.1449459 0.982411,0.4187326 0.273786,0.2737867 0.418732,0.6119938 0.418732,0.9824111 0,0.4026275 -0.144945,0.7408346 -0.418732,0.9985162 l -2.383555,2.3191337 c -0.289892,0.273787 -0.611994,0.402628 -0.982411,0.402628 -0.370417,0 -0.692519,-0.128841 -0.934096,-0.402628 -0.257681,-0.257681 -0.386522,-0.595889 -0.386522,-0.966306 z m 3.704173,8.938331 c 0,-0.354313 0.144946,-0.676415 0.418732,-0.982411 0.257682,-0.273787 0.563679,-0.402628 0.934096,-0.402628 h 3.317651 c 0.386522,0 0.724729,0.144946 0.998516,0.418733 0.273787,0.273786 0.434838,0.595888 0.434838,0.966306 0,0.386522 -0.144946,0.724729 -0.418733,0.998516 -0.289892,0.273787 -0.611994,0.418732 -1.014621,0.418732 h -3.317651 c -0.386522,0 -0.724729,-0.12884 -0.966306,-0.402627 -0.257681,-0.273787 -0.386522,-0.611994 -0.386522,-1.014621 z"
   id="path2"
   style="stroke-width:1.61051" />
</svg>
