#define weather_forecast_night_alt_rain_width 36
#define weather_forecast_night_alt_rain_height 36
static unsigned char weather_forecast_night_alt_rain_bits[] = {
   0x00, 0x00, 0x00, 0x06, 0x00, 0x00, 0x00, 0x80, 0x0f, 0x00, 0x00, 0x00,
   0xe0, 0x0f, 0x00, 0x00, 0x00, 0xf0, 0x0f, 0x00, 0x00, 0xf0, 0xfb, 0x0f,
   0x00, 0x00, 0xfc, 0xff, 0x1f, 0x00, 0x00, 0x7e, 0xfe, 0x3f, 0x00, 0x00,
   0x0f, 0xf0, 0x7f, 0x00, 0x00, 0x07, 0xe0, 0xff, 0x00, 0x80, 0x03, 0xc0,
   0xff, 0x07, 0x80, 0x03, 0xc0, 0xff, 0x0f, 0xc0, 0x03, 0x80, 0xff, 0x0f,
   0xf0, 0x01, 0x80, 0xff, 0x07, 0xf8, 0x01, 0x00, 0xff, 0x07, 0x3c, 0x00,
   0x00, 0xe0, 0x03, 0x1e, 0x00, 0x00, 0xc0, 0x03, 0x0e, 0x00, 0x00, 0xc0,
   0x01, 0x0e, 0x00, 0x00, 0x80, 0x00, 0x06, 0x00, 0x00, 0x80, 0x01, 0x02,
   0x30, 0xc6, 0x00, 0x01, 0x02, 0x30, 0xc6, 0x00, 0x01, 0x06, 0x30, 0xc6,
   0x00, 0x01, 0x0c, 0x30, 0xc6, 0x80, 0x01, 0x1c, 0x38, 0xe7, 0xc0, 0x00,
   0x78, 0x38, 0xe7, 0x70, 0x00, 0xe0, 0x39, 0xe7, 0x3c, 0x00, 0x00, 0x18,
   0x63, 0x00, 0x00, 0x00, 0x18, 0x63, 0x00, 0x00, 0x00, 0x9c, 0x73, 0x00,
   0x00, 0x00, 0x9c, 0x73, 0x00, 0x00, 0x00, 0x8c, 0x31, 0x00, 0x00, 0x00,
   0x8c, 0x31, 0x00, 0x00, 0x00, 0x8c, 0x31, 0x00, 0x00, 0x00, 0x8c, 0x31,
   0x00, 0x00, 0x00, 0x00, 0x00, 0x00, 0x00, 0x00, 0x00, 0x00, 0x00, 0x00 };
