#define weather_pictogram_thermometer_width 8
#define weather_pictogram_thermometer_height 18
static char weather_pictogram_thermometer_bits[] = {
  0x18, 0x3C, 0x24, 0x24, 0x24, 0x24, 0x3C, 0x3C, 0x3C, 0x3C, 0x3C, 0x7E, 
  0xFF, 0xFF, 0xFF, 0xFF, 0x7E, 0x3C, };
