#define weather_pictogram_humidity_width 14
#define weather_pictogram_humidity_height 18
static char weather_pictogram_humidity_bits[] = {
  0xC0, 0x00, 0xE0, 0x01, 0xE0, 0x01, 0xF0, 0x03, 0xF8, 0x07, 0xFC, 0x0D, 
  0xC4, 0x0C, 0xD2, 0x1E, 0x52, 0x1E, 0x43, 0x3F, 0x67, 0x39, 0xBF, 0x31, 
  0xBF, 0x34, 0xDF, 0x34, 0xDE, 0x11, 0xFC, 0x0F, 0xF8, 0x07, 0xF0, 0x01, 
  };
