#define weather_forecast_day_sprinkle_width 22
#define weather_forecast_day_sprinkle_height 22
static unsigned char weather_forecast_day_sprinkle_bits[] = {
   0x00, 0x00, 0x00, 0x00, 0x20, 0x00, 0x00, 0x20, 0x00, 0x40, 0x20, 0x08,
   0x80, 0x00, 0x04, 0x00, 0x01, 0x02, 0x00, 0x70, 0x00, 0xe0, 0x8b, 0x00,
   0x30, 0x0c, 0x01, 0x10, 0x08, 0x02, 0x18, 0x10, 0x3a, 0x0e, 0x62, 0x02,
   0x22, 0x86, 0x01, 0x23, 0x0f, 0x01, 0x71, 0x06, 0x01, 0xf9, 0x80, 0x05,
   0x73, 0x83, 0x08, 0x0e, 0xe3, 0x10, 0x88, 0x27, 0x00, 0xc0, 0x0f, 0x00,
   0x80, 0x07, 0x00, 0x00, 0x03, 0x00 };
