#define weather_forecast_sprinkle_width 22
#define weather_forecast_sprinkle_height 22
static unsigned char weather_forecast_sprinkle_bits[] = {
   0x00, 0x00, 0x00, 0x00, 0x00, 0x00, 0x00, 0x00, 0x00, 0x00, 0x1f, 0x00,
   0xc0, 0x31, 0x00, 0x60, 0x60, 0x00, 0x20, 0xc0, 0x00, 0x30, 0x80, 0x01,
   0x18, 0x10, 0x07, 0x0e, 0x10, 0x0e, 0x82, 0x10, 0x18, 0x83, 0x00, 0x30,
   0xc1, 0x01, 0x20, 0xc3, 0x09, 0x30, 0x82, 0x08, 0x10, 0x06, 0x1c, 0x18,
   0x0c, 0x1c, 0x0c, 0x10, 0x3e, 0x06, 0x00, 0x3e, 0x00, 0x00, 0x3e, 0x00,
   0x00, 0x1c, 0x00, 0x00, 0x00, 0x00 };
