#define weather_forecast_night_alt_cloudy_gusts_width 22
#define weather_forecast_night_alt_cloudy_gusts_height 22
static unsigned char weather_forecast_night_alt_cloudy_gusts_bits[] = {
   0x00, 0x00, 0x00, 0x00, 0x00, 0x00, 0x00, 0x80, 0x07, 0x00, 0xc0, 0x07,
   0x00, 0xff, 0x07, 0x80, 0xc1, 0x07, 0xc0, 0xc0, 0x1f, 0x40, 0x80, 0x3f,
   0x60, 0x80, 0x3f, 0x38, 0x0c, 0x18, 0x08, 0x1a, 0x10, 0x00, 0x10, 0x10,
   0x00, 0x18, 0x10, 0xff, 0x0f, 0x18, 0x00, 0x00, 0x08, 0x00, 0x00, 0x0e,
   0xff, 0xfc, 0x03, 0x80, 0x01, 0x00, 0xb0, 0x00, 0x00, 0xe0, 0x00, 0x00,
   0x00, 0x00, 0x00, 0x00, 0x00, 0x00 };
