#define weather_forecast_night_alt_partly_cloudy_width 22
#define weather_forecast_night_alt_partly_cloudy_height 22
static unsigned char weather_forecast_night_alt_partly_cloudy_bits[] = {
   0x00, 0x00, 0x00, 0x00, 0xf8, 0x00, 0x00, 0xfc, 0x00, 0x00, 0xfe, 0x00,
   0x00, 0xff, 0x00, 0x80, 0xff, 0x00, 0x80, 0xff, 0x01, 0xc0, 0xff, 0x03,
   0xc0, 0xff, 0x07, 0xe0, 0xff, 0x3f, 0x30, 0xfc, 0x3f, 0x10, 0xf8, 0x3f,
   0x18, 0xf8, 0x3f, 0x0e, 0xe0, 0x1f, 0x02, 0x80, 0x0f, 0x03, 0x00, 0x07,
   0x01, 0x00, 0x02, 0x03, 0x00, 0x02, 0x02, 0x00, 0x02, 0x06, 0x80, 0x03,
   0xfc, 0xff, 0x00, 0x00, 0x00, 0x00 };
