#define weather_forecast_night_cloudy_high_width 22
#define weather_forecast_night_cloudy_high_height 22
static unsigned char weather_forecast_night_cloudy_high_bits[] = {
   0x00, 0x00, 0x00, 0x00, 0x00, 0x00, 0xc0, 0x1f, 0x00, 0x60, 0x38, 0x00,
   0x30, 0x20, 0x00, 0x10, 0x60, 0x00, 0x18, 0xc0, 0x03, 0x0e, 0x00, 0x06,
   0x02, 0x00, 0x04, 0x03, 0x00, 0x0c, 0x01, 0x00, 0x08, 0x03, 0x00, 0x08,
   0x02, 0x00, 0x1c, 0x06, 0x00, 0x3e, 0xfc, 0xff, 0x3f, 0x00, 0xf8, 0x3f,
   0x00, 0xf8, 0x3f, 0x00, 0xf8, 0x3f, 0x00, 0xf0, 0x1f, 0x00, 0xe0, 0x0f,
   0x00, 0xc0, 0x07, 0x00, 0x00, 0x00 };
