<?xml version="1.0" encoding="UTF-8" standalone="no"?>
<!-- Generator: Adobe Illustrator 22.0.1, SVG Export Plug-In . SVG Version: 6.00 Build 0)  -->

<svg
   version="1.1"
   id="Layer_1"
   x="0px"
   y="0px"
   viewBox="0 0 36 36"
   xml:space="preserve"
   sodipodi:docname="wi-direction-right.svg"
   width="36"
   height="36"
   inkscape:version="1.1.1 (3bf5ae0d25, 2021-09-20, custom)"
   xmlns:inkscape="http://www.inkscape.org/namespaces/inkscape"
   xmlns:sodipodi="http://sodipodi.sourceforge.net/DTD/sodipodi-0.dtd"
   xmlns="http://www.w3.org/2000/svg"
   xmlns:svg="http://www.w3.org/2000/svg"><defs
   id="defs7" /><sodipodi:namedview
   id="namedview5"
   pagecolor="#ffffff"
   bordercolor="#666666"
   borderopacity="1.0"
   inkscape:pageshadow="2"
   inkscape:pageopacity="0.0"
   inkscape:pagecheckerboard="0"
   showgrid="false"
   inkscape:zoom="18.879751"
   inkscape:cx="14.989604"
   inkscape:cy="19.544749"
   inkscape:window-width="1920"
   inkscape:window-height="987"
   inkscape:window-x="0"
   inkscape:window-y="0"
   inkscape:window-maximized="1"
   inkscape:current-layer="Layer_1" />
<path
   d="m 3,18.090082 c 0,0.65153 0.23692,1.24383 0.681145,1.688055 0.444225,0.444225 1.00691,0.65153 1.65844,0.5923 h 19.486674 l -3.050346,3.19842 c -0.47384,0.473841 -0.71076,1.036526 -0.71076,1.628826 0,0.65153 0.23692,1.24383 0.71076,1.688055 0.47384,0.47384 1.036525,0.681145 1.71767,0.681145 0.621916,-0.02961 1.154986,-0.29615 1.569596,-0.799605 l 7.255676,-7.137216 C 32.792695,19.156222 33,18.593537 33,17.912392 32.970385,17.201631 32.733465,16.638946 32.28924,16.194721 L 24.974334,9.116735 c -0.444225,-0.47384 -0.977296,-0.71076 -1.599211,-0.681145 -0.681145,0 -1.24383,0.207305 -1.688055,0.65153 -0.47384,0.444225 -0.681145,1.00691 -0.681145,1.65844 0,0.681145 0.23692,1.243831 0.681145,1.688056 l 3.139191,3.19842 H 5.30997 C 4.628825,15.661646 4.095755,15.898571 3.65153,16.372411 3.207305,16.875866 3,17.438551 3,18.090082 Z"
   id="path2"
   style="stroke-width:2.9615" />
</svg>
