<?xml version="1.0" encoding="UTF-8" standalone="no"?>
<!-- Generator: Adobe Illustrator 22.0.1, SVG Export Plug-In . SVG Version: 6.00 Build 0)  -->

<svg
   version="1.1"
   id="Layer_1"
   x="0px"
   y="0px"
   viewBox="0 0 36 36"
   xml:space="preserve"
   sodipodi:docname="wi-direction-left.svg"
   inkscape:version="1.1.1 (3bf5ae0d25, 2021-09-20, custom)"
   width="36"
   height="36"
   xmlns:inkscape="http://www.inkscape.org/namespaces/inkscape"
   xmlns:sodipodi="http://sodipodi.sourceforge.net/DTD/sodipodi-0.dtd"
   xmlns="http://www.w3.org/2000/svg"
   xmlns:svg="http://www.w3.org/2000/svg"><defs
   id="defs7" /><sodipodi:namedview
   id="namedview5"
   pagecolor="#ffffff"
   bordercolor="#666666"
   borderopacity="1.0"
   inkscape:pageshadow="2"
   inkscape:pageopacity="0.0"
   inkscape:pagecheckerboard="0"
   showgrid="false"
   inkscape:zoom="18.879751"
   inkscape:cx="14.989604"
   inkscape:cy="18.591347"
   inkscape:window-width="1920"
   inkscape:window-height="987"
   inkscape:window-x="0"
   inkscape:window-y="0"
   inkscape:window-maximized="1"
   inkscape:current-layer="Layer_1" />
<path
   d="m 33.000184,18.090083 c 0,0.651538 -0.236923,1.243845 -0.681154,1.688076 -0.44423,0.444231 -1.006922,0.651538 -1.65846,0.592308 H 11.173658 l 3.050382,3.198459 c 0.473846,0.473846 0.710769,1.036538 0.710769,1.628846 0,0.651537 -0.236923,1.243845 -0.710769,1.688075 C 13.750195,27.359692 13.187502,27.567 12.506349,27.567 11.884427,27.53738 11.35135,27.270847 10.936735,26.767386 L 3.68097,19.630082 C 3.207124,19.156237 2.999816,18.593545 2.999816,17.91239 3.029431,17.201622 3.266354,16.638929 3.710585,16.194699 l 7.314996,-7.078072 c 0.444231,-0.473846 0.977307,-0.710769 1.599229,-0.681154 0.681154,0 1.243846,0.207308 1.688077,0.651538 0.473846,0.444231 0.681153,1.006923 0.681153,1.65846 0,0.681154 -0.236923,1.243846 -0.681153,1.688077 l -3.139229,3.198459 h 19.516528 c 0.681153,0.02962 1.214229,0.266539 1.65846,0.740385 0.44423,0.50346 0.651538,1.066153 0.651538,1.717691 z"
   id="path2"
   style="stroke-width:2.96153" />
</svg>
