<?xml version="1.0" encoding="UTF-8" standalone="no"?>
<!-- Generator: Adobe Illustrator 22.0.1, SVG Export Plug-In . SVG Version: 6.00 Build 0)  -->

<svg
   version="1.1"
   id="Layer_1"
   x="0px"
   y="0px"
   viewBox="0 0 36 36"
   xml:space="preserve"
   sodipodi:docname="wi-wind-south.svg"
   inkscape:label="Calque"
   inkscape:version="1.1.1 (3bf5ae0d25, 2021-09-20, custom)"
   width="36"
   height="36"
   xmlns:inkscape="http://www.inkscape.org/namespaces/inkscape"
   xmlns:sodipodi="http://sodipodi.sourceforge.net/DTD/sodipodi-0.dtd"
   xmlns="http://www.w3.org/2000/svg"
   xmlns:svg="http://www.w3.org/2000/svg"><defs
   id="defs7" /><sodipodi:namedview
   id="namedview5"
   pagecolor="#ffffff"
   bordercolor="#666666"
   borderopacity="1.0"
   inkscape:pageshadow="2"
   inkscape:pageopacity="0.0"
   inkscape:pagecheckerboard="0"
   showgrid="false"
   inkscape:zoom="18.879751"
   inkscape:cx="19.809583"
   inkscape:cy="17.426077"
   inkscape:window-width="1920"
   inkscape:window-height="987"
   inkscape:window-x="0"
   inkscape:window-y="0"
   inkscape:window-maximized="1"
   inkscape:current-layer="Layer_1" />

<g
   id="g854"><path
     d="m 21.086524,24.756586 m -0.360126,-9.892446 -2.756069,9.635214 c -0.0074,0.0735 -0.0441,0.110237 -0.110236,0.110237 -0.06614,0 -0.102893,-0.03674 -0.110237,-0.110237 L 15.001138,14.86414 c -0.0294,-0.08085 -0.02205,-0.139641 0.0147,-0.183739 0.03674,-0.0441 0.09554,-0.0441 0.176388,0 l 2.550282,0.955441 c 0.0735,0.0294 0.14699,0.0294 0.213136,0 l 2.57233,-0.955441 c 0.0735,-0.0441 0.124942,-0.0441 0.15434,0 0.0294,0.0441 0.0588,0.110237 0.0441,0.183739 z"
     id="path34"
     inkscape:label="aiguille"
     style="stroke-width:0.734951" /><path
     inkscape:transform-center-y="596.77932"
     inkscape:transform-center-x="3.4885424"
     sodipodi:nodetypes="ccccc"
     inkscape:connector-curvature="0"
     d="m 18.034755,28.318032 1.197057,3.065063 -1.197057,3.065068 -1.197048,-3.065068 z"
     style="display:inline;overflow:visible;visibility:visible;fill:#000000;fill-opacity:1;fill-rule:evenodd;stroke:none;stroke-width:0.290351px;stroke-linecap:butt;stroke-linejoin:miter;stroke-miterlimit:4;stroke-dashoffset:0;stroke-opacity:1;marker:none;enable-background:accumulate"
     id="path4322" /><path
     id="path4320"
     style="display:inline;overflow:visible;visibility:visible;fill:#000000;fill-opacity:1;fill-rule:evenodd;stroke:none;stroke-width:0.290351px;stroke-linecap:butt;stroke-linejoin:miter;stroke-miterlimit:4;stroke-dashoffset:0;stroke-opacity:1;marker:none;enable-background:accumulate"
     d="m 7.5906786,18.034762 -3.0650659,1.19705 -3.0650679,-1.19705 3.0650679,-1.197055 z"
     inkscape:connector-curvature="0"
     sodipodi:nodetypes="ccccc"
     inkscape:transform-center-x="596.77928"
     inkscape:transform-center-y="-3.4885406" /><path
     inkscape:transform-center-y="-596.77932"
     inkscape:transform-center-x="-3.4885478"
     sodipodi:nodetypes="ccccc"
     inkscape:connector-curvature="0"
     d="m 18.035327,7.5906786 -1.197056,-3.065064 1.197056,-3.0650698 1.197049,3.0650698 z"
     style="display:inline;overflow:visible;visibility:visible;fill:#000000;fill-opacity:1;fill-rule:evenodd;stroke:none;stroke-width:0.290351px;stroke-linecap:butt;stroke-linejoin:miter;stroke-miterlimit:4;stroke-dashoffset:0;stroke-opacity:1;marker:none;enable-background:accumulate"
     id="path4324" /><path
     inkscape:transform-center-y="-3.4885406"
     inkscape:transform-center-x="596.77932"
     sodipodi:nodetypes="ccccc"
     inkscape:connector-curvature="0"
     d="m 34.690123,18.034762 -3.065064,1.19705 -3.065068,-1.19705 3.065068,-1.197055 z"
     style="display:inline;overflow:visible;visibility:visible;fill:#000000;fill-opacity:1;fill-rule:evenodd;stroke:none;stroke-width:0.290351px;stroke-linecap:butt;stroke-linejoin:miter;stroke-miterlimit:4;stroke-dashoffset:0;stroke-opacity:1;marker:none;enable-background:accumulate"
     id="path4318" /><path
     style="color:#000000;font-style:normal;font-variant:normal;font-weight:normal;font-stretch:normal;font-size:medium;line-height:normal;font-family:sans-serif;text-indent:0;text-align:start;text-decoration:none;text-decoration-line:none;text-decoration-style:solid;text-decoration-color:#000000;letter-spacing:normal;word-spacing:normal;text-transform:none;writing-mode:lr-tb;direction:ltr;baseline-shift:baseline;text-anchor:start;white-space:normal;clip-rule:nonzero;display:inline;overflow:visible;visibility:visible;isolation:auto;mix-blend-mode:normal;color-interpolation:sRGB;color-interpolation-filters:linearRGB;solid-color:#000000;solid-opacity:1;fill:none;fill-opacity:1;fill-rule:evenodd;stroke:#000000;stroke-width:1.2098;stroke-linecap:butt;stroke-linejoin:miter;stroke-miterlimit:4;stroke-dasharray:none;stroke-dashoffset:0;stroke-opacity:1;marker:none;color-rendering:auto;image-rendering:auto;shape-rendering:auto;text-rendering:auto;enable-background:accumulate"
     d="m 18.034807,1.1396582 c -9.3225282,0 -16.8951488,7.5725859 -16.8951488,16.8951028 0,9.322525 7.5726206,16.8951 16.8951488,16.8951 9.32253,0 16.895054,-7.572575 16.895054,-16.8951 0,-9.3225169 -7.572524,-16.8951028 -16.895054,-16.8951028 z"
     id="path4233"
     inkscape:connector-curvature="0" /><text
     xml:space="preserve"
     style="font-style:normal;font-variant:normal;font-weight:bold;font-stretch:normal;font-size:7.24506px;line-height:0%;font-family:'Bitstream Charter';-inkscape-font-specification:'Bitstream Charter Bold';letter-spacing:0px;word-spacing:0px;fill:#000000;fill-opacity:1;stroke:none;stroke-width:0.108676px;stroke-linecap:butt;stroke-linejoin:miter;stroke-opacity:1"
     x="14.008291"
     y="12.676027"
     id="text4269"
     transform="scale(1.0563357,0.94666875)"><tspan
       sodipodi:role="line"
       id="tspan4271"
       x="14.008291"
       y="12.676027"
       style="font-style:normal;font-variant:normal;font-weight:bold;font-stretch:normal;font-size:7.24506px;line-height:1.25;font-family:'Bitstream Charter';-inkscape-font-specification:'Bitstream Charter Bold';stroke-width:0.108676px">N</tspan></text></g></svg>
