<?xml version="1.0" encoding="UTF-8" standalone="no"?>
<!-- Generator: Adobe Illustrator 22.0.1, SVG Export Plug-In . SVG Version: 6.00 Build 0)  -->

<svg
   version="1.1"
   id="Layer_1"
   x="0px"
   y="0px"
   viewBox="0 0 13.945 18.000528"
   xml:space="preserve"
   sodipodi:docname="weather_pictogram_humidity.svg"
   width="13.945"
   height="18.000528"
   inkscape:version="1.1.2 (0a00cf5339, 2022-02-04, custom)"
   xmlns:inkscape="http://www.inkscape.org/namespaces/inkscape"
   xmlns:sodipodi="http://sodipodi.sourceforge.net/DTD/sodipodi-0.dtd"
   xmlns="http://www.w3.org/2000/svg"
   xmlns:svg="http://www.w3.org/2000/svg"><defs
   id="defs7" /><sodipodi:namedview
   id="namedview5"
   pagecolor="#ffffff"
   bordercolor="#666666"
   borderopacity="1.0"
   inkscape:pageshadow="2"
   inkscape:pageopacity="0.0"
   inkscape:pagecheckerboard="0"
   showgrid="false"
   fit-margin-top="0"
   fit-margin-left="0"
   fit-margin-right="0"
   fit-margin-bottom="0"
   inkscape:zoom="37.759502"
   inkscape:cx="5.3231634"
   inkscape:cy="9.931275"
   inkscape:window-width="1920"
   inkscape:window-height="987"
   inkscape:window-x="0"
   inkscape:window-y="0"
   inkscape:window-maximized="1"
   inkscape:current-layer="Layer_1" />
<path
   d="M 0,11.037439 C 0,10.209396 0.2258299,9.259028 0.6774898,8.1863358 1.1291498,7.1136435 1.7125439,6.06918 2.427672,5.0717644 3.8955667,3.1333906 5.1752698,1.6654959 6.2479621,0.6774898 L 6.9536806,0 c 0.2352396,0.2446491 0.4987079,0.470479 0.7809953,0.6774898 0.3857929,0.3952024 0.9785961,1.0444636 1.7690011,1.9666025 0.790405,0.9221391 1.477305,1.7407726 2.041879,2.4935392 0.668081,0.9503677 1.242065,1.976012 1.703135,3.0581139 C 13.70976,9.277847 13.945,10.228215 13.945,11.046849 c 0,0.940957 -0.178782,1.834868 -0.545756,2.69114 -0.366974,0.856272 -0.856272,1.599629 -1.477304,2.220661 -0.621033,0.621032 -1.36439,1.11974 -2.230071,1.486714 -0.865681,0.366974 -1.778411,0.555165 -2.7381884,0.555165 -0.9409581,0 -1.8348683,-0.178782 -2.6911402,-0.536346 C 3.4062684,17.106619 2.6629115,16.626731 2.0418791,16.005698 1.4208468,15.394076 0.922139,14.650719 0.5551653,13.794447 0.1881916,12.938174 0,12.016035 0,11.037439 Z M 2.1265654,8.2804317 c 0,0.7809943 0.1599629,1.4020283 0.4892982,1.8725073 0.3293354,0.461069 0.8280432,0.696308 1.4961235,0.696308 0.6774898,0 1.1761977,-0.235239 1.5149425,-0.696308 C 5.956265,9.691869 6.1256375,9.070837 6.1350471,8.2804317 6.1256375,7.4900268 5.956265,6.8689945 5.6269296,6.3985153 5.2975944,5.9374459 4.7894769,5.7022064 4.1119871,5.7022064 3.4439068,5.7022064 2.945199,5.9374459 2.6158636,6.3985153 2.2865283,6.8689945 2.1265654,7.4900268 2.1265654,8.2804317 Z m 1.4773043,0 c 0,-0.1411438 0,-0.2540587 0,-0.3293354 0,-0.075276 0.00941,-0.1787821 0.01882,-0.3105162 0.00941,-0.1317341 0.01882,-0.2352396 0.047048,-0.3011066 0.028229,-0.065867 0.047047,-0.1505533 0.084687,-0.22583 0.037638,-0.075276 0.084687,-0.1411437 0.1411437,-0.1693724 0.065867,-0.037638 0.1317341,-0.056458 0.2164204,-0.056458 0.1317341,0 0.2352395,0.037638 0.3105161,0.1129149 0.075276,0.075276 0.1317342,0.1976012 0.1599629,0.3575641 0.028229,0.1693725 0.047047,0.3011067 0.056458,0.4234312 0.00941,0.1223246 0.00941,0.2822875 0.00941,0.4892983 0,0.2164203 0,0.3763832 -0.00941,0.4892994 -0.00941,0.112914 -0.028229,0.254058 -0.056458,0.42343 -0.028229,0.159964 -0.084687,0.282288 -0.1599629,0.357565 -0.075276,0.07527 -0.178782,0.112915 -0.3105161,0.112915 -0.084687,0 -0.1505533,-0.01882 -0.2164204,-0.05646 C 3.8297014,9.560131 3.7826534,9.503681 3.7544247,9.428398 3.7167867,9.353128 3.6885577,9.268436 3.6697377,9.202569 3.6509177,9.127299 3.6320997,9.023786 3.6226897,8.901462 c -0.00941,-0.131734 -0.01882,-0.23524 -0.01882,-0.3011071 0,-0.065867 0,-0.178782 0,-0.3199257 z M 4.159035,15.572857 H 5.4010997 L 10.096481,5.4669668 H 8.826188 Z m 4.0461199,-2.813465 c 0.00941,0.790405 0.1881921,1.411438 0.5175271,1.881916 0.329335,0.46107 0.837453,0.69631 1.505533,0.69631 0.67749,0 1.176197,-0.23524 1.505533,-0.69631 0.329336,-0.461069 0.489298,-1.091511 0.498708,-1.881916 -0.0094,-0.790404 -0.169372,-1.411436 -0.498708,-1.872506 -0.329336,-0.461069 -0.828043,-0.696309 -1.505533,-0.696309 -0.66808,0 -1.176198,0.23524 -1.505533,0.696309 -0.338745,0.46107 -0.5081174,1.082102 -0.5175271,1.872506 z m 1.4773051,0 c 0,-0.21642 0,-0.376383 0.0094,-0.489298 0.0094,-0.112915 0.02823,-0.254059 0.05646,-0.423431 0.02823,-0.169373 0.08468,-0.282287 0.159962,-0.357564 0.07527,-0.07527 0.178783,-0.112916 0.310516,-0.112916 0.08468,0 0.159963,0.01882 0.22583,0.05646 0.06586,0.03764 0.112915,0.09409 0.150554,0.178782 0.03764,0.08468 0.06586,0.159963 0.09409,0.22583 0.02823,0.06587 0.03764,0.169373 0.04705,0.301107 l 0.0094,0.301107 v 0.319925 c 0,0.150554 0,0.263469 0,0.329336 l -0.0094,0.301107 -0.04705,0.301106 -0.09409,0.22583 -0.150554,0.178782 -0.22583,0.05645 c -0.131733,0 -0.235239,-0.03764 -0.310516,-0.112914 C 9.833012,13.963821 9.776548,13.841489 9.74832,13.681526 9.72009,13.512154 9.70127,13.37101 9.69186,13.258095 9.68246,13.14518 9.68246,12.975808 9.68246,12.759387 Z"
   id="path2"
   style="stroke-width:0.940958" />
</svg>
