#define weather_forecast_day_snow_thunderstorm_width 22
#define weather_forecast_day_snow_thunderstorm_height 22
static unsigned char weather_forecast_day_snow_thunderstorm_bits[] = {
   0x00, 0x20, 0x00, 0x40, 0x20, 0x10, 0x80, 0x20, 0x08, 0x00, 0x01, 0x04,
   0x00, 0x70, 0x00, 0xc0, 0x8d, 0x01, 0xe0, 0x07, 0x01, 0x30, 0x04, 0x02,
   0x18, 0x08, 0x3a, 0x1c, 0x38, 0x02, 0x06, 0x40, 0x01, 0x03, 0x80, 0x01,
   0x03, 0x80, 0x00, 0xe3, 0x80, 0x05, 0x73, 0x88, 0x09, 0x36, 0xc1, 0x10,
   0x18, 0x60, 0x00, 0x78, 0x08, 0x00, 0x20, 0x41, 0x00, 0x10, 0x00, 0x00,
   0x08, 0x08, 0x00, 0x00, 0x41, 0x00 };
