#define weather_forecast_night_alt_sleet_storm_width 22
#define weather_forecast_night_alt_sleet_storm_height 22
static unsigned char weather_forecast_night_alt_sleet_storm_bits[] = {
   0x00, 0xc0, 0x01, 0x00, 0xe0, 0x01, 0x00, 0xf7, 0x03, 0xc0, 0xf7, 0x03,
   0x60, 0xf8, 0x07, 0x20, 0xf0, 0x1f, 0x30, 0xe0, 0x3f, 0x3c, 0xc0, 0x3f,
   0x0e, 0xc0, 0x3f, 0x06, 0x00, 0x3e, 0x03, 0x00, 0x1c, 0x03, 0x00, 0x08,
   0x82, 0x23, 0x08, 0xc6, 0x01, 0x0c, 0xcc, 0x24, 0x06, 0x68, 0x40, 0x03,
   0xf0, 0x05, 0x00, 0x80, 0x28, 0x00, 0x40, 0x00, 0x00, 0x20, 0x24, 0x00,
   0x00, 0x40, 0x00, 0x00, 0x00, 0x00 };
