#define weather_forecast_night_sleet_storm_width 22
#define weather_forecast_night_sleet_storm_height 22
static unsigned char weather_forecast_night_sleet_storm_bits[] = {
   0x00, 0x80, 0x03, 0x00, 0xe6, 0x0f, 0x80, 0xf7, 0x1f, 0xe0, 0xfc, 0x1f,
   0x60, 0xf0, 0x3f, 0x30, 0xe0, 0x3f, 0x38, 0xc0, 0x3f, 0x1c, 0xc0, 0x1f,
   0x0e, 0x80, 0x1f, 0x06, 0x00, 0x0c, 0x03, 0x00, 0x08, 0x03, 0x00, 0x18,
   0x03, 0x47, 0x18, 0x86, 0x03, 0x0c, 0x9c, 0x49, 0x06, 0xc0, 0x80, 0x00,
   0xe0, 0x0b, 0x00, 0x00, 0x51, 0x00, 0x80, 0x00, 0x00, 0x40, 0x48, 0x00,
   0x00, 0x80, 0x00, 0x00, 0x00, 0x00 };
