<?xml version="1.0" encoding="UTF-8" standalone="no"?>
<!-- Generator: Adobe Illustrator 22.0.1, SVG Export Plug-In . SVG Version: 6.00 Build 0)  -->

<svg
   version="1.1"
   id="Layer_1"
   x="0px"
   y="0px"
   viewBox="0 0 28 28"
   xml:space="preserve"
   sodipodi:docname="time_12h.svg"
   width="28"
   height="28"
   inkscape:version="1.1.2 (0a00cf5339, 2022-02-04, custom)"
   xmlns:inkscape="http://www.inkscape.org/namespaces/inkscape"
   xmlns:sodipodi="http://sodipodi.sourceforge.net/DTD/sodipodi-0.dtd"
   xmlns="http://www.w3.org/2000/svg"
   xmlns:svg="http://www.w3.org/2000/svg"><defs
   id="defs7" /><sodipodi:namedview
   id="namedview5"
   pagecolor="#ffffff"
   bordercolor="#666666"
   borderopacity="1.0"
   inkscape:pageshadow="2"
   inkscape:pageopacity="0.0"
   inkscape:pagecheckerboard="0"
   showgrid="false"
   inkscape:zoom="19.492577"
   inkscape:cx="11.850665"
   inkscape:cy="12.67149"
   inkscape:window-width="1920"
   inkscape:window-height="987"
   inkscape:window-x="0"
   inkscape:window-y="0"
   inkscape:window-maximized="1"
   inkscape:current-layer="Layer_1"
   fit-margin-top="0"
   fit-margin-left="0"
   fit-margin-right="0"
   fit-margin-bottom="0" />
<path
   d="M 0,14.024867 C 0,11.488455 0.634103,9.1385435 1.8898757,6.9875666 3.1456483,4.8365897 4.8490231,3.1332149 7,1.8774423 9.1509769,0.6216696 11.488455,0 14.012433,0 c 1.889876,0 3.705151,0.3730018 5.433393,1.1065719 1.728241,0.7335702 3.207815,1.740675 4.463588,2.9840142 1.255773,1.2433393 2.250444,2.7353464 2.984014,4.4760214 C 27.626998,10.307282 28,12.110124 28,14.024867 c 0,1.889875 -0.373002,3.705151 -1.106572,5.433392 -0.73357,1.728242 -1.740675,3.220249 -2.984014,4.463588 -1.243339,1.24334 -2.735347,2.238011 -4.463588,2.971581 C 17.717584,27.626998 15.914742,28 14.012433,28 12.110124,28 10.282416,27.626998 8.5541741,26.893428 6.8259325,26.159858 5.3339254,25.152753 4.0781528,23.909414 2.8223801,22.666075 1.8401421,21.174067 1.0941385,19.458259 0.348135,17.742451 0,15.927176 0,14.024867 Z m 3.0834813,0 c 0,2.946714 1.0692718,5.507993 3.2202487,7.683836 2.1509769,2.150977 4.712256,3.220249 7.708703,3.220249 1.964476,0 3.792185,-0.484902 5.45826,-1.46714 1.666074,-0.982238 3.008881,-2.300178 3.991119,-3.978686 0.982238,-1.678508 1.479573,-3.493783 1.479573,-5.458259 0,-1.964476 -0.497335,-3.792185 -1.479573,-5.4706929 -0.982238,-1.678508 -2.312611,-3.008881 -3.991119,-3.991119 -1.678508,-0.982238 -3.493784,-1.4671404 -5.45826,-1.4671404 -1.964476,0 -3.792184,0.4849024 -5.4582589,1.4671404 -1.6660746,0.982238 -3.008881,2.312611 -4.0035524,3.991119 C 3.5559503,10.232682 3.0834813,12.060391 3.0834813,14.024867 Z m 9.8472467,0 c 0,0.273534 0.09947,0.522202 0.298402,0.73357 0.198934,0.211368 0.447602,0.310835 0.73357,0.310835 0.273534,0 0.522202,-0.09947 0.73357,-0.310835 0.211368,-0.211368 0.310835,-0.447602 0.310835,-0.73357 V 5.7442274 c 0,-0.2859681 -0.09947,-0.5346359 -0.310835,-0.7335702 -0.211368,-0.1989343 -0.447602,-0.2984014 -0.73357,-0.2984014 -0.285968,0 -0.534636,0.099467 -0.73357,0.2984014 -0.198935,0.1989343 -0.298402,0.4476021 -0.298402,0.7335702 z"
   id="path2"
   style="stroke-width:1.24334" />
</svg>
