<?xml version="1.0" encoding="UTF-8" standalone="no"?>
<!-- Created with Inkscape (http://www.inkscape.org/) -->

<svg
   id="svg2"
   version="1.1"
   inkscape:version="1.1.2 (0a00cf5339, 2022-02-04, custom)"
   width="24"
   height="28"
   sodipodi:docname="time_timer.svg"
   xmlns:inkscape="http://www.inkscape.org/namespaces/inkscape"
   xmlns:sodipodi="http://sodipodi.sourceforge.net/DTD/sodipodi-0.dtd"
   xmlns="http://www.w3.org/2000/svg"
   xmlns:svg="http://www.w3.org/2000/svg"
   xmlns:rdf="http://www.w3.org/1999/02/22-rdf-syntax-ns#"
   xmlns:cc="http://creativecommons.org/ns#"
   xmlns:dc="http://purl.org/dc/elements/1.1/">
  <metadata
     id="metadata8">
    <rdf:RDF>
      <cc:Work
         rdf:about="">
        <dc:format>image/svg+xml</dc:format>
        <dc:type
           rdf:resource="http://purl.org/dc/dcmitype/StillImage" />
      </cc:Work>
    </rdf:RDF>
  </metadata>
  <defs
     id="defs6" />
  <sodipodi:namedview
     pagecolor="#ffffff"
     bordercolor="#666666"
     borderopacity="1"
     objecttolerance="10"
     gridtolerance="10"
     guidetolerance="10"
     inkscape:pageopacity="0"
     inkscape:pageshadow="2"
     inkscape:window-width="1920"
     inkscape:window-height="987"
     id="namedview4"
     showgrid="false"
     showguides="true"
     inkscape:guide-bbox="true"
     fit-margin-top="0"
     fit-margin-left="0"
     fit-margin-right="0"
     fit-margin-bottom="0"
     inkscape:zoom="9.5358398"
     inkscape:cx="26.007148"
     inkscape:cy="33.033273"
     inkscape:window-x="0"
     inkscape:window-y="0"
     inkscape:window-maximized="1"
     inkscape:current-layer="svg2"
     inkscape:pagecheckerboard="0"
     height="28px" />
  <path
     id="path3"
     style="display:inline;stroke-width:0.860934"
     d="M 8.2753906 0.78320312 C 8.037514 0.78320312 7.8457031 0.97501431 7.8457031 1.2128906 L 7.8457031 4.1738281 C 7.8457208 4.4116867 8.037514 4.6054688 8.2753906 4.6054688 L 8.9765625 4.6054688 L 8.9765625 6.3964844 C 9.6713921 6.2717036 10.386896 6.2070312 11.117188 6.2070312 C 11.84748 6.2070312 12.562984 6.2717036 13.257812 6.3964844 L 13.257812 4.6054688 L 13.958984 4.6054688 C 14.197266 4.6054688 14.388672 4.4116867 14.388672 4.1738281 L 14.388672 1.2128906 C 14.388672 0.97503197 14.197266 0.78320313 13.958984 0.78320312 L 8.2753906 0.78320312 z M 20.498047 7.0097656 C 20.399542 7.0119708 20.302683 7.0481139 20.226562 7.1132812 L 18.222656 8.8398438 C 19.193961 9.6357024 20.038233 10.579163 20.720703 11.632812 L 22.671875 9.9511719 C 22.852496 9.795948 22.872084 9.5239496 22.716797 9.34375 L 20.833984 7.1601562 C 20.759504 7.0731623 20.653132 7.0198804 20.539062 7.0117188 C 20.524966 7.0106037 20.512119 7.0094506 20.498047 7.0097656 z M 11.126953 7.3417969 C 9.3352913 7.3417969 7.6753219 7.7824097 6.1484375 8.6738281 C 4.6215527 9.5652461 3.4129028 10.775849 2.5214844 12.302734 C 1.6300663 13.829619 1.1796875 15.496386 1.1796875 17.296875 C 1.1796875 18.647241 1.4255229 19.93632 1.9550781 21.154297 C 2.4846337 22.372275 3.1828009 23.431861 4.0742188 24.314453 C 4.9656372 25.197046 6.02515 25.910912 7.2519531 26.431641 C 8.4787567 26.95237 9.7765874 27.216797 11.126953 27.216797 C 12.47732 27.216797 13.755619 26.95237 14.982422 26.431641 C 16.209225 25.910912 17.269752 25.204859 18.152344 24.322266 C 19.034936 23.439674 19.748802 22.3811 20.269531 21.154297 C 20.790261 19.927494 21.054688 18.638415 21.054688 17.296875 C 21.054687 15.937682 20.790261 14.657504 20.269531 13.421875 C 19.748802 12.186245 19.043762 11.128686 18.152344 10.246094 C 17.260925 9.3635015 16.209225 8.6476824 14.982422 8.1269531 C 13.755619 7.6062233 12.468494 7.3417969 11.126953 7.3417969 z M 11.126953 9.5390625 C 12.521449 9.5390625 13.8085 9.8828306 15 10.580078 C 16.191499 11.277326 17.136736 12.222563 17.833984 13.414062 C 18.531231 14.605562 18.884766 15.902379 18.884766 17.296875 C 18.884766 18.69137 18.531231 19.980375 17.833984 21.171875 C 17.136736 22.363374 16.182674 23.298846 15 23.996094 C 13.817326 24.693342 12.521449 25.037109 11.126953 25.037109 C 8.9999062 25.037109 7.1811813 24.278838 5.6542969 22.751953 C 4.1274121 21.207417 3.3671875 19.388618 3.3671875 17.296875 C 3.3671875 15.902379 3.7040825 14.605562 4.4101562 13.414062 C 5.1162301 12.222563 6.0692797 11.277326 7.2519531 10.580078 C 8.4346269 9.8828306 9.732458 9.5390625 11.126953 9.5390625 z M 11.056641 10.634766 L 11.083984 17.361328 L 16.275391 21.585938 C 17.250971 20.38511 17.787277 18.88115 17.783203 17.333984 C 17.773403 13.627879 14.762747 10.625006 11.056641 10.634766 z " />
</svg>
