<?xml version="1.0" encoding="UTF-8" standalone="no"?>
<!-- Generator: Adobe Illustrator 16.0.0, SVG Export Plug-In . SVG Version: 6.00 Build 0)  -->

<svg
   id="Layer_1"
   xml:space="preserve"
   inkscape:export-ydpi="356.98938"
   viewBox="0 0 18 17.999999"
   inkscape:export-xdpi="356.98938"
   version="1.1"
   inkscape:output_extension="org.inkscape.output.svg.inkscape"
   sodipodi:docname="time_wait.svg"
   inkscape:export-filename="C:\joanna\Gfx\drawings_vector\admin\thumbs\FrEÄšâ‚¬dEÄšâ‚¬ric Moser\sand_glass_frederic_mose_01.png"
   inkscape:version="1.1.2 (0a00cf5339, 2022-02-04, custom)"
   sodipodi:version="0.32"
   y="0px"
   x="0px"
   enable-background="new 0 0 469.154 762.671"
   width="18"
   height="18"
   xmlns:inkscape="http://www.inkscape.org/namespaces/inkscape"
   xmlns:sodipodi="http://sodipodi.sourceforge.net/DTD/sodipodi-0.dtd"
   xmlns="http://www.w3.org/2000/svg"
   xmlns:svg="http://www.w3.org/2000/svg"
   xmlns:rdf="http://www.w3.org/1999/02/22-rdf-syntax-ns#"
   xmlns:cc="http://creativecommons.org/ns#"
   xmlns:dc="http://purl.org/dc/elements/1.1/"><defs
   id="defs11"><linearGradient
     id="linearGradient17030"
     inkscape:swatch="solid"><stop
       style="stop-color:#000000;stop-opacity:1;"
       offset="0"
       id="stop17028" /></linearGradient></defs>
<sodipodi:namedview
   id="base"
   bordercolor="#666666"
   inkscape:window-width="1920"
   inkscape:window-x="0"
   guidetolerance="10.0"
   pagecolor="#ffffff"
   gridtolerance="10.0"
   inkscape:zoom="26.008266"
   objecttolerance="10.0"
   showgrid="false"
   borderopacity="1.0"
   inkscape:current-layer="Layer_1"
   inkscape:cx="8.8817917"
   inkscape:cy="9.5738793"
   inkscape:pageshadow="2"
   inkscape:window-y="0"
   inkscape:window-height="987"
   inkscape:pageopacity="0.0"
   inkscape:pagecheckerboard="true"
   inkscape:window-maximized="1"
   height="18px">
	</sodipodi:namedview>


<path
   id="path1508"
   style="color:#000000;fill:#000000;stroke-width:0.28243;stroke-linejoin:round;stroke-miterlimit:4;stroke-dasharray:none;paint-order:markers fill stroke"
   inkscape:label="sablier"
   d="M 3.84375 0.50585938 C 3.6901137 0.50583895 2.9994094 1.1940559 2.9960938 1.3476562 C 2.9582162 3.1477688 3.6945231 4.4232949 4.9414062 5.6054688 C 6.1882895 6.7876426 7.3411141 7.0899239 8.0214844 8.0917969 C 8.4601022 8.791668 8.2724521 9.8254796 7.5742188 10.277344 C 7.5712388 10.279344 7.5693162 10.281103 7.5664062 10.283203 C 6.399763 11.10233 4.8948665 11.731193 4.0507812 13.140625 C 3.2694422 14.36623 3.0529036 15.831384 3.0527344 17.212891 C 3.05275 17.368866 3.1799624 17.494126 3.3359375 17.494141 L 14.720703 17.494141 C 14.874549 17.494155 15.000886 17.370614 15.003906 17.216797 C 15.037846 15.341114 14.505309 13.279456 12.941406 12.019531 C 11.93379 11.103805 10.399931 10.512042 9.8613281 9.8828125 C 9.3227248 9.253583 9.5068126 9.0314244 9.6210938 8.5605469 C 9.7359298 8.0873825 10.032297 7.6251214 10.400391 7.3242188 C 10.402991 7.3222388 10.405703 7.3204294 10.408203 7.3183594 C 11.705627 6.1780787 13.482112 5.2952395 14.351562 3.5292969 C 14.789786 2.6777048 14.970622 2.2883634 14.974609 1.3535156 C 14.975203 1.1971098 14.28336 0.50587389 14.126953 0.50585938 L 3.84375 0.50585938 z M 3.96875 1.5273438 L 13.820312 1.6171875 C 13.254412 3.6415219 12.556777 4.3203875 11.650391 5.0449219 C 9.7049802 5.1261855 7.754584 5.0925541 5.8085938 5.0136719 C 4.9494104 4.2270498 4.3604874 3.315911 3.96875 1.5273438 z M 8.9101562 10.048828 C 8.9734144 10.467375 9.0925589 10.797438 9.2832031 10.900391 C 10.532841 11.738235 11.22675 11.793574 12.345703 12.691406 C 12.997046 13.214035 13.460979 13.971302 13.744141 14.798828 C 10.676316 14.794599 7.4312392 14.802169 4.359375 14.796875 C 4.6119023 13.900452 5.0372719 13.170625 5.6152344 12.634766 C 6.5461897 11.771627 7.1894518 11.649335 8.3242188 10.962891 C 8.5957128 10.786883 8.7869006 10.449627 8.9101562 10.048828 z " />


<metadata
   id="metadata8"><rdf:RDF><cc:Work><dc:format>image/svg+xml</dc:format><dc:type
         rdf:resource="http://purl.org/dc/dcmitype/StillImage" /><cc:license
         rdf:resource="http://creativecommons.org/publicdomain/zero/1.0/" /><dc:publisher><cc:Agent
           rdf:about="http://openclipart.org/"><dc:title>Openclipart</dc:title></cc:Agent></dc:publisher></cc:Work><cc:License
       rdf:about="http://creativecommons.org/publicdomain/zero/1.0/"><cc:permits
         rdf:resource="http://creativecommons.org/ns#Reproduction" /><cc:permits
         rdf:resource="http://creativecommons.org/ns#Distribution" /><cc:permits
         rdf:resource="http://creativecommons.org/ns#DerivativeWorks" /></cc:License></rdf:RDF></metadata></svg>
