<?xml version="1.0" encoding="UTF-8" standalone="no"?>
<!-- Generator: Adobe Illustrator 22.0.1, SVG Export Plug-In . SVG Version: 6.00 Build 0)  -->

<svg
   version="1.1"
   id="Layer_1"
   x="0px"
   y="0px"
   viewBox="0 0 18 18"
   xml:space="preserve"
   sodipodi:docname="wi-horizon.svg"
   width="18"
   height="18"
   inkscape:version="1.1.1 (3bf5ae0d25, 2021-09-20, custom)"
   xmlns:inkscape="http://www.inkscape.org/namespaces/inkscape"
   xmlns:sodipodi="http://sodipodi.sourceforge.net/DTD/sodipodi-0.dtd"
   xmlns="http://www.w3.org/2000/svg"
   xmlns:svg="http://www.w3.org/2000/svg"><defs
   id="defs7" /><sodipodi:namedview
   id="namedview5"
   pagecolor="#ffffff"
   bordercolor="#666666"
   borderopacity="1.0"
   inkscape:pageshadow="2"
   inkscape:pageopacity="0.0"
   inkscape:pagecheckerboard="0"
   showgrid="false"
   height="18px"
   inkscape:zoom="27.566667"
   inkscape:cx="15.054413"
   inkscape:cy="11.970979"
   inkscape:window-width="1920"
   inkscape:window-height="987"
   inkscape:window-x="0"
   inkscape:window-y="0"
   inkscape:window-maximized="1"
   inkscape:current-layer="Layer_1" />
<path
   d="m 0.175,15.045593 c 0,-0.227741 0.0788337,-0.411687 0.2452605,-0.543077 0.1226303,-0.140148 0.3065757,-0.201463 0.5518363,-0.201463 H 17.036663 c 0.218982,0 0.402928,0.07007 0.560595,0.210223 0.157668,0.140148 0.227742,0.324095 0.227742,0.534317 0,0.210223 -0.07883,0.39417 -0.236501,0.543077 -0.157668,0.148909 -0.341613,0.236502 -0.551836,0.236502 H 0.9720968 c -0.2189827,0 -0.4029281,-0.07883 -0.5605956,-0.236502 C 0.25383375,15.439763 0.175,15.255817 0.175,15.045593 Z M 1.9005831,7.784129 c 0,-0.2277419 0.070075,-0.4116873 0.201464,-0.5518362 0.1489082,-0.1576675 0.3328536,-0.2277419 0.5693549,-0.2277419 0.201464,0 0.3766501,0.078834 0.5255583,0.2277419 l 1.3138958,1.3138958 c 0.1576675,0.1576675 0.2365012,0.3416129 0.2365012,0.5518362 0,0.201464 -0.078834,0.3854094 -0.2365012,0.5430769 C 4.3794665,9.7987692 4.2042804,9.877603 3.9852978,9.877603 3.7663151,9.877603 3.5736104,9.798769 3.4247022,9.6411017 L 2.1108065,8.327206 C 1.9706576,8.1958164 1.9005831,8.0206303 1.9005831,7.784129 Z m 2.5664765,4.896452 c -0.035037,0.14015 0.00876,0.201465 0.1313895,0.201465 h 1.3051365 c 0.061315,0 0.1226303,-0.05256 0.1927047,-0.148909 0.2627792,-0.560595 0.6481886,-0.998561 1.1649876,-1.331415 0.516799,-0.332854 1.0861539,-0.490521 1.7168238,-0.490521 0.6394293,0 1.2175433,0.166427 1.7431013,0.490521 0.525559,0.324095 0.919728,0.770819 1.182507,1.331415 0.07007,0.09635 0.140149,0.148909 0.201464,0.148909 h 1.296377 c 0.113871,0 0.157667,-0.07007 0.131389,-0.201465 -0.297816,-0.989802 -0.867171,-1.795658 -1.708064,-2.417569 -0.840893,-0.6219103 -1.786898,-0.9284859 -2.8467743,-0.9284859 -1.0511166,0 -1.9971216,0.3065756 -2.8292555,0.9284859 -0.8146154,0.621911 -1.3839703,1.427767 -1.6817866,2.417569 z M 8.2423201,7.0220695 v -1.865732 c 0,-0.2189827 0.070074,-0.4029281 0.2102233,-0.5605956 C 8.5926923,4.4380744 8.7766377,4.368 8.986861,4.368 c 0.2189827,0 0.402928,0.078834 0.551836,0.2277419 0.148908,0.1489082 0.218983,0.3416129 0.218983,0.5605956 v 1.8744913 c 0,0.2277419 -0.07007,0.4116873 -0.218983,0.5605955 C 9.389789,7.7403325 9.2058437,7.8104069 8.986861,7.8104069 8.7766377,7.8104069 8.5926923,7.7315729 8.4525434,7.582665 8.3123945,7.4337568 8.2423201,7.2410521 8.2423201,7.0220695 Z m 5.0103229,2.0759553 c 0,-0.2102233 0.07007,-0.3941687 0.218982,-0.5518362 l 1.348933,-1.3138958 c 0.140149,-0.1576675 0.315335,-0.2277419 0.543077,-0.2277419 0.210224,0 0.38541,0.070074 0.525559,0.2189826 0.140148,0.1489082 0.201464,0.3328536 0.201464,0.5605955 0,0.227742 -0.07007,0.4116874 -0.201464,0.543077 L 14.592816,9.6411017 C 14.443908,9.7900099 14.277481,9.8688437 14.102295,9.8863623 13.900831,9.9038809 13.716886,9.8338065 13.53294,9.676139 13.348995,9.5184715 13.252643,9.3170074 13.252643,9.0980248 Z"
   id="path2"
   style="stroke-width:0.875931" />
</svg>
