<?xml version="1.0" encoding="UTF-8" standalone="no"?>
<!-- Generator: Adobe Illustrator 22.0.1, SVG Export Plug-In . SVG Version: 6.00 Build 0)  -->

<svg
   version="1.1"
   id="Layer_1"
   x="0px"
   y="0px"
   viewBox="0 0 28 28"
   xml:space="preserve"
   sodipodi:docname="wi-solar-eclipse.svg"
   width="28"
   height="28"
   inkscape:version="1.1.1 (3bf5ae0d25, 2021-09-20, custom)"
   xmlns:inkscape="http://www.inkscape.org/namespaces/inkscape"
   xmlns:sodipodi="http://sodipodi.sourceforge.net/DTD/sodipodi-0.dtd"
   xmlns="http://www.w3.org/2000/svg"
   xmlns:svg="http://www.w3.org/2000/svg"><defs
   id="defs7" /><sodipodi:namedview
   id="namedview5"
   pagecolor="#ffffff"
   bordercolor="#666666"
   borderopacity="1.0"
   inkscape:pageshadow="2"
   inkscape:pageopacity="0.0"
   inkscape:pagecheckerboard="0"
   showgrid="false"
   fit-margin-top="0"
   fit-margin-left="0"
   fit-margin-right="0"
   fit-margin-bottom="0"
   inkscape:zoom="26.7"
   inkscape:cx="13.520599"
   inkscape:cy="13.932584"
   inkscape:window-width="1920"
   inkscape:window-height="987"
   inkscape:window-x="0"
   inkscape:window-y="0"
   inkscape:window-maximized="1"
   inkscape:current-layer="Layer_1" />
<path
   d="m 1.1498,13.9879 c 0,-0.2904 0.0968,-0.5445 0.3025,-0.7502 0.2057,-0.1936 0.4598,-0.2904 0.726,-0.2904 h 2.4684 c 0.2783,0 0.5082,0.0968 0.7018,0.3025 0.1815,0.2057 0.2783,0.4477 0.2783,0.7381 0,0.2904 -0.0847,0.5324 -0.2662,0.7381 -0.1815,0.2057 -0.4235,0.3025 -0.7018,0.3025 H 2.1904 c -0.2783,0 -0.5203,-0.0968 -0.726,-0.3025 C 1.2587,14.5203 1.1498,14.2783 1.1498,13.9879 Z m 3.4606,8.3853 c 0,-0.2783 0.0968,-0.5203 0.2783,-0.7381 l 1.7787,-1.7303 c 0.1815,-0.1936 0.4235,-0.2783 0.7139,-0.2783 0.2904,0 0.5324,0.0968 0.726,0.2783 0.1936,0.1815 0.2904,0.4114 0.2904,0.6897 0,0.2904 -0.0968,0.5566 -0.2904,0.7744 l -1.7182,1.7182 c -0.4961,0.3872 -0.9922,0.3872 -1.4883,0 C 4.7072,22.8935 4.6104,22.6515 4.6104,22.3732 Z m 0,-16.7464 c 0,-0.2783 0.0968,-0.5203 0.2783,-0.7381 0.242,-0.2057 0.4961,-0.3025 0.7744,-0.3025 0.2662,0 0.5082,0.0968 0.7139,0.2904 l 1.7303,1.7787 c 0.1936,0.1815 0.2904,0.4235 0.2904,0.7139 0,0.2904 -0.0968,0.5324 -0.2904,0.726 C 7.9137,8.2888 7.6717,8.3856 7.3813,8.3856 7.0909,8.3856 6.8489,8.2888 6.6674,8.0952 L 4.9008,6.3649 C 4.7072,6.1713 4.6104,5.9172 4.6104,5.6268 Z m 3.0855,8.3611 c 0,-1.1253 0.2783,-2.178 0.847,-3.146 0.5687,-0.968 1.331,-1.7424 2.3111,-2.3111 0.9801,-0.5687 2.0207,-0.847 3.146,-0.847 0.847,0 1.6577,0.1694 2.4442,0.5082 0.7744,0.3388 1.452,0.7865 2.0086,1.3552 0.5687,0.5687 1.0164,1.2342 1.3431,2.0086 0.3267,0.7744 0.4961,1.5972 0.4961,2.4442 0,1.1374 -0.2783,2.1901 -0.847,3.1581 -0.5687,0.968 -1.331,1.7303 -2.299,2.299 -0.968,0.5687 -2.0207,0.847 -3.1581,0.847 -1.1374,0 -2.1901,-0.2783 -3.1581,-0.847 -0.968,-0.5687 -1.7303,-1.331 -2.299,-2.299 C 7.9863,16.178 7.6959,15.1253 7.6959,13.9879 Z m 5.2756,9.4138 c 0,-0.2904 0.0968,-0.5324 0.3025,-0.726 0.2057,-0.1936 0.4477,-0.2904 0.726,-0.2904 0.2904,0 0.5445,0.0968 0.7381,0.2904 0.1936,0.1936 0.2904,0.4356 0.2904,0.726 v 2.4079 c 0,0.2904 -0.0968,0.5445 -0.3025,0.7502 -0.2057,0.2057 -0.4477,0.3025 -0.726,0.3025 -0.2783,0 -0.5324,-0.0968 -0.726,-0.3025 C 13.0683,26.3541 12.9715,26.1 12.9715,25.8096 Z m 0,-18.755 V 2.1783 c 0,-0.2783 0.0968,-0.5203 0.3025,-0.726 0.2057,-0.2057 0.4477,-0.3146 0.7381,-0.3146 0.2904,0 0.5203,0.0968 0.726,0.3025 0.2057,0.2057 0.3025,0.4477 0.3025,0.726 v 2.4805 c 0,0.2783 -0.0968,0.5082 -0.3025,0.7018 -0.2057,0.1936 -0.4477,0.2783 -0.726,0.2783 -0.2783,0 -0.5324,-0.0968 -0.726,-0.2783 C 13.0925,5.167 12.9715,4.925 12.9715,4.6467 Z m 0.1331,5.2272 c 1.0527,0.1331 1.936,0.5929 2.6499,1.3915 0.7139,0.7986 1.0769,1.7424 1.0769,2.8193 0,1.0043 -0.3146,1.8876 -0.9438,2.662 -0.6292,0.7623 -1.4278,1.2584 -2.3958,1.4641 0.242,0.0242 0.4235,0.0484 0.5324,0.0484 1.1737,0 2.1901,-0.4235 3.025,-1.2584 0.8349,-0.8349 1.2584,-1.8392 1.2584,-3.025 0,-1.1616 -0.4235,-2.1538 -1.2584,-2.9887 C 16.2143,10.1643 15.21,9.7529 14.0242,9.7529 13.6975,9.7771 13.395,9.8134 13.1046,9.8739 Z m 6.5461,10.7206 c 0,-0.2783 0.0968,-0.5082 0.2783,-0.6776 0.1815,-0.1936 0.4114,-0.2783 0.6776,-0.2783 0.2904,0 0.5324,0.0968 0.726,0.2783 l 1.7666,1.7303 c 0.1936,0.2057 0.2904,0.4598 0.2904,0.7381 0,0.2783 -0.0968,0.5203 -0.2904,0.7139 -0.484,0.3751 -0.968,0.3751 -1.452,0 L 19.929,21.381 c -0.1815,-0.2178 -0.2783,-0.4719 -0.2783,-0.7865 z m 0,-13.2132 c 0,-0.3025 0.0968,-0.5445 0.2783,-0.7139 l 1.7182,-1.7787 c 0.2057,-0.1936 0.4477,-0.2904 0.7139,-0.2904 0.2904,0 0.5324,0.0968 0.726,0.3025 0.2057,0.2057 0.3025,0.4477 0.3025,0.726 0,0.3025 -0.0968,0.5566 -0.2904,0.7502 l -1.7666,1.7303 c -0.2178,0.1936 -0.4598,0.2904 -0.726,0.2904 -0.2783,0 -0.4961,-0.0968 -0.6776,-0.2904 -0.1815,-0.1936 -0.2783,-0.4356 -0.2783,-0.726 z m 2.7346,6.6066 c 0,-0.2904 0.0968,-0.5324 0.2904,-0.7502 0.1936,-0.1936 0.4235,-0.2904 0.6897,-0.2904 h 2.4442 c 0.2783,0 0.5203,0.1089 0.726,0.3146 0.2057,0.2057 0.3146,0.4477 0.3146,0.726 0,0.2783 -0.1089,0.5203 -0.3146,0.726 -0.2057,0.2057 -0.4477,0.3025 -0.726,0.3025 h -2.4442 c -0.2783,0 -0.5203,-0.0968 -0.7018,-0.3025 -0.1815,-0.2057 -0.2783,-0.4356 -0.2783,-0.726 z"
   id="path2"
   style="stroke-width:1.21" />
</svg>
