<?xml version="1.0" encoding="UTF-8" standalone="no"?>
<!-- Generator: Adobe Illustrator 22.0.1, SVG Export Plug-In . SVG Version: 6.00 Build 0)  -->

<svg
   version="1.1"
   id="Layer_1"
   x="0px"
   y="0px"
   viewBox="0 0 27.999999 28"
   xml:space="preserve"
   sodipodi:docname="wi-cloud-down.svg"
   width="28"
   height="28"
   inkscape:version="1.1.1 (3bf5ae0d25, 2021-09-20, custom)"
   xmlns:inkscape="http://www.inkscape.org/namespaces/inkscape"
   xmlns:sodipodi="http://sodipodi.sourceforge.net/DTD/sodipodi-0.dtd"
   xmlns="http://www.w3.org/2000/svg"
   xmlns:svg="http://www.w3.org/2000/svg"><defs
   id="defs7" /><sodipodi:namedview
   id="namedview5"
   pagecolor="#ffffff"
   bordercolor="#666666"
   borderopacity="1.0"
   inkscape:pageshadow="2"
   inkscape:pageopacity="0.0"
   inkscape:pagecheckerboard="0"
   showgrid="false"
   fit-margin-top="0"
   fit-margin-left="0"
   fit-margin-right="0"
   fit-margin-bottom="0"
   inkscape:zoom="13.35"
   inkscape:cx="10.337079"
   inkscape:cy="7.6404494"
   inkscape:window-width="1920"
   inkscape:window-height="987"
   inkscape:window-x="0"
   inkscape:window-y="0"
   inkscape:window-maximized="1"
   inkscape:current-layer="Layer_1" />
<path
   d="m 1.43415,16.7346 c 0,1.6214 0.5687,3.0008 1.694,4.1624 1.1253,1.1616 2.5047,1.7787 4.114,1.8513 0.1331,0 0.2057,-0.0726 0.2057,-0.2057 v -1.6214 c 0,-0.1452 -0.0726,-0.2178 -0.2057,-0.2178 -1.0406,-0.0484 -1.9239,-0.4598 -2.6499,-1.2342 -0.726,-0.7744 -1.089,-1.6819 -1.089,-2.7346 0,-1.0043 0.3388,-1.8755 1.0285,-2.6257 0.6897,-0.7502 1.5367,-1.1737 2.541,-1.2947 l 0.6413,-0.0484 c 0.1573,0 0.242,-0.0726 0.242,-0.2057 l 0.0968,-0.6655 c 0.121,-1.3068 0.6655,-2.4079 1.6456,-3.2791 0.9801,-0.8833 2.1296,-1.3189 3.4606,-1.3189 1.3189,0 2.4684,0.4356 3.4606,1.3189 0.9922,0.8833 1.5488,1.9723 1.694,3.2791 l 0.0847,0.7018 c 0,0.1331 0.0726,0.2057 0.2057,0.2057 h 1.9602 c 1.0769,0 2.0086,0.3872 2.7951,1.1737 0.7865,0.7744 1.1858,1.694 1.1858,2.7588 0,1.0527 -0.363,1.9602 -1.1011,2.7346 -0.7381,0.7744 -1.6214,1.1858 -2.6499,1.2342 -0.1573,0 -0.2299,0.0726 -0.2299,0.2178 v 1.6214 c 0,0.1331 0.0726,0.2057 0.2299,0.2057 1.0648,-0.0242 2.0328,-0.3146 2.9161,-0.8712 0.8833,-0.5445 1.5851,-1.2705 2.0933,-2.178 0.5082,-0.9075 0.7623,-1.8997 0.7623,-2.9645 0,-1.089 -0.2662,-2.0933 -0.8107,-3.0008 -0.5324,-0.9196 -1.2705,-1.6335 -2.1901,-2.1659 -0.9196,-0.5324 -1.9239,-0.7865 -3.0129,-0.7865 h -0.3993 c -0.3993,-1.6214 -1.2463,-2.9403 -2.541,-3.9809 -1.2947,-1.0406 -2.7951,-1.5488 -4.4649,-1.5488 -1.7061,0 -3.2307,0.5324 -4.5496,1.5851 -1.3189,1.0527 -2.178,2.42 -2.5531,4.0777 -1.331,0.3146 -2.4321,1.0164 -3.3033,2.1054 -0.8712,1.089 -1.3068,2.3232 -1.3068,3.7147 z m 8.4337,1.8392 c 0,0.2904 0.0968,0.5324 0.2904,0.726 l 3.1339,3.1581 c 0.1452,0.1936 0.3872,0.2783 0.6897,0.2783 0.3388,0 0.5808,-0.0968 0.7381,-0.2783 l 3.146,-3.1581 c 0.1936,-0.2057 0.2904,-0.4598 0.2904,-0.726 0,-0.2783 -0.0968,-0.5203 -0.2904,-0.7018 -0.1936,-0.1815 -0.4356,-0.2783 -0.726,-0.2783 -0.2904,0 -0.5324,0.0968 -0.7502,0.2783 l -1.3552,1.3431 v -4.8158 c 0,-0.2904 -0.0968,-0.5203 -0.3025,-0.7139 -0.2057,-0.1936 -0.4477,-0.2783 -0.7381,-0.2783 -0.2904,0 -0.5203,0.0968 -0.7139,0.2783 -0.1936,0.1936 -0.2783,0.4235 -0.2783,0.7139 v 4.8158 l -1.331,-1.3431 c -0.2178,-0.1936 -0.4598,-0.2783 -0.7623,-0.2783 -0.3025,0 -0.5445,0.0968 -0.7381,0.2783 -0.2057,0.1815 -0.3025,0.4235 -0.3025,0.7018 z"
   id="path2"
   style="stroke-width:1.21" />
</svg>
