<?xml version="1.0" encoding="UTF-8" standalone="no"?>
<!-- Generator: Adobe Illustrator 22.0.1, SVG Export Plug-In . SVG Version: 6.00 Build 0)  -->

<svg
   version="1.1"
   id="Layer_1"
   x="0px"
   y="0px"
   viewBox="0 0 28 28"
   xml:space="preserve"
   sodipodi:docname="wi-train.svg"
   width="28"
   height="28"
   inkscape:version="1.1.1 (3bf5ae0d25, 2021-09-20, custom)"
   xmlns:inkscape="http://www.inkscape.org/namespaces/inkscape"
   xmlns:sodipodi="http://sodipodi.sourceforge.net/DTD/sodipodi-0.dtd"
   xmlns="http://www.w3.org/2000/svg"
   xmlns:svg="http://www.w3.org/2000/svg"><defs
   id="defs7" /><sodipodi:namedview
   id="namedview5"
   pagecolor="#ffffff"
   bordercolor="#666666"
   borderopacity="1.0"
   inkscape:pageshadow="2"
   inkscape:pageopacity="0.0"
   inkscape:pagecheckerboard="0"
   showgrid="false"
   fit-margin-top="0"
   fit-margin-left="0"
   fit-margin-right="0"
   fit-margin-bottom="0"
   inkscape:zoom="26.7"
   inkscape:cx="13.558052"
   inkscape:cy="15.842697"
   inkscape:window-width="1920"
   inkscape:window-height="987"
   inkscape:window-x="0"
   inkscape:window-y="0"
   inkscape:window-maximized="1"
   inkscape:current-layer="Layer_1"
   height="28px" />
<path
   d="m 0.98645,13.46155 v -0.3872 c 0,-0.121 0.0363,-0.2178 0.121,-0.3025 0.0847,-0.0847 0.1815,-0.121 0.3025,-0.121 h 9.1718 c 0.121,0 0.2178,0.0363 0.3025,0.121 0.0847,0.0847 0.121,0.1815 0.121,0.3025 v 0.3872 c 0,0.121 -0.0363,0.2178 -0.121,0.3025 -0.0847,0.0847 -0.1815,0.121 -0.3025,0.121 h -0.5324 v 1.9965 h 2.5652 c 0.0242,-0.3388 0.1694,-0.6292 0.4235,-0.8591 0.2541,-0.2299 0.5566,-0.3509 0.9075,-0.3509 0.3509,0 0.6413,0.121 0.8954,0.3509 0.2541,0.2299 0.3872,0.5203 0.4235,0.8591 h 1.5972 v -4.1019 c -0.1694,-0.0121 -0.3025,-0.0726 -0.4235,-0.1936 -0.121,-0.121 -0.1815,-0.2783 -0.1815,-0.4477 v -0.3751 c 0,-0.1694 0.0605,-0.3267 0.1936,-0.4598 0.1331,-0.1331 0.2904,-0.1936 0.4719,-0.1936 h 2.4079 c 0.1815,0 0.3388,0.0605 0.4598,0.1936 0.121,0.1331 0.1815,0.2783 0.1815,0.4598 v 0.3751 c 0,0.1694 -0.0605,0.3267 -0.1694,0.4477 -0.1089,0.121 -0.242,0.1936 -0.4114,0.1936 v 4.1019 h 1.8876 c 0.3267,0 0.6171,0.121 0.8591,0.363 0.242,0.242 0.363,0.5324 0.363,0.8591 v 3.5453 l 4.5133,5.8927 h -5.7354 v -3.6784 h -0.8591 c 0.1331,0.3146 0.1936,0.6534 0.1936,1.0043 0,0.7381 -0.2541,1.3552 -0.7744,1.8876 -0.5203,0.5203 -1.1495,0.7865 -1.8755,0.7865 -0.7381,0 -1.3552,-0.2662 -1.8876,-0.7865 -0.5203,-0.5203 -0.7865,-1.1495 -0.7865,-1.8876 0,-0.3509 0.0605,-0.6897 0.1936,-1.0043 h -1.21 c 0.1331,0.3267 0.2057,0.6655 0.2057,1.0043 0,0.7381 -0.2662,1.3552 -0.7865,1.8876 -0.5203,0.5324 -1.1495,0.7865 -1.8876,0.7865 -0.7381,0 -1.3552,-0.2662 -1.8755,-0.7865 -0.5203,-0.5203 -0.7744,-1.1495 -0.7744,-1.8876 0,-0.3509 0.0605,-0.6897 0.1936,-1.0043 h -1.4399 c 0.1452,0.3509 0.2178,0.6897 0.2178,1.0043 0,0.7381 -0.2662,1.3552 -0.7865,1.8876 -0.5203,0.5324 -1.1495,0.7865 -1.8876,0.7865 -0.7381,0 -1.3552,-0.2662 -1.8876,-0.7865 -0.5324,-0.5203 -0.7865,-1.1495 -0.7865,-1.8876 0,-0.3509 0.0726,-0.6897 0.2057,-1.0164 -0.2904,-0.0484 -0.5445,-0.1815 -0.7381,-0.4114 -0.1936,-0.2299 -0.2904,-0.4961 -0.2904,-0.7986 v -1.0406 h -0.0242 v -6.7155 h -0.5203 c -0.121,0 -0.2178,-0.0363 -0.3025,-0.121 -0.0847,-0.0847 -0.121,-0.1815 -0.121,-0.3025 z m 2.4805,4.7674 c 0,0.2541 0.0847,0.4719 0.2662,0.6534 0.1815,0.1815 0.3993,0.2662 0.6534,0.2662 h 1.7424 c 0.2541,0 0.4719,-0.0847 0.6413,-0.2662 0.1694,-0.1815 0.2662,-0.3993 0.2662,-0.6534 v -2.783 c 0,-0.2541 -0.0847,-0.4598 -0.2662,-0.6413 -0.1815,-0.1815 -0.3872,-0.2662 -0.6413,-0.2662 h -1.7303 c -0.2541,0 -0.4719,0.0847 -0.6534,0.2783 -0.1815,0.1815 -0.2662,0.3872 -0.2662,0.6292 v 2.783 z m 11.4708,-13.5399 c 0,0.4961 0.1936,0.9196 0.5687,1.2584 0,0.242 0.1089,0.5203 0.3146,0.8228 0.2057,0.3025 0.4356,0.484 0.6776,0.5324 0.0484,0.2662 0.1815,0.4961 0.3751,0.6897 0.1936,0.1815 0.4356,0.3025 0.7139,0.363 -0.1331,0.1331 -0.1936,0.2904 -0.1936,0.4719 0,0.2178 0.0726,0.3993 0.2178,0.5445 0.1452,0.1452 0.3267,0.2178 0.5445,0.2178 0.2178,0 0.3993,-0.0726 0.5566,-0.2299 0.1573,-0.1452 0.2299,-0.3388 0.2299,-0.5445 0,-0.0242 0,-0.0605 -0.0121,-0.1089 -0.0121,-0.0484 -0.0121,-0.0968 -0.0121,-0.121 h 0.0363 c 0.2541,0 0.4719,-0.0968 0.6534,-0.2783 0.1815,-0.1815 0.2783,-0.4114 0.2783,-0.6655 0,-0.121 -0.0484,-0.2662 -0.1452,-0.4598 0.2057,-0.1089 0.3751,-0.3025 0.4961,-0.5687 h 0.5445 c 0.4719,-0.0242 0.8833,-0.2057 1.21,-0.5445 0.3388,-0.3388 0.5082,-0.7381 0.5082,-1.2221 0,-0.4114 -0.1331,-0.7744 -0.3993,-1.089 -0.2662,-0.3146 -0.605,-0.5203 -1.0043,-0.6292 -0.0968,-0.484 -0.3509,-0.8833 -0.7502,-1.1979 -0.3993,-0.3146 -0.8591,-0.4719 -1.3552,-0.4719 -0.4961,0 -0.9317,0.1573 -1.3068,0.4598 -0.3751,0.3025 -0.6292,0.7018 -0.7502,1.1737 h -0.1331 c -0.4961,0 -0.9317,0.1573 -1.3068,0.4719 -0.3751,0.3025 -0.5566,0.6897 -0.5566,1.1253 z"
   id="path2"
   style="stroke-width:1.21" />
</svg>
