<?xml version="1.0" encoding="UTF-8" standalone="no"?>
<!-- Generator: Adobe Illustrator 22.0.1, SVG Export Plug-In . SVG Version: 6.00 Build 0)  -->

<svg
   version="1.1"
   id="Layer_1"
   x="0px"
   y="0px"
   viewBox="0 0 28 28"
   xml:space="preserve"
   sodipodi:docname="wi-celsius.svg"
   width="28"
   height="28"
   inkscape:version="1.1.1 (3bf5ae0d25, 2021-09-20, custom)"
   xmlns:inkscape="http://www.inkscape.org/namespaces/inkscape"
   xmlns:sodipodi="http://sodipodi.sourceforge.net/DTD/sodipodi-0.dtd"
   xmlns="http://www.w3.org/2000/svg"
   xmlns:svg="http://www.w3.org/2000/svg"><defs
   id="defs7" /><sodipodi:namedview
   id="namedview5"
   pagecolor="#ffffff"
   bordercolor="#666666"
   borderopacity="1.0"
   inkscape:pageshadow="2"
   inkscape:pageopacity="0.0"
   inkscape:pagecheckerboard="0"
   showgrid="false"
   fit-margin-top="0"
   fit-margin-left="0"
   fit-margin-right="0"
   fit-margin-bottom="0"
   inkscape:zoom="13.35"
   inkscape:cx="5.2434457"
   inkscape:cy="5.917603"
   inkscape:window-width="1920"
   inkscape:window-height="987"
   inkscape:window-x="0"
   inkscape:window-y="0"
   inkscape:window-maximized="1"
   inkscape:current-layer="Layer_1" />
<path
   d="m 0.43473163,6.6856461 c 0,-1.2968713 0.46687344,-2.4121807 1.37468347,-3.3199904 0.9337473,-0.9337474 2.023119,-1.3746836 3.3199904,-1.3746836 1.2709337,0 2.3862428,0.4668736 3.2940533,1.3746836 0.9078098,0.9337473 1.3746838,2.0231191 1.3746838,3.3199904 0,1.2968714 -0.466874,2.4121809 -1.3746838,3.3199909 -0.9078105,0.933746 -2.0231196,1.374681 -3.2940533,1.374681 -1.2968714,0 -2.4121807,-0.466872 -3.3199904,-1.374681 C 0.90160507,9.097827 0.43473163,7.9825175 0.43473163,6.6856461 Z m 2.28249317,0 c 0,0.674373 0.2334368,1.2449969 0.7003105,1.7378077 0.4928111,0.4928102 1.0634344,0.7262476 1.7378075,0.7262476 0.6743728,0 1.2449964,-0.2334374 1.7378074,-0.7262476 C 7.3859613,7.930643 7.6193987,7.3600191 7.6193987,6.6856461 7.6193987,6.011273 7.3859613,5.4406496 6.8931502,4.9478386 6.4003392,4.4550275 5.8297156,4.2215906 5.1553428,4.2215906 c -0.6743731,0 -1.2449964,0.2334369 -1.7378075,0.726248 C 2.9506616,5.4147122 2.7172248,6.011273 2.7172248,6.6856461 Z M 12.806884,18.149989 c 0,1.997182 0.544685,3.760924 1.659995,5.317171 0.570623,0.80406 1.374682,1.452496 2.412178,1.945306 1.01156,0.466875 2.178746,0.726251 3.475617,0.726251 3.786863,0 6.173107,-1.4525 7.132791,-4.331553 0.103741,-0.363123 0.05188,-0.726247 -0.15564,-1.063434 -0.207499,-0.337186 -0.492811,-0.518749 -0.855934,-0.596559 -0.363123,-0.103741 -0.726247,-0.05188 -1.037497,0.18156 -0.311251,0.207499 -0.518748,0.49281 -0.59656,0.881873 0,0.02593 0,0.05188 -0.02593,0.129679 l -0.05188,0.181561 c -0.285313,0.492811 -0.674373,0.881874 -1.167186,1.167186 -0.80406,0.492811 -1.867494,0.726248 -3.190302,0.726248 -0.804061,0 -1.530308,-0.129679 -2.152806,-0.415 C 17.216231,22.559346 16.489983,21.781222 16.049045,20.69185 15.763735,19.99154 15.60811,19.135603 15.60811,18.175921 V 9.8240688 c 0,-0.3890602 0.02593,-0.7781228 0.07779,-1.1671838 0.103741,-0.9856219 0.492811,-1.8934318 1.167185,-2.6974917 0.752186,-0.9078099 1.945305,-1.3487461 3.579366,-1.3487461 1.348745,0 2.412179,0.2334367 3.190302,0.7003105 0.518748,0.3112491 0.907809,0.7003105 1.167184,1.167184 0.02593,0.051874 0.02593,0.1296886 0.05188,0.2074995 0.02593,0.077813 0.02593,0.1296887 0.02593,0.1556252 0.103741,0.3631239 0.31125,0.6224981 0.596562,0.7781223 0.311248,0.1815623 0.648433,0.2074997 1.037496,0.1296939 0.363123,-0.077803 0.648434,-0.2853113 0.855935,-0.5965603 0.207508,-0.3112491 0.259383,-0.6484356 0.155648,-1.0374968 v -0.02594 L 27.305903,5.4925245 C 27.176217,5.2072128 26.94278,4.8181514 26.579657,4.3772152 26.242467,3.9103416 25.827469,3.5472177 25.41247,3.2359686 24.867785,2.8469071 24.167473,2.5356581 23.285602,2.2503464 22.40373,1.9909721 21.444046,1.861285 20.406548,1.861285 c -1.322806,0 -2.464056,0.2334369 -3.501553,0.7003106 -1.011558,0.4668736 -1.815619,1.0893717 -2.360306,1.8934319 -1.115309,1.5303081 -1.685932,3.3199902 -1.685932,5.3690479 v 8.3259136 z"
   id="path2"
   style="stroke-width:2.59374" />
</svg>
