<?xml version="1.0" encoding="UTF-8" standalone="no"?>
<!-- Generator: Adobe Illustrator 22.0.1, SVG Export Plug-In . SVG Version: 6.00 Build 0)  -->

<svg
   version="1.1"
   id="Layer_1"
   x="0px"
   y="0px"
   viewBox="0 0 23.999999 27.999999"
   xml:space="preserve"
   sodipodi:docname="wi-raindrop.svg"
   width="24"
   height="28"
   inkscape:version="1.1.1 (3bf5ae0d25, 2021-09-20, custom)"
   xmlns:inkscape="http://www.inkscape.org/namespaces/inkscape"
   xmlns:sodipodi="http://sodipodi.sourceforge.net/DTD/sodipodi-0.dtd"
   xmlns="http://www.w3.org/2000/svg"
   xmlns:svg="http://www.w3.org/2000/svg"><defs
   id="defs7" /><sodipodi:namedview
   id="namedview5"
   pagecolor="#ffffff"
   bordercolor="#666666"
   borderopacity="1.0"
   inkscape:pageshadow="2"
   inkscape:pageopacity="0.0"
   inkscape:pagecheckerboard="0"
   showgrid="false"
   fit-margin-top="0"
   fit-margin-left="0"
   fit-margin-right="0"
   fit-margin-bottom="0"
   inkscape:zoom="26.7"
   inkscape:cx="13.258427"
   inkscape:cy="14.044944"
   inkscape:window-width="1920"
   inkscape:window-height="987"
   inkscape:window-x="0"
   inkscape:window-y="0"
   inkscape:window-maximized="1"
   inkscape:current-layer="Layer_1" />
<path
   d="m 1.8374401,17.030256 c 0,1.792818 0.4482049,3.468716 1.364102,5.008202 0.9158971,1.539487 2.1435888,2.786666 3.7025632,3.702563 1.5589736,0.915897 3.2348697,1.383588 5.0471777,1.383588 1.812306,0 3.507689,-0.467691 5.08615,-1.383588 1.578461,-0.915897 2.825641,-2.163076 3.741537,-3.702563 0.915899,-1.558973 1.38359,-3.215383 1.38359,-5.008202 0,-1.16923 -0.331283,-2.552821 -1.013333,-4.170255 C 20.467176,11.242566 19.648715,9.742054 18.693843,8.3779512 17.836407,7.2671824 16.823074,6.0394906 15.653845,4.714363 14.484615,3.3892353 12.438461,1.3430823 11.97077,0.87539028 L 9.4764119,3.3892353 C 8.2682059,4.5584656 7.0989757,5.9030804 5.9882075,7.4425669 4.8774388,8.9820541 3.9030803,10.638464 3.0846191,12.411796 c -0.8574356,1.773333 -1.247179,3.312819 -1.247179,4.61846 z"
   id="path2"
   style="stroke-width:1.94872" />
</svg>
