#define weather_forecast_hot_width 22
#define weather_forecast_hot_height 22
static char weather_forecast_hot_bits[] = {
  0x00, 0x00, 0x00, 0x00, 0x0C, 0x00, 0x00, 0x0C, 0x00, 0x00, 0x0C, 0x00, 
  0x18, 0x0C, 0x06, 0x30, 0x00, 0x03, 0x20, 0x0C, 0x01, 0x00, 0x3F, 0x00, 
  0x80, 0x73, 0x00, 0xC0, 0xC0, 0x00, 0xC0, 0xC0, 0x00, 0x4F, 0x80, 0x3C, 
  0x06, 0x00, 0x18, 0xC0, 0xCC, 0x00, 0xC0, 0xEC, 0x00, 0xC0, 0xEC, 0x00, 
  0xC0, 0xCD, 0x00, 0x80, 0x99, 0x01, 0x80, 0x99, 0x01, 0x80, 0x99, 0x01, 
  0x80, 0x88, 0x00, 0x00, 0x00, 0x00, };
