#define weather_forecast_day_sunny_overcast_width 22
#define weather_forecast_day_sunny_overcast_height 22
static char weather_forecast_day_sunny_overcast_bits[] = {
  0x00, 0x00, 0x00, 0x00, 0x08, 0x00, 0x00, 0x0C, 0x00, 0x00, 0x0C, 0x00, 
  0x10, 0x08, 0x04, 0x30, 0x00, 0x06, 0x30, 0x00, 0x03, 0x00, 0x3F, 0x00, 
  0x80, 0x7F, 0x00, 0xC0, 0xC1, 0x00, 0xC0, 0xC0, 0x00, 0xC6, 0x80, 0x19, 
  0xC7, 0x83, 0x39, 0xE0, 0xC7, 0x00, 0x30, 0xCE, 0x00, 0x38, 0x7C, 0x00, 
  0x1C, 0x70, 0x00, 0x0C, 0x20, 0x03, 0x0C, 0x30, 0x07, 0xFC, 0x3F, 0x06, 
  0xF0, 0x1F, 0x00, 0x00, 0x00, 0x00, };
