#define weather_forecast_night_alt_hail_width 22
#define weather_forecast_night_alt_hail_height 22
static unsigned char weather_forecast_night_alt_hail_bits[] = {
   0x00, 0x80, 0x01, 0x00, 0xc0, 0x01, 0x80, 0xef, 0x03, 0xc0, 0xff, 0x03,
   0xe0, 0xf0, 0x07, 0x70, 0xe0, 0x1f, 0x30, 0xc0, 0x3f, 0x3c, 0xc0, 0x3f,
   0x1e, 0x00, 0x1f, 0x06, 0x00, 0x04, 0x03, 0x00, 0x08, 0x01, 0x00, 0x10,
   0x01, 0x49, 0x10, 0x02, 0x49, 0x08, 0x06, 0x29, 0x0c, 0x9c, 0x24, 0x07,
   0x80, 0x24, 0x00, 0x00, 0x04, 0x00, 0x80, 0x20, 0x00, 0x00, 0x04, 0x00,
   0x00, 0x00, 0x00, 0x00, 0x00, 0x00 };
