<?xml version="1.0" encoding="UTF-8" standalone="no"?>
<!-- Generator: Adobe Illustrator 22.0.1, SVG Export Plug-In . SVG Version: 6.00 Build 0)  -->

<svg
   version="1.1"
   id="Layer_1"
   x="0px"
   y="0px"
   viewBox="0 0 36 36"
   xml:space="preserve"
   sodipodi:docname="weather_forecast_storm_showers.svg"
   width="36"
   height="36"
   inkscape:version="1.1.1 (3bf5ae0d25, 2021-09-20, custom)"
   xmlns:inkscape="http://www.inkscape.org/namespaces/inkscape"
   xmlns:sodipodi="http://sodipodi.sourceforge.net/DTD/sodipodi-0.dtd"
   xmlns="http://www.w3.org/2000/svg"
   xmlns:svg="http://www.w3.org/2000/svg"><defs
   id="defs7" /><sodipodi:namedview
   id="namedview5"
   pagecolor="#ffffff"
   bordercolor="#666666"
   borderopacity="1.0"
   inkscape:pageshadow="2"
   inkscape:pageopacity="0.0"
   inkscape:pagecheckerboard="0"
   showgrid="false"
   inkscape:zoom="18.879751"
   inkscape:cx="14.989604"
   inkscape:cy="19.756616"
   inkscape:window-width="1920"
   inkscape:window-height="987"
   inkscape:window-x="0"
   inkscape:window-y="0"
   inkscape:window-maximized="1"
   inkscape:current-layer="Layer_1" />
<path
   d="m 0.48087173,16.960014 c 0,1.877049 0.55804167,3.551174 1.67412517,5.022374 1.1160834,1.471202 2.5534636,2.485823 4.3290509,3.026954 l -1.0991731,2.84094 c -0.050731,0.236744 0.033821,0.372028 0.2367449,0.372028 h 3.6019057 l -1.758677,6.392114 h 0.47349 l 6.7134107,-8.827205 c 0.06764,-0.06764 0.06764,-0.152193 0.03382,-0.236746 -0.03382,-0.08455 -0.118373,-0.118372 -0.236745,-0.118372 h -3.686457 l 4.193768,-7.846405 c 0.101472,-0.236744 0.03382,-0.355117 -0.236746,-0.355117 H 9.7477463 c -0.1521934,0 -0.2874763,0.08455 -0.3720281,0.236745 L 7.5324919,22.320596 C 6.3318567,22.01621 5.3341457,21.356706 4.539359,20.358995 3.7445723,19.361284 3.3556342,18.22829 3.3556342,16.960014 c 0,-1.40356 0.4734899,-2.621106 1.4204698,-3.652637 0.9469799,-1.031532 2.1307047,-1.623395 3.5511745,-1.792498 L 9.206617,11.396507 c 0.2198346,0 0.3382071,-0.101472 0.3382071,-0.287477 l 0.118373,-0.879338 C 9.8323007,8.4033732 10.593266,6.8645309 11.963005,5.6300749 c 1.369738,-1.2344559 2.976223,-1.860139 4.819451,-1.860139 1.843228,0 3.449712,0.6256831 4.819451,1.860139 1.386649,1.234456 2.164526,2.7732983 2.36745,4.5996171 l 0.101472,0.980801 c 0,0.202924 0.101461,0.304386 0.321297,0.304386 h 2.722567 c 1.538842,0 2.84094,0.541132 3.923202,1.606484 1.082263,1.065352 1.623394,2.350539 1.623394,3.855561 0,1.43738 -0.50731,2.688747 -1.505021,3.737188 -0.997711,1.048442 -2.232167,1.623394 -3.703368,1.741767 -0.219834,0 -0.338207,0.101461 -0.338207,0.321296 v 2.316719 c 0,0.186014 0.118373,0.287476 0.338207,0.287476 1.099173,-0.03382 2.147615,-0.287476 3.145326,-0.744056 0.997711,-0.456579 1.860139,-1.065352 2.570374,-1.809408 0.710235,-0.744055 1.285187,-1.623393 1.707946,-2.654925 0.422759,-1.014621 0.642593,-2.079974 0.642593,-3.179147 0,-1.521932 -0.372027,-2.925491 -1.132994,-4.210678 C 33.625173,11.497968 32.610551,10.483347 31.325364,9.7392918 30.040172,8.9952361 28.636613,8.6232078 27.131591,8.6232078 H 26.59046 C 26.032418,6.3741306 24.848693,4.5309019 23.022375,3.110432 21.196057,1.6899622 19.132994,0.96281696 16.799365,0.96281696 c -2.38436,0 -4.515065,0.74405564 -6.358294,2.21525654 C 8.5978421,4.6492744 7.4141173,6.5432341 6.8898963,8.8599533 5.0297572,9.2996225 3.4909149,10.263513 2.2733694,11.785445 1.0558238,13.307377 0.48087173,15.015322 0.48087173,16.960014 Z M 14.279722,33.633623 c 0,0.270566 0.08455,0.524221 0.253654,0.777877 0.169104,0.253655 0.43967,0.439668 0.777877,0.541131 0.236745,0.05073 0.372028,0.08456 0.422759,0.08456 0.152193,0 0.355117,-0.05073 0.642593,-0.169104 0.355118,-0.152193 0.591863,-0.45658 0.710235,-0.879338 l 0.47349,-1.775588 c 0.101462,-0.372028 0.06764,-0.727145 -0.135283,-1.065352 -0.202924,-0.338207 -0.4904,-0.558042 -0.896248,-0.676414 -0.372028,-0.101472 -0.727145,-0.06764 -1.065353,0.135283 -0.338207,0.202924 -0.574952,0.4904 -0.693324,0.896248 l -0.45658,1.691036 c -0.0169,0.287476 -0.03382,0.439669 -0.03382,0.439669 z m 2.265987,-8.066238 c 0,0.236744 0.08455,0.490399 0.253656,0.744055 0.169103,0.253655 0.422758,0.439669 0.760965,0.558041 0.372028,0.118373 0.744056,0.101462 1.082263,-0.08455 0.338208,-0.186014 0.558042,-0.47349 0.676415,-0.879338 l 0.50731,-1.758677 c 0.101462,-0.372028 0.05073,-0.727146 -0.135283,-1.065353 -0.202924,-0.338207 -0.50731,-0.574951 -0.896248,-0.693324 -0.388939,-0.101472 -0.744057,-0.06764 -1.099174,0.135283 -0.355117,0.202924 -0.574952,0.4904 -0.693324,0.879338 l -0.405848,1.707946 c -0.03382,0.287476 -0.05073,0.43967 -0.05073,0.45658 z m 4.76872,2.790208 c 0,0.287476 0.08456,0.574951 0.270566,0.862428 0.186014,0.287476 0.45658,0.47349 0.794787,0.591863 0.03382,0 0.101461,0.01691 0.202924,0.03382 0.08455,0.0169 0.152193,0.03382 0.202924,0.03382 0.219834,0 0.43967,-0.03382 0.642594,-0.135284 0.321296,-0.118372 0.558041,-0.439669 0.693324,-0.96389 l 0.422758,-1.707946 c 0.118373,-0.388938 0.08455,-0.760965 -0.101461,-1.116084 -0.186015,-0.355117 -0.47349,-0.591862 -0.845519,-0.710234 -0.422758,-0.101462 -0.811696,-0.05073 -1.149903,0.135283 -0.338207,0.202924 -0.558043,0.50731 -0.625684,0.896248 l -0.45658,1.741767 c -0.03382,0.101462 -0.05072,0.219835 -0.05072,0.338208 z m 2.299808,-8.100061 c -0.0169,0.270567 0.06764,0.524221 0.253655,0.794787 0.186015,0.270565 0.45658,0.473491 0.828608,0.642594 0.135283,0.06764 0.270566,0.101462 0.439669,0.101462 0.186014,0 0.372028,-0.05073 0.574952,-0.135283 0.355118,-0.169104 0.591863,-0.490401 0.744056,-0.963891 l 0.490401,-1.741766 c 0.03382,-0.219835 0.05072,-0.338207 0.05072,-0.372028 0,-0.287476 -0.08455,-0.558042 -0.270566,-0.828607 -0.186014,-0.270566 -0.45658,-0.45658 -0.828607,-0.558043 -0.03382,0 -0.101462,-0.01691 -0.186014,-0.03382 -0.101462,-0.05073 -0.169104,-0.05073 -0.219835,-0.05073 -0.287476,0 -0.558042,0.08455 -0.828607,0.253656 -0.270566,0.169104 -0.45658,0.43967 -0.558041,0.811697 l -0.456578,1.707951 c -0.0169,0.135283 -0.03382,0.253655 -0.03382,0.372028 z"
   id="path2"
   style="stroke-width:1.69104" />
</svg>
