<?xml version="1.0" encoding="UTF-8" standalone="no"?>
<!-- Generator: Adobe Illustrator 22.0.1, SVG Export Plug-In . SVG Version: 6.00 Build 0)  -->

<svg
   version="1.1"
   id="Layer_1"
   x="0px"
   y="0px"
   viewBox="0 0 36 36"
   xml:space="preserve"
   sodipodi:docname="weather_forecast_night_thunderstorm.svg"
   width="36"
   height="36"
   inkscape:version="1.1.2 (0a00cf5339, 2022-02-04, custom)"
   xmlns:inkscape="http://www.inkscape.org/namespaces/inkscape"
   xmlns:sodipodi="http://sodipodi.sourceforge.net/DTD/sodipodi-0.dtd"
   xmlns="http://www.w3.org/2000/svg"
   xmlns:svg="http://www.w3.org/2000/svg"><defs
   id="defs7" /><sodipodi:namedview
   id="namedview5"
   pagecolor="#ffffff"
   bordercolor="#666666"
   borderopacity="1.0"
   inkscape:pageshadow="2"
   inkscape:pageopacity="0.0"
   inkscape:pagecheckerboard="0"
   showgrid="false"
   width="36px"
   inkscape:zoom="18.879751"
   inkscape:cx="14.777737"
   inkscape:cy="17.637944"
   inkscape:window-width="1920"
   inkscape:window-height="987"
   inkscape:window-x="0"
   inkscape:window-y="0"
   inkscape:window-maximized="1"
   inkscape:current-layer="Layer_1" />
<path
   d="m 0.7514379,17.758423 c 0,1.787667 0.5314683,3.398177 1.5944049,4.79932 1.0629366,1.401144 2.4479752,2.351345 4.1229056,2.818393 L 5.438022,28.081793 c -0.080526,0.225471 0,0.354312 0.2254714,0.354312 H 9.0777746 L 7.4028442,35.184142 H 7.853787 l 6.393725,-9.051067 c 0.06442,-0.06442 0.06442,-0.144945 0.0161,-0.225471 -0.04831,-0.08053 -0.128841,-0.112736 -0.241577,-0.112736 h -3.494806 l 3.977959,-7.424451 c 0.112736,-0.225471 0.03221,-0.354312 -0.225471,-0.354312 H 9.5448214 c -0.1449459,0 -0.2576816,0.08052 -0.3704173,0.225471 L 7.4511595,22.86374 c -1.1434621,-0.273787 -2.093663,-0.901885 -2.8506027,-1.835981 -0.7569397,-0.934096 -1.127357,-2.029243 -1.127357,-3.25323 0,-1.336724 0.4509428,-2.496291 1.3528284,-3.478702 0.9018856,-0.982411 2.0292426,-1.54609 3.382071,-1.707141 l 0.8535703,-0.06442 c 0.1932612,0 0.2898918,-0.09663 0.2898918,-0.289891 L 9.464297,11.380808 c 0.1127357,-1.143462 0.483153,-2.1741882 1.111252,-3.1243891 0.628099,-0.9340958 1.449459,-1.6749304 2.447975,-2.2063987 0.998516,-0.5314683 2.077558,-0.805255 3.237125,-0.805255 1.739351,0 3.269335,0.5958887 4.573849,1.771561 1.304513,1.1756723 2.045347,2.6251313 2.238609,4.3644818 l 0.12884,0.901886 c 0,0.193261 0.09663,0.305997 0.273787,0.305997 h 2.609026 c 1.433354,0 2.657342,0.515363 3.704173,1.546089 1.046832,1.030727 1.562195,2.238609 1.562195,3.655858 0,1.385039 -0.483153,2.592921 -1.449459,3.623648 -0.966306,1.030726 -2.141978,1.562194 -3.510912,1.64272 -0.209366,0 -0.322102,0.09663 -0.322102,0.289892 v 2.158083 c 0,0.177156 0.112736,0.273787 0.322102,0.273787 1.401144,-0.03221 2.689552,-0.418733 3.865224,-1.159568 1.175672,-0.724729 2.109768,-1.691035 2.770077,-2.898918 0.660309,-1.207882 1.014622,-2.512395 1.014622,-3.913539 0,-1.175672 -0.225472,-2.254714 -0.676415,-3.237125 1.256198,-1.497774 1.884297,-3.269335 1.884297,-5.330788 0,-1.1434621 -0.225471,-2.2225038 -0.676414,-3.2532302 C 34.121205,4.954869 33.525316,4.0529834 32.768377,3.2960437 32.011437,2.539104 31.125657,1.9432153 30.078825,1.4922725 29.048099,1.0413297 27.952952,0.8158583 26.825595,0.8158583 c -2.480186,0 -4.557743,0.9340958 -6.216569,2.7861823 -1.304513,-0.6925193 -2.753972,-1.0468315 -4.348377,-1.0468315 -2.270819,0 -4.283956,0.7086244 -6.039412,2.1097681 C 8.4657808,6.0661209 7.3384238,7.8698921 6.8391657,10.060186 5.0676047,10.478918 3.6020406,11.396909 2.4424734,12.846368 1.2829062,14.295827 0.7514379,15.906337 0.7514379,17.758423 Z M 13.522782,33.670262 c 0,0.257682 0.08052,0.515363 0.241577,0.740835 0.161051,0.225471 0.402627,0.402627 0.724729,0.499258 l 0.402628,0.04831 c 0.676414,0 1.095146,-0.322102 1.288408,-0.966306 L 20.093663,19.67493 c 0.09663,-0.370417 0.06442,-0.724729 -0.112736,-1.030726 C 19.803771,18.322102 19.54609,18.112736 19.191777,18 c -0.370417,-0.112736 -0.724729,-0.08053 -1.046831,0.09663 -0.322102,0.177156 -0.547573,0.450943 -0.644204,0.805255 l -3.94575,14.333539 c -0.0161,0.273787 -0.03221,0.418733 -0.03221,0.434838 z m 6.667512,-4.879845 c 0,0.644204 0.338207,1.079042 0.998516,1.288408 0.273786,0.03221 0.418732,0.04831 0.418732,0.04831 0.177156,0 0.370418,-0.03221 0.563679,-0.128841 0.322102,-0.144946 0.547573,-0.434838 0.676414,-0.88578 l 2.641237,-9.421484 c 0.09663,-0.370417 0.06442,-0.724729 -0.128841,-1.030726 -0.177156,-0.322102 -0.450943,-0.531469 -0.82136,-0.644204 -0.370418,-0.112736 -0.72473,-0.08053 -1.046832,0.09663 -0.322102,0.177156 -0.531468,0.450943 -0.628099,0.805255 l -2.609026,9.485904 c -0.03221,0.225471 -0.06442,0.354312 -0.06442,0.386522 z"
   id="path2"
   style="stroke-width:1.61051"
   sodipodi:nodetypes="ssccscccccsccssccssscccccsssccssssscssccsscssscscsscssssccccccsccssccccccssccss" />
</svg>
