<?xml version="1.0" encoding="UTF-8" standalone="no"?>
<!-- Generator: Adobe Illustrator 22.0.1, SVG Export Plug-In . SVG Version: 6.00 Build 0)  -->

<svg
   version="1.1"
   id="Layer_1"
   x="0px"
   y="0px"
   viewBox="0 0 36 36"
   xml:space="preserve"
   sodipodi:docname="weather_forecast_day_thunderstorm.svg"
   width="36"
   height="36"
   inkscape:version="1.1.1 (3bf5ae0d25, 2021-09-20, custom)"
   xmlns:inkscape="http://www.inkscape.org/namespaces/inkscape"
   xmlns:sodipodi="http://sodipodi.sourceforge.net/DTD/sodipodi-0.dtd"
   xmlns="http://www.w3.org/2000/svg"
   xmlns:svg="http://www.w3.org/2000/svg"><defs
   id="defs7" /><sodipodi:namedview
   id="namedview5"
   pagecolor="#ffffff"
   bordercolor="#666666"
   borderopacity="1.0"
   inkscape:pageshadow="2"
   inkscape:pageopacity="0.0"
   inkscape:pagecheckerboard="0"
   showgrid="false"
   width="36px"
   inkscape:zoom="19.492577"
   inkscape:cx="14.980061"
   inkscape:cy="18.776378"
   inkscape:window-width="1920"
   inkscape:window-height="987"
   inkscape:window-x="0"
   inkscape:window-y="0"
   inkscape:window-maximized="1"
   inkscape:current-layer="Layer_1" />
<path
   d="m 0.064775,21.613665 c 0,1.47741 0.43923,2.78179 1.30438,3.93976 0.86515,1.15797 2.00981,1.94326 3.42067,2.36918 l -0.85184,2.2627 c -0.05324,0.18634 0,0.27951 0.18634,0.27951 h 2.83503 l -1.66375,5.25745 h 0.38599 l 5.55027,-7.17409 c 0.05324,-0.05324 0.05324,-0.11979 0.01331,-0.18634 -0.02662,-0.06655 -0.09317,-0.09317 -0.18634,-0.09317 h -2.88827 l 3.28757,-6.16253 c 0.09317,-0.18634 0.02662,-0.29282 -0.18634,-0.29282 h -3.91314 c -0.11979,0 -0.22627,0.06655 -0.30613,0.18634 l -1.42417,3.83328 c -0.94501,-0.23958 -1.7303,-0.75867 -2.35587,-1.54396 -0.62557,-0.78529 -0.9317,-1.67706 -0.9317,-2.67531 0,-1.10473 0.37268,-2.06305 1.13135,-2.88827 0.75867,-0.82522 1.69037,-1.29107 2.7951,-1.42417 l 0.69212,-0.07986 c 0.17303,0 0.2662,-0.07986 0.2662,-0.23958 l 0.07986,-0.67881 c 0.14641,-1.43748 0.75867,-2.64869 1.83678,-3.62032 1.07811,-0.97163 2.35587,-1.4641 3.80666,-1.4641 1.45079,0 2.71524,0.49247 3.79335,1.4641 1.07811,0.97163 1.70368,2.18284 1.8634,3.62032 l 0.07986,0.77198 c 0,0.14641 0.07986,0.22627 0.23958,0.22627 h 2.14291 c 1.21121,0 2.23608,0.42592 3.08792,1.26445 0.85184,0.83853 1.27776,1.85009 1.27776,3.04799 0,1.13135 -0.3993,2.11629 -1.18459,2.94151 -0.78529,0.82522 -1.75692,1.29107 -2.91489,1.38424 -0.17303,0 -0.2662,0.07986 -0.2662,0.23958 v 1.82347 c 0,0.14641 0.09317,0.22627 0.2662,0.22627 1.77023,-0.05324 3.27426,-0.73205 4.51209,-2.00981 1.23783,-1.27776 1.85009,-2.80841 1.85009,-4.59195 0,-0.98494 -0.18634,-1.87671 -0.57233,-2.67531 1.05149,-1.27776 1.57058,-2.74186 1.57058,-4.41892 0,-1.25114 -0.31944,-2.40911 -0.94501,-3.48722 -0.62557,-1.07811 -1.47741,-1.92995 -2.55552,-2.55552 -1.07811,-0.62557 -2.23608,-0.94501 -3.48722,-0.94501 -2.04974,0 -3.78004,0.77198 -5.16428,2.30263 -1.07811,-0.57233 -2.27601,-0.86515 -3.5937,-0.86515 -1.87671,0 -3.55377,0.58564 -5.00456,1.74361 -1.45079,1.15797 -2.38249,2.64869 -2.7951,4.47216 -1.47741,0.34606 -2.68862,1.10473 -3.63363,2.30263 -0.94501,1.1979 -1.45079,2.58214 -1.45079,4.11279 z m 10.76779,12.75098 c -0.01331,0.19965 0.03993,0.3993 0.18634,0.58564 0.14641,0.18634 0.34606,0.33275 0.61226,0.43923 0.09317,0.02662 0.18634,0.03993 0.27951,0.03993 0.22627,0 0.45254,-0.06655 0.67881,-0.19965 0.22627,-0.1331 0.37268,-0.34606 0.45254,-0.62557 l 3.04799,-11.40667 c 0.07986,-0.30613 0.05324,-0.59895 -0.09317,-0.85184 -0.14641,-0.2662 -0.35937,-0.43923 -0.65219,-0.5324 -0.30613,-0.09317 -0.59895,-0.06655 -0.86515,0.09317 -0.2662,0.14641 -0.45254,0.37268 -0.5324,0.67881 l -3.07461,11.4466 c -0.02662,0.09317 -0.03993,0.21296 -0.03993,0.33275 z m 0.43923,-29.08235 c 0,0.31944 0.10648,0.57233 0.33275,0.78529 l 0.85184,0.87846 c 0.22627,0.22627 0.49247,0.33275 0.81191,0.34606 0.31944,0 0.57233,-0.10648 0.75867,-0.34606 0.25289,-0.19965 0.37268,-0.46585 0.37268,-0.7986 0,-0.31944 -0.10648,-0.57233 -0.33275,-0.78529 l -0.83853,-0.87846 c -0.22627,-0.21296 -0.50578,-0.31944 -0.81191,-0.31944 -0.33275,0 -0.61226,0.10648 -0.82522,0.31944 -0.21296,0.21296 -0.31944,0.47916 -0.31944,0.7986 z m 5.09773,25.0228 c 0,0.15972 0.05324,0.31944 0.14641,0.50578 0.17303,0.2662 0.38599,0.45254 0.6655,0.57233 0.09317,0.03993 0.22627,0.06655 0.3993,0.06655 0.19965,0 0.34606,-0.02662 0.43923,-0.07986 0.2662,-0.10648 0.45254,-0.37268 0.54571,-0.77198 l 1.98319,-7.38705 c 0.07986,-0.31944 0.05324,-0.59895 -0.09317,-0.86515 -0.14641,-0.25289 -0.37268,-0.42592 -0.67881,-0.51909 -0.30613,-0.09317 -0.59895,-0.06655 -0.85184,0.09317 -0.2662,0.14641 -0.43923,0.37268 -0.51909,0.67881 l -1.9965,7.40036 c 0,0.02662 -0.01331,0.07986 -0.02662,0.14641 -0.01331,0.07986 -0.01331,0.11979 -0.01331,0.15972 z m 2.03643,-19.15309 c 0.89177,-0.85184 1.98319,-1.29107 3.30088,-1.29107 1.29107,0 2.40911,0.45254 3.3275,1.35762 0.91839,0.90508 1.38424,2.00981 1.38424,3.30088 0,0.82522 -0.22627,1.65044 -0.69212,2.46235 -1.31769,-1.30438 -2.87496,-1.95657 -4.6585,-1.95657 h -0.41261 c -0.41261,-1.55727 -1.17128,-2.84834 -2.24939,-3.87321 z m 2.14291,-6.98775 c 0,0.30613 0.11979,0.57233 0.34606,0.7986 0.22627,0.22627 0.49247,0.34606 0.7986,0.34606 0.31944,0 0.57233,-0.10648 0.78529,-0.33275 0.21296,-0.22627 0.30613,-0.49247 0.30613,-0.81191 v -2.74186 c 0,-0.31944 -0.10648,-0.58564 -0.30613,-0.81191 -0.19965,-0.22627 -0.46585,-0.33275 -0.78529,-0.33275 -0.30613,0 -0.57233,0.10648 -0.7986,0.33275 -0.22627,0.22627 -0.34606,0.49247 -0.34606,0.81191 z m 7.36043,3.03468 c 0,0.31944 0.11979,0.58564 0.34606,0.7986 0.18634,0.22627 0.43923,0.33275 0.75867,0.33275 0.31944,0 0.58564,-0.10648 0.7986,-0.33275 l 1.91664,-1.92995 c 0.22627,-0.21296 0.34606,-0.46585 0.34606,-0.78529 0,-0.31944 -0.10648,-0.58564 -0.33275,-0.81191 -0.22627,-0.22627 -0.49247,-0.33275 -0.81191,-0.33275 -0.29282,0 -0.54571,0.11979 -0.75867,0.34606 l -1.91664,1.91664 c -0.22627,0.21296 -0.34606,0.47916 -0.34606,0.7986 z m 1.07811,15.78566 c 0,0.29282 0.10648,0.55902 0.31944,0.7986 l 0.87846,0.83853 c 0.15972,0.18634 0.41261,0.30613 0.71874,0.31944 l 0.01331,0.01331 c 0.01331,0 0.03993,0 0.06655,0 0.02662,0 0.03993,0 0.06655,0 0.25289,0 0.47916,-0.11979 0.70543,-0.34606 0.22627,-0.21296 0.34606,-0.47916 0.34606,-0.7986 0,-0.30613 -0.11979,-0.57233 -0.34606,-0.81191 l -0.86515,-0.81191 c -0.21296,-0.23958 -0.47916,-0.35937 -0.77198,-0.35937 -0.30613,0 -0.57233,0.10648 -0.7986,0.33275 -0.22627,0.23958 -0.33275,0.51909 -0.33275,0.82522 z m 1.92995,-8.45185 c 0,0.30613 0.11979,0.57233 0.35937,0.7986 0.23958,0.23958 0.50578,0.35937 0.81191,0.35937 h 2.70193 c 0.30613,0 0.57233,-0.11979 0.7986,-0.34606 0.22627,-0.22627 0.34606,-0.50578 0.34606,-0.81191 0,-0.30613 -0.10648,-0.57233 -0.33275,-0.78529 -0.22627,-0.21296 -0.49247,-0.31944 -0.81191,-0.31944 h -2.70193 c -0.33275,0 -0.61226,0.10648 -0.83853,0.31944 -0.22627,0.21296 -0.33275,0.47916 -0.33275,0.78529 z"
   id="path2"
   style="stroke-width:1.331" />
</svg>
