<?xml version="1.0" encoding="UTF-8" standalone="no"?>
<!-- Generator: Adobe Illustrator 22.0.1, SVG Export Plug-In . SVG Version: 6.00 Build 0)  -->

<svg
   version="1.1"
   id="Layer_1"
   x="0px"
   y="0px"
   viewBox="0 0 36 36"
   xml:space="preserve"
   sodipodi:docname="weather_forecast_day_lightning.svg"
   width="36"
   height="36"
   inkscape:version="1.1.1 (3bf5ae0d25, 2021-09-20, custom)"
   xmlns:inkscape="http://www.inkscape.org/namespaces/inkscape"
   xmlns:sodipodi="http://sodipodi.sourceforge.net/DTD/sodipodi-0.dtd"
   xmlns="http://www.w3.org/2000/svg"
   xmlns:svg="http://www.w3.org/2000/svg"><defs
   id="defs7" /><sodipodi:namedview
   id="namedview5"
   pagecolor="#ffffff"
   bordercolor="#666666"
   borderopacity="1.0"
   inkscape:pageshadow="2"
   inkscape:pageopacity="0.0"
   inkscape:pagecheckerboard="0"
   showgrid="false"
   width="36px"
   inkscape:zoom="19.492577"
   inkscape:cx="14.980061"
   inkscape:cy="19.084188"
   inkscape:window-width="1920"
   inkscape:window-height="987"
   inkscape:window-x="0"
   inkscape:window-y="0"
   inkscape:window-maximized="1"
   inkscape:current-layer="Layer_1" />
<path
   d="m 0.11136,21.16778 c 0,1.77023 0.61226,3.28757 1.85009,4.56533 1.23783,1.27776 2.74186,1.95657 4.5254,2.03643 0.14641,0 0.22627,-0.07986 0.22627,-0.22627 V 25.7198 c 0,-0.15972 -0.07986,-0.23958 -0.22627,-0.23958 C 5.32888,25.38705 4.35725,24.93451 3.57196,24.09598 2.78667,23.27076 2.38737,22.28582 2.38737,21.15447 c 0,-1.11804 0.37268,-2.08967 1.13135,-2.91489 0.75867,-0.82522 1.67706,-1.29107 2.7951,-1.38424 l 0.69212,-0.10648 c 0.17303,0 0.2662,-0.07986 0.2662,-0.22627 L 7.352,15.84378 c 0.14641,-1.43748 0.74536,-2.64869 1.82347,-3.60701 1.07811,-0.97163 2.34256,-1.45079 3.80666,-1.45079 1.45079,0 2.71524,0.47916 3.79335,1.45079 1.07811,0.95832 1.69037,2.16953 1.85009,3.62032 l 0.09317,0.77198 c 0,0.14641 0.07986,0.22627 0.25289,0.22627 h 2.1296 c 1.21121,0 2.23608,0.42592 3.08792,1.26445 0.85184,0.83853 1.27776,1.85009 1.27776,3.03468 0,1.13135 -0.3993,2.11629 -1.18459,2.94151 -0.78529,0.82522 -1.75692,1.29107 -2.91489,1.38424 -0.17303,0 -0.2662,0.07986 -0.2662,0.23958 v 1.82347 c 0,0.14641 0.09317,0.22627 0.2662,0.22627 1.77023,-0.05324 3.27426,-0.73205 4.49878,-2.00981 1.22452,-1.27776 1.83678,-2.80841 1.83678,-4.59195 0,-0.90508 -0.21296,-1.82347 -0.62557,-2.75517 1.03818,-1.25114 1.57058,-2.70193 1.57058,-4.35237 0,-0.94501 -0.18634,-1.85009 -0.55902,-2.71524 C 27.7163,10.47985 27.22383,9.7478 26.59826,9.12223 25.97269,8.49666 25.22733,8.00419 24.37549,7.63151 23.51034,7.27214 22.61857,7.0858 21.67356,7.0858 c -2.04974,0 -3.78004,0.77198 -5.16428,2.30263 -1.14466,-0.54571 -2.31594,-0.82522 -3.52715,-0.82522 -1.89002,0 -3.55377,0.57233 -5.00456,1.7303 -1.45079,1.15797 -2.38249,2.64869 -2.7951,4.48547 -1.4641,0.34606 -2.67531,1.10473 -3.63363,2.30263 -0.95832,1.1979 -1.43748,2.55552 -1.43748,4.08617 z m 9.9825,15.00037 h 0.3993 L 17.57408,25.7198 c 0.05324,-0.05324 0.06655,-0.11979 0.02662,-0.18634 -0.03993,-0.06655 -0.09317,-0.09317 -0.18634,-0.09317 h -2.90158 l 3.0613,-5.60351 c 0.09317,-0.18634 0.03993,-0.29282 -0.18634,-0.29282 H 13.4746 c -0.10648,0 -0.19965,0.06655 -0.29282,0.18634 l -2.87496,7.61332 c -0.02662,0.18634 0.02662,0.27951 0.18634,0.27951 h 2.88827 z M 11.26514,4.78317 c 0,0.33275 0.10648,0.61226 0.31944,0.82522 l 0.87846,0.86515 c 0.55902,0.42592 1.09142,0.42592 1.61051,0 0.21296,-0.23958 0.31944,-0.51909 0.31944,-0.85184 0,-0.30613 -0.10648,-0.57233 -0.31944,-0.78529 L 13.22171,3.97126 C 12.96882,3.74499 12.70262,3.63851 12.39649,3.63851 c -0.30613,0 -0.57233,0.10648 -0.7986,0.33275 -0.22627,0.22627 -0.33275,0.50578 -0.33275,0.81191 z m 7.10754,5.89633 c 0.90508,-0.90508 2.00981,-1.35762 3.30088,-1.35762 1.30438,0 2.40911,0.46585 3.31419,1.38424 0.91839,0.91839 1.37093,2.03643 1.37093,3.35412 0,0.81191 -0.22627,1.61051 -0.67881,2.40911 -1.30438,-1.25114 -2.83503,-1.87671 -4.60526,-1.87671 H 20.662 C 20.31594,13.0753 19.54396,11.77092 18.37268,10.6795 Z M 20.5289,3.63851 c 0,0.33275 0.10648,0.61226 0.31944,0.82522 0.21296,0.21296 0.47916,0.31944 0.81191,0.31944 0.31944,0 0.57233,-0.10648 0.78529,-0.31944 0.21296,-0.21296 0.30613,-0.49247 0.30613,-0.82522 V 0.92327 c 0,-0.31944 -0.10648,-0.57233 -0.30613,-0.78529 -0.21296,-0.21296 -0.46585,-0.30613 -0.78529,-0.30613 -0.31944,0 -0.58564,0.10648 -0.7986,0.30613 -0.21296,0.19965 -0.33275,0.46585 -0.33275,0.78529 z m 7.34712,3.08792 c 0,0.30613 0.11979,0.57233 0.35937,0.7986 0.23958,0.22627 0.49247,0.33275 0.73205,0.33275 0.21296,0 0.49247,-0.10648 0.82522,-0.33275 L 31.7093,5.6217 c 0.22627,-0.23958 0.33275,-0.51909 0.33275,-0.83853 0,-0.31944 -0.10648,-0.59895 -0.33275,-0.81191 -0.22627,-0.21296 -0.49247,-0.31944 -0.7986,-0.31944 -0.29282,0 -0.54571,0.10648 -0.77198,0.33275 L 28.23539,5.8879 c -0.23958,0.25289 -0.35937,0.5324 -0.35937,0.83853 z m 1.07811,15.73242 c 0,0.30613 0.10648,0.57233 0.31944,0.81191 l 0.86515,0.87846 c 0.21296,0.21296 0.47916,0.31944 0.77198,0.31944 0.31944,0 0.58564,-0.10648 0.7986,-0.33275 0.22627,-0.22627 0.33275,-0.50578 0.33275,-0.83853 0,-0.30613 -0.10648,-0.55902 -0.33275,-0.75867 l -0.82522,-0.87846 c -0.25289,-0.21296 -0.51909,-0.30613 -0.82522,-0.30613 -0.30613,0 -0.57233,0.10648 -0.78529,0.31944 -0.21296,0.21296 -0.31944,0.47916 -0.31944,0.78529 z m 1.92995,-8.39861 c 0,0.29282 0.11979,0.54571 0.34606,0.75867 0.22627,0.22627 0.49247,0.33275 0.7986,0.33275 h 2.71524 c 0.31944,0 0.58564,-0.10648 0.81191,-0.31944 0.22627,-0.21296 0.33275,-0.46585 0.33275,-0.78529 0,-0.31944 -0.11979,-0.58564 -0.34606,-0.81191 -0.22627,-0.22627 -0.49247,-0.33275 -0.7986,-0.33275 h -2.71524 c -0.30613,0 -0.57233,0.10648 -0.7986,0.33275 -0.22627,0.23958 -0.34606,0.50578 -0.34606,0.82522 z"
   id="path2"
   style="stroke-width:1.331" />
</svg>
