<?xml version="1.0" encoding="UTF-8" standalone="no"?>
<!-- Generator: Adobe Illustrator 22.0.1, SVG Export Plug-In . SVG Version: 6.00 Build 0)  -->

<svg
   version="1.1"
   id="Layer_1"
   x="0px"
   y="0px"
   viewBox="0 0 36 36"
   xml:space="preserve"
   sodipodi:docname="weather_forecast_day_snow_thunderstorm.svg"
   width="36"
   height="36"
   inkscape:version="1.1.1 (3bf5ae0d25, 2021-09-20, custom)"
   xmlns:inkscape="http://www.inkscape.org/namespaces/inkscape"
   xmlns:sodipodi="http://sodipodi.sourceforge.net/DTD/sodipodi-0.dtd"
   xmlns="http://www.w3.org/2000/svg"
   xmlns:svg="http://www.w3.org/2000/svg"><defs
   id="defs7" /><sodipodi:namedview
   id="namedview5"
   pagecolor="#ffffff"
   bordercolor="#666666"
   borderopacity="1.0"
   inkscape:pageshadow="2"
   inkscape:pageopacity="0.0"
   inkscape:pagecheckerboard="0"
   showgrid="false"
   width="36px"
   inkscape:zoom="19.492577"
   inkscape:cx="14.980061"
   inkscape:cy="17.750347"
   inkscape:window-width="1920"
   inkscape:window-height="987"
   inkscape:window-x="0"
   inkscape:window-y="0"
   inkscape:window-maximized="1"
   inkscape:current-layer="Layer_1" />
<path
   d="m 0.01819,21.440635 c 0,1.49072 0.43923,2.82172 1.331,3.993 0.89177,1.17128 2.03643,1.95657 3.43398,2.34256 l -0.87846,2.2627 c -0.06655,0.18634 0,0.29282 0.18634,0.29282 h 2.83503 l -1.90333,5.60351 h 0.38599 l 5.80316,-7.53346 c 0.05324,-0.05324 0.05324,-0.11979 0.02662,-0.18634 -0.02662,-0.06655 -0.09317,-0.09317 -0.18634,-0.09317 H 8.13729 l 3.31419,-6.18915 c 0.09317,-0.18634 0.03993,-0.29282 -0.18634,-0.29282 H 7.32538 c -0.11979,0 -0.22627,0.06655 -0.30613,0.19965 l -1.42417,3.83328 c -0.95832,-0.23958 -1.75692,-0.74536 -2.36918,-1.54396 -0.62557,-0.78529 -0.9317,-1.67706 -0.9317,-2.68862 0,-1.11804 0.37268,-2.08967 1.11804,-2.90158 0.74536,-0.81191 1.69037,-1.29107 2.80841,-1.42417 l 0.67881,-0.03993 c 0.15972,0 0.25289,-0.06655 0.29282,-0.18634 l 0.09317,-0.78529 c 0.14641,-1.43748 0.74536,-2.64869 1.82347,-3.62032 1.07811,-0.97163 2.34256,-1.4641 3.80666,-1.4641 1.45079,0 2.71524,0.49247 3.80666,1.4641 1.09142,0.97163 1.71699,2.18284 1.8634,3.62032 l 0.10648,0.78529 c 0,0.14641 0.07986,0.22627 0.23958,0.22627 h 2.14291 c 1.18459,0 2.20946,0.42592 3.07461,1.27776 0.86515,0.85184 1.29107,1.8634 1.29107,3.04799 0,1.15797 -0.3993,2.15622 -1.1979,3.00806 -0.7986,0.85184 -1.75692,1.30438 -2.90158,1.37093 -0.17303,0 -0.2662,0.07986 -0.2662,0.23958 v 1.78354 c 0,0.14641 0.09317,0.22627 0.2662,0.22627 1.17128,-0.02662 2.24939,-0.34606 3.22102,-0.95832 0.97163,-0.59895 1.74361,-1.41086 2.31594,-2.40911 0.57233,-0.99825 0.85184,-2.08967 0.85184,-3.26095 0,-0.97163 -0.18634,-1.8634 -0.57233,-2.68862 1.01156,-1.27776 1.51734,-2.74186 1.51734,-4.37899 0,-1.26445 -0.31944,-2.43573 -0.94501,-3.51384 -0.62557,-1.07811 -1.47741,-1.92995 -2.55552,-2.55552 -1.07811,-0.62557 -2.24939,-0.94501 -3.51384,-0.94501 -0.95832,0 -1.89002,0.19965 -2.7951,0.59895 -0.90508,0.3993 -1.67706,0.95832 -2.34256,1.66375 -1.07811,-0.57233 -2.27601,-0.86515 -3.62032,-0.86515 -1.89002,0 -3.56708,0.58564 -5.01787,1.75692 -1.45079,1.17128 -2.3958,2.662 -2.7951,4.48547 -1.47741,0.34606 -2.68862,1.11804 -3.64694,2.31594 -0.94501,1.22452 -1.42417,2.59545 -1.42417,4.1261 z M 11.2119,5.082645 c 0,0.30613 0.10648,0.57233 0.33275,0.7986 l 0.86515,0.87846 c 0.21296,0.21296 0.45254,0.31944 0.73205,0.34606 0.27951,0.03993 0.54571,-0.05324 0.81191,-0.30613 0.2662,-0.23958 0.3993,-0.51909 0.3993,-0.85184 0,-0.30613 -0.10648,-0.57233 -0.33275,-0.7986 l -0.83853,-0.87846 c -0.21296,-0.21296 -0.47916,-0.31944 -0.7986,-0.31944 -0.33275,0 -0.61226,0.10648 -0.83853,0.31944 -0.21296,0.23958 -0.33275,0.50578 -0.33275,0.81191 z m 1.57058,24.45047 c 0,0.31944 0.10648,0.58564 0.31944,0.78529 0.21296,0.21296 0.47916,0.31944 0.77198,0.31944 0.31944,0 0.58564,-0.10648 0.81191,-0.31944 0.22627,-0.21296 0.33275,-0.47916 0.33275,-0.78529 0,-0.31944 -0.10648,-0.58564 -0.33275,-0.81191 -0.22627,-0.22627 -0.49247,-0.34606 -0.81191,-0.34606 -0.29282,0 -0.54571,0.11979 -0.77198,0.34606 -0.22627,0.22627 -0.31944,0.49247 -0.31944,0.81191 z m 0,-4.84484 c 0,0.31944 0.10648,0.57233 0.31944,0.77198 0.21296,0.21296 0.47916,0.31944 0.77198,0.31944 0.31944,0 0.59895,-0.10648 0.81191,-0.30613 0.21296,-0.19965 0.33275,-0.46585 0.33275,-0.78529 0,-0.30613 -0.10648,-0.57233 -0.33275,-0.7986 -0.22627,-0.22627 -0.49247,-0.33275 -0.81191,-0.33275 -0.30613,0 -0.55902,0.10648 -0.77198,0.33275 -0.21296,0.22627 -0.31944,0.49247 -0.31944,0.7986 z m 0,9.72961 c 0,0.29282 0.10648,0.54571 0.31944,0.75867 0.22627,0.22627 0.47916,0.33275 0.77198,0.33275 0.31944,0 0.58564,-0.10648 0.81191,-0.31944 0.22627,-0.21296 0.33275,-0.46585 0.33275,-0.78529 0,-0.31944 -0.10648,-0.58564 -0.33275,-0.81191 -0.22627,-0.22627 -0.49247,-0.34606 -0.81191,-0.34606 -0.29282,0 -0.54571,0.11979 -0.77198,0.34606 -0.21296,0.23958 -0.31944,0.51909 -0.31944,0.82522 z m 4.29913,-7.46691 c 0,0.31944 0.10648,0.58564 0.33275,0.7986 0.22627,0.21296 0.47916,0.33275 0.7986,0.33275 0.30613,0 0.57233,-0.10648 0.78529,-0.33275 0.21296,-0.22627 0.31944,-0.49247 0.31944,-0.7986 0,-0.29282 -0.10648,-0.55902 -0.31944,-0.77198 -0.21296,-0.21296 -0.46585,-0.31944 -0.78529,-0.31944 -0.30613,0 -0.57233,0.10648 -0.7986,0.31944 -0.22627,0.21296 -0.33275,0.46585 -0.33275,0.77198 z m 0,4.84484 c 0,0.30613 0.10648,0.55902 0.31944,0.77198 0.21296,0.21296 0.47916,0.31944 0.7986,0.31944 0.31944,0 0.57233,-0.10648 0.78529,-0.31944 0.21296,-0.21296 0.30613,-0.46585 0.30613,-0.78529 0,-0.31944 -0.10648,-0.57233 -0.30613,-0.78529 -0.21296,-0.21296 -0.46585,-0.30613 -0.78529,-0.30613 -0.31944,0 -0.58564,0.10648 -0.7986,0.30613 -0.21296,0.21296 -0.31944,0.47916 -0.31944,0.7986 z m 1.331,-20.81684 c 0.89177,-0.85184 1.96988,-1.29107 3.26095,-1.29107 1.30438,0 2.42242,0.45254 3.34081,1.37093 0.91839,0.90508 1.38424,2.02312 1.38424,3.3275 0,0.87846 -0.21296,1.67706 -0.62557,2.40911 -1.27776,-1.27776 -2.83503,-1.91664 -4.68512,-1.91664 h -0.41261 c -0.38599,-1.58389 -1.14466,-2.88827 -2.2627,-3.89983 z m 2.1296,-7.01437 c 0,0.31944 0.10648,0.58564 0.33275,0.81191 0.22627,0.22627 0.49247,0.33275 0.7986,0.33275 0.31944,0 0.58564,-0.10648 0.7986,-0.33275 0.21296,-0.22627 0.31944,-0.49247 0.31944,-0.81191 v -2.74186 c 0,-0.31944 -0.10648,-0.59895 -0.31944,-0.81191 -0.21296,-0.22627 -0.47916,-0.34606 -0.7986,-0.34606 -0.31944,0 -0.58564,0.10648 -0.7986,0.33275 -0.21296,0.22627 -0.33275,0.49247 -0.33275,0.81191 z m 7.42698,3.04799 c 0,0.31944 0.10648,0.58564 0.30613,0.7986 0.18634,0.21296 0.42592,0.31944 0.73205,0.34606 0.30613,0.02662 0.58564,-0.09317 0.83853,-0.34606 l 1.91664,-1.91664 c 0.23958,-0.21296 0.34606,-0.47916 0.34606,-0.7986 0,-0.31944 -0.11979,-0.58564 -0.34606,-0.7986 -0.21296,-0.23958 -0.47916,-0.34606 -0.7986,-0.34606 -0.30613,0 -0.55902,0.11979 -0.77198,0.34606 l -1.91664,1.91664 c -0.21296,0.19965 -0.30613,0.46585 -0.30613,0.7986 z m 1.02487,15.85221 c 0,0.30613 0.10648,0.57233 0.33275,0.7986 l 0.86515,0.83853 c 0.23958,0.22627 0.51909,0.33275 0.82522,0.33275 l 0.02662,0.02662 c 0.29282,0 0.5324,-0.11979 0.71874,-0.35937 0.23958,-0.21296 0.34606,-0.47916 0.34606,-0.7986 0,-0.30613 -0.11979,-0.57233 -0.34606,-0.81191 l -0.82522,-0.82522 c -0.23958,-0.23958 -0.50578,-0.35937 -0.81191,-0.35937 -0.31944,0 -0.58564,0.11979 -0.7986,0.34606 -0.21296,0.22627 -0.33275,0.50578 -0.33275,0.81191 z m 1.95657,-8.47847 c 0,0.31944 0.11979,0.58564 0.34606,0.78529 0.21296,0.23958 0.47916,0.34606 0.7986,0.34606 h 2.74186 c 0.31944,0 0.58564,-0.10648 0.81191,-0.33275 0.22627,-0.22627 0.33275,-0.49247 0.33275,-0.7986 0,-0.30613 -0.10648,-0.58564 -0.33275,-0.7986 -0.22627,-0.21296 -0.49247,-0.31944 -0.81191,-0.31944 h -2.74186 c -0.31944,0 -0.59895,0.10648 -0.81191,0.31944 -0.22627,0.21296 -0.33275,0.47916 -0.33275,0.7986 z"
   id="path2"
   style="stroke-width:1.331" />
</svg>
