#define weather_forecast_sandstorm_width 36
#define weather_forecast_sandstorm_height 36
static char weather_forecast_sandstorm_bits[] = {
  0x00, 0x00, 0x00, 0x00, 0x00, 0x00, 0x00, 0x00, 0x00, 0x00, 0x00, 0x00, 
  0x00, 0x00, 0x00, 0x00, 0x00, 0x00, 0x00, 0x00, 0x00, 0x00, 0x00, 0x00, 
  0x00, 0x00, 0x00, 0x00, 0x00, 0x00, 0x00, 0x00, 0x00, 0x00, 0x00, 0x00, 
  0x00, 0x00, 0x00, 0x00, 0x00, 0x06, 0x00, 0x00, 0x00, 0x00, 0x06, 0x00, 
  0x80, 0x00, 0x00, 0x80, 0xC1, 0xE0, 0x03, 0x70, 0x80, 0xC1, 0xF0, 0x07, 
  0x70, 0x00, 0x00, 0x30, 0x07, 0x00, 0x00, 0x00, 0x00, 0x06, 0x00, 0x00, 
  0x00, 0x00, 0x07, 0xFE, 0xFF, 0xFF, 0xFF, 0x07, 0xFE, 0xFF, 0xFF, 0xFF, 
  0x03, 0xFE, 0xFF, 0xFF, 0xFF, 0x01, 0x00, 0x00, 0x00, 0x00, 0x00, 0x00, 
  0x00, 0x00, 0x00, 0x00, 0xFE, 0xFF, 0xFF, 0x43, 0x00, 0xFE, 0xFF, 0xFF, 
  0xE7, 0x00, 0xFE, 0xFF, 0xFF, 0x47, 0x00, 0x00, 0x00, 0x00, 0x0E, 0x00, 
  0x00, 0x04, 0x00, 0x0E, 0x00, 0x10, 0x06, 0xF0, 0x07, 0x00, 0x18, 0x06, 
  0xF3, 0x07, 0x00, 0x18, 0x80, 0xE3, 0x03, 0x00, 0x00, 0x00, 0x01, 0x00, 
  0x00, 0x00, 0x00, 0x00, 0x00, 0x00, 0x00, 0x00, 0x00, 0x00, 0x00, 0x00, 
  0x00, 0x00, 0x00, 0x00, 0x00, 0x00, 0x00, 0x00, 0x00, 0x00, 0x00, 0x00, 
  0x00, 0x00, 0x00, 0x00, 0x00, 0x00, 0x00, 0x00, 0x00, 0x00, 0x00, 0x00, 
  };
