#define weather_forecast_smoke_width 36
#define weather_forecast_smoke_height 36
static char weather_forecast_smoke_bits[] = {
  0x00, 0x00, 0x00, 0x00, 0x00, 0x00, 0xE0, 0x1F, 0x00, 0x00, 0x00, 0xF8, 
  0x3F, 0x00, 0x00, 0x00, 0x7C, 0xF8, 0x00, 0x00, 0x00, 0x1E, 0xE0, 0x00, 
  0x00, 0x00, 0x0E, 0xC0, 0x01, 0x00, 0x00, 0x07, 0x80, 0x01, 0x00, 0x00, 
  0x07, 0x80, 0x03, 0x00, 0xC0, 0x07, 0x80, 0x3F, 0x00, 0xE0, 0x01, 0x80, 
  0x7F, 0x00, 0x70, 0x00, 0x80, 0xF1, 0x00, 0x38, 0x00, 0x00, 0xC0, 0x01, 
  0x18, 0x00, 0x00, 0x80, 0x01, 0x1C, 0x00, 0x00, 0x80, 0x03, 0x1C, 0x00, 
  0x00, 0x80, 0x03, 0x1C, 0x00, 0x00, 0x00, 0x03, 0x1C, 0x00, 0x00, 0x80, 
  0x03, 0x38, 0x00, 0x00, 0x80, 0x01, 0x38, 0x00, 0x00, 0x80, 0x01, 0xF0, 
  0x00, 0x00, 0xC0, 0x00, 0xF0, 0x1F, 0x00, 0xE0, 0x00, 0xC0, 0x1F, 0x00, 
  0x60, 0x00, 0x00, 0x3F, 0x00, 0x70, 0x00, 0x00, 0xF0, 0xE0, 0x38, 0x00, 
  0x00, 0xE0, 0xFF, 0x3F, 0x00, 0x00, 0xC0, 0xFF, 0x0F, 0x00, 0x00, 0xE0, 
  0xFF, 0x07, 0x00, 0x00, 0xE0, 0xFF, 0x07, 0x00, 0x00, 0xC0, 0xFF, 0x03, 
  0x00, 0x00, 0xC0, 0xFF, 0x00, 0x00, 0x00, 0x80, 0x7F, 0x00, 0x00, 0x00, 
  0x00, 0xFE, 0x00, 0x00, 0x00, 0x00, 0xFE, 0x00, 0x00, 0x00, 0x00, 0x7C, 
  0x00, 0x00, 0x00, 0x00, 0x7C, 0x00, 0x00, 0x00, 0x00, 0x00, 0x00, 0x00, 
  };
