#define weather_forecast_night_haze_width 36
#define weather_forecast_night_haze_height 36
static unsigned char weather_forecast_night_haze_bits[] = {
   0x00, 0x00, 0x00, 0x00, 0x00, 0x00, 0x00, 0x00, 0x00, 0x00, 0x00, 0x00,
   0x00, 0x00, 0x00, 0x00, 0x00, 0x00, 0x00, 0x00, 0x00, 0x00, 0x00, 0x00,
   0x00, 0x00, 0x00, 0x00, 0x00, 0x00, 0x00, 0x00, 0x00, 0x00, 0x00, 0x00,
   0x00, 0x00, 0x00, 0x00, 0x00, 0x00, 0x00, 0x00, 0x00, 0x00, 0x00, 0x00,
   0x00, 0x00, 0x00, 0x00, 0x00, 0x00, 0x00, 0x00, 0x00, 0x0f, 0x00, 0x00,
   0x00, 0xe0, 0x7f, 0x00, 0x00, 0x00, 0xe0, 0x7f, 0x00, 0x00, 0x00, 0xf8,
   0xff, 0x01, 0x00, 0x00, 0xf8, 0xff, 0x01, 0x00, 0x00, 0xfe, 0xff, 0x07,
   0x00, 0x00, 0xfe, 0xff, 0x07, 0x00, 0x00, 0xff, 0xff, 0x0f, 0x00, 0x00,
   0xff, 0xff, 0x0f, 0x00, 0x00, 0xff, 0xff, 0x0f, 0x00, 0x00, 0xff, 0xff,
   0x0f, 0x00, 0x00, 0x00, 0x00, 0x00, 0x00, 0x00, 0x00, 0x00, 0x00, 0x00,
   0xc0, 0xff, 0x99, 0x3f, 0x00, 0xc0, 0xff, 0x99, 0x3f, 0x00, 0xc0, 0xff,
   0x99, 0x3f, 0x00, 0x00, 0x00, 0x00, 0x00, 0x00, 0x00, 0x00, 0x00, 0x00,
   0x00, 0x00, 0xf3, 0xe7, 0x03, 0x00, 0x00, 0xf3, 0xe7, 0x03, 0x00, 0x00,
   0xf3, 0xe7, 0x03, 0x00, 0x00, 0x00, 0x00, 0x00, 0x00, 0x00, 0x00, 0x00,
   0x00, 0x00, 0x00, 0x00, 0x00, 0x00, 0x00, 0x00, 0x00, 0x00, 0x00, 0x00 };
