#define weather_forecast_fog_width 22
#define weather_forecast_fog_height 22
static unsigned char weather_forecast_fog_bits[] = {
   0x00, 0x00, 0x00, 0x00, 0x00, 0x00, 0x00, 0x00, 0x00, 0x00, 0x1e, 0x00,
   0x00, 0x3f, 0x00, 0x80, 0x61, 0x00, 0xc0, 0xc0, 0x00, 0x60, 0xc0, 0x01,
   0x70, 0x80, 0x07, 0x18, 0x00, 0x0c, 0x08, 0x00, 0x08, 0x00, 0x00, 0x00,
   0xfc, 0xff, 0x0f, 0x00, 0x00, 0x00, 0x00, 0x00, 0x00, 0xff, 0xff, 0x03,
   0x00, 0x00, 0x00, 0x00, 0x00, 0x00, 0xf0, 0xff, 0x3f, 0x00, 0x00, 0x00,
   0x00, 0x00, 0x00, 0x00, 0x00, 0x00 };
