#define weather_forecast_day_rain_width 22
#define weather_forecast_day_rain_height 22
static unsigned char weather_forecast_day_rain_bits[] = {
   0x00, 0x20, 0x00, 0x00, 0x20, 0x00, 0x80, 0x20, 0x08, 0x00, 0x01, 0x04,
   0x00, 0x72, 0x02, 0x80, 0x89, 0x00, 0xe0, 0x07, 0x01, 0x30, 0x04, 0x02,
   0x18, 0x08, 0x3a, 0x1c, 0x08, 0x02, 0x0e, 0x70, 0x01, 0x03, 0x80, 0x00,
   0x01, 0x80, 0x02, 0x01, 0x80, 0x05, 0x43, 0x92, 0x09, 0x26, 0xc9, 0x00,
   0x2c, 0x69, 0x00, 0x20, 0x09, 0x00, 0x90, 0x04, 0x00, 0x90, 0x04, 0x00,
   0x90, 0x04, 0x00, 0x00, 0x00, 0x00 };
