#define weather_forecast_showers_width 22
#define weather_forecast_showers_height 22
static unsigned char weather_forecast_showers_bits[] = {
   0x00, 0x06, 0x00, 0x80, 0x3f, 0x00, 0xc0, 0x79, 0x00, 0x60, 0xe0, 0x00,
   0x70, 0xc0, 0x00, 0x30, 0xc0, 0x03, 0x3c, 0x80, 0x0f, 0x0e, 0x00, 0x1c,
   0x06, 0x00, 0x38, 0x03, 0x00, 0x30, 0x01, 0x00, 0x20, 0x03, 0x00, 0x30,
   0x02, 0x00, 0x10, 0x0c, 0x41, 0x18, 0x18, 0x49, 0x0c, 0x30, 0x08, 0x07,
   0x80, 0x20, 0x00, 0x80, 0x24, 0x00, 0x00, 0x04, 0x00, 0x40, 0x10, 0x00,
   0x40, 0x12, 0x00, 0x00, 0x02, 0x00 };
