<?xml version="1.0" encoding="UTF-8" standalone="no"?>
<!-- Generator: Adobe Illustrator 22.0.1, SVG Export Plug-In . SVG Version: 6.00 Build 0)  -->

<svg
   version="1.1"
   id="Layer_1"
   x="0px"
   y="0px"
   viewBox="0 0 36 36"
   xml:space="preserve"
   sodipodi:docname="weather_forecast_night_alt_cloudy_gusts.svg"
   width="36"
   height="36"
   inkscape:version="1.1.2 (0a00cf5339, 2022-02-04, custom)"
   xmlns:inkscape="http://www.inkscape.org/namespaces/inkscape"
   xmlns:sodipodi="http://sodipodi.sourceforge.net/DTD/sodipodi-0.dtd"
   xmlns="http://www.w3.org/2000/svg"
   xmlns:svg="http://www.w3.org/2000/svg"><defs
   id="defs7" /><sodipodi:namedview
   id="namedview5"
   pagecolor="#ffffff"
   bordercolor="#666666"
   borderopacity="1.0"
   inkscape:pageshadow="2"
   inkscape:pageopacity="0.0"
   inkscape:pagecheckerboard="0"
   showgrid="false"
   width="36px"
   inkscape:zoom="19.492577"
   inkscape:cx="14.980061"
   inkscape:cy="19.699807"
   inkscape:window-width="1920"
   inkscape:window-height="987"
   inkscape:window-x="0"
   inkscape:window-y="0"
   inkscape:window-maximized="1"
   inkscape:current-layer="Layer_1" />
<path
   d="m 0.3941975,26.19896 c 0,0.336743 0.131769,0.629563 0.395307,0.87846 0.248897,0.248897 0.541717,0.366025 0.893101,0.366025 H 10.08654 c 0.380666,0 0.717409,0.14641 1.010229,0.424589 0.29282,0.278179 0.43923,0.614922 0.43923,0.995588 0,0.395307 -0.14641,0.73205 -0.43923,1.010229 -0.29282,0.278179 -0.629563,0.424589 -1.010229,0.424589 -0.3806665,0 -0.7027685,-0.14641 -0.9955885,-0.43923 -0.263538,-0.234256 -0.556358,-0.351384 -0.893101,-0.351384 -0.351384,0 -0.644204,0.117128 -0.87846,0.351384 -0.234256,0.234256 -0.351384,0.527076 -0.351384,0.87846 0,0.322102 0.117128,0.614922 0.351384,0.87846 0.761332,0.775973 1.698356,1.156639 2.7671495,1.156639 1.068793,0 2.005817,-0.380666 2.767149,-1.141998 0.761332,-0.761332 1.141998,-1.683715 1.141998,-2.767149 0,-1.083434 -0.380666,-2.005817 -1.141998,-2.767149 -0.761332,-0.761332 -1.683715,-1.156639 -2.767149,-1.156639 H 1.6826055 c -0.351384,0 -0.644204,0.131769 -0.907742,0.380666 -0.248897,0.248897 -0.380666,0.541717 -0.380666,0.87846 z m 0,-4.421582 c 0,0.322102 0.131769,0.600281 0.395307,0.849178 0.248897,0.234256 0.556358,0.351384 0.893101,0.351384 H 17.56809 c 1.083434,0 2.005817,-0.380666 2.767149,-1.141998 0.761332,-0.761332 1.141998,-1.683715 1.141998,-2.752508 0,-1.083434 -0.380666,-1.991176 -1.141998,-2.752508 -0.761332,-0.761332 -1.683715,-1.127357 -2.767149,-1.127357 -1.112716,0 -2.035099,0.366025 -2.767149,1.112716 -0.219615,0.234256 -0.336743,0.527076 -0.336743,0.893101 0,0.366025 0.117128,0.658845 0.336743,0.87846 0.219615,0.219615 0.512435,0.336743 0.863819,0.336743 0.351384,0 0.644204,-0.102487 0.907742,-0.336743 0.278179,-0.278179 0.614922,-0.409948 0.995588,-0.409948 0.380667,0 0.702768,0.131769 0.980947,0.409948 0.27818,0.278179 0.424589,0.614922 0.424589,0.995588 0,0.380666 -0.146409,0.717409 -0.424589,0.995588 -0.278179,0.278179 -0.614922,0.424589 -0.980947,0.424589 H 1.6826055 c -0.351384,0 -0.644204,0.131769 -0.907742,0.380666 -0.248897,0.263538 -0.380666,0.556358 -0.380666,0.893101 z m 3.689532,-3.440635 c 0,0.131769 0.073205,0.190333 0.234256,0.190333 h 2.108304 c 0.117128,0 0.219615,-0.07321 0.322102,-0.219615 0.322102,-0.790614 0.834537,-1.449459 1.537305,-1.976535 0.688127,-0.512435 1.4641,-0.805255 2.3132785,-0.87846 l 0.761332,-0.102487 c 0.175692,0 0.278179,-0.08785 0.278179,-0.248897 l 0.117127,-0.761332 c 0.161052,-1.581228 0.834538,-2.913559 2.020458,-3.967711 1.185921,-1.068793 2.591457,-1.595869 4.187326,-1.595869 1.595869,0 3.001405,0.527076 4.172685,1.595869 1.185921,1.054152 1.859407,2.386483 2.020458,3.982352 l 0.102487,0.849178 c 0,0.175692 0.08785,0.263538 0.278179,0.263538 h 2.371842 c 1.332331,0 2.459688,0.468512 3.396713,1.390895 0.937024,0.922383 1.405535,2.035099 1.405535,3.338148 0,1.303049 -0.468511,2.415765 -1.405535,3.352789 -0.937025,0.937024 -2.064382,1.405536 -3.382071,1.405536 H 16.806758 c -0.161051,0 -0.248896,0.08785 -0.248896,0.263538 v 2.005817 c 0,0.161051 0.08785,0.248897 0.248896,0.248897 h 10.116931 c 1.303049,0 2.518252,-0.322102 3.630968,-0.980947 1.112716,-0.658845 1.991176,-1.537305 2.635381,-2.650021 0.644203,-1.112716 0.980947,-2.327919 0.980947,-3.630968 0,-1.288408 -0.336744,-2.503611 -0.995589,-3.630968 1.068793,-1.039511 1.800844,-2.298637 2.210791,-3.777378 l 0.175692,-1.010229 c 0.02928,-0.02928 0.04392,-0.05856 0.04392,-0.102487 0,-0.05856 -0.0732,-0.14641 -0.204974,-0.234256 l -0.87846,-0.307461 C 33.292524,10.767346 32.3555,10.108501 31.711296,9.156836 31.067092,8.205171 30.74499,7.224224 30.74499,6.199354 c 0,-0.351384 0.04392,-0.746691 0.131769,-1.156639 L 31.067092,4.134973 C 31.096374,3.988563 31.03781,3.871435 30.876759,3.812871 L 29.705479,3.461487 C 29.061275,3.300436 28.460994,3.227231 27.875354,3.227231 c -0.541717,0 -1.083434,0.058564 -1.639792,0.190333 -0.556358,0.131769 -1.127357,0.322102 -1.727638,0.600281 -0.58564,0.263538 -1.17128,0.658845 -1.727638,1.17128 -0.556358,0.512435 -1.054152,1.098075 -1.4641,1.786202 -1.039511,-0.43923 -2.166868,-0.658845 -3.396712,-0.658845 -2.064381,0 -3.894506,0.644204 -5.490375,1.917971 -1.595869,1.273767 -2.5914565,2.913559 -3.0306865,4.904735 -1.259126,0.29282 -2.357201,0.893101 -3.323507,1.800843 -0.966306,0.907742 -1.625151,1.976535 -1.991176,3.22102 v 0.04392 c 0.014641,0.02928 0,0.07321 0,0.131769 z"
   id="path2"
   style="stroke-width:1.4641"
   sodipodi:nodetypes="scsssssscssscsssssscsscsssssscssscsssssscsssscccccccscccsssssssssssssscccsccssccccsscscsscsccss" />
</svg>
