<?xml version="1.0" encoding="UTF-8" standalone="no"?>
<!-- Generator: Adobe Illustrator 22.0.1, SVG Export Plug-In . SVG Version: 6.00 Build 0)  -->

<svg
   version="1.1"
   id="Layer_1"
   x="0px"
   y="0px"
   viewBox="0 0 36 36"
   xml:space="preserve"
   sodipodi:docname="weather_forecast_night_alt_cloudy_windy.svg"
   width="36"
   height="36"
   inkscape:version="1.1.2 (0a00cf5339, 2022-02-04, custom)"
   xmlns:inkscape="http://www.inkscape.org/namespaces/inkscape"
   xmlns:sodipodi="http://sodipodi.sourceforge.net/DTD/sodipodi-0.dtd"
   xmlns="http://www.w3.org/2000/svg"
   xmlns:svg="http://www.w3.org/2000/svg"><defs
   id="defs7" /><sodipodi:namedview
   id="namedview5"
   pagecolor="#ffffff"
   bordercolor="#666666"
   borderopacity="1.0"
   inkscape:pageshadow="2"
   inkscape:pageopacity="0.0"
   inkscape:pagecheckerboard="0"
   showgrid="false"
   width="36px"
   inkscape:zoom="18.879751"
   inkscape:cx="14.989604"
   inkscape:cy="17.637944"
   inkscape:window-width="1920"
   inkscape:window-height="987"
   inkscape:window-x="0"
   inkscape:window-y="0"
   inkscape:window-maximized="1"
   inkscape:current-layer="Layer_1" />
<path
   d="m 0.307017,26.217594 c 0,0.335412 0.111804,0.600946 0.3493875,0.824554 0.2375835,0.223608 0.531069,0.321437 0.8804565,0.321437 h 13.13697 c 0.335412,0 0.600947,-0.111804 0.824555,-0.321437 0.223608,-0.223608 0.321436,-0.489142 0.321436,-0.824554 0,-0.349388 -0.111804,-0.628898 -0.321436,-0.852506 -0.223609,-0.223608 -0.489143,-0.335412 -0.824555,-0.335412 H 1.536861 c -0.3493875,0 -0.642873,0.111804 -0.8804565,0.335412 C 0.418821,25.588696 0.307017,25.868206 0.307017,26.217594 Z m 3.6755565,-4.262528 c 0,0.335413 0.1257795,0.614923 0.363363,0.838531 0.223608,0.237583 0.503118,0.349387 0.83853,0.349387 H 18.349387 c 0.321437,0 0.600947,-0.111804 0.824555,-0.349387 0.223608,-0.237584 0.335412,-0.517094 0.335412,-0.838531 0,-0.321436 -0.111804,-0.600946 -0.321437,-0.824554 C 18.978285,20.906904 18.698775,20.7951 18.363363,20.7951 H 5.198442 c -0.335412,0 -0.614922,0.111804 -0.8525055,0.335412 -0.2375835,0.223608 -0.363363,0.503118 -0.363363,0.824554 z M 5.4360255,18.6848 c 0,0.125779 0.083853,0.195657 0.251559,0.195657 H 7.686081 c 0.1257795,0 0.223608,-0.06988 0.307461,-0.195657 0.3214365,-0.754677 0.7966035,-1.383575 1.453452,-1.886693 0.656849,-0.503118 1.383575,-0.782628 2.208129,-0.83853 l 0.768653,-0.09783 c 0.167706,0 0.251559,-0.08385 0.251559,-0.237584 l 0.09783,-0.726726 c 0.153731,-1.523329 0.796604,-2.7951 1.928619,-3.801336 1.145991,-1.020211 2.473664,-1.5233295 4.010969,-1.5233295 1.523329,0 2.851002,0.5031185 3.969042,1.5093545 1.11804,1.006236 1.774888,2.264031 1.970545,3.78736 l 0.111804,0.810579 c 0,0.153731 0.08385,0.237584 0.251559,0.237584 h 2.250056 c 1.27177,0 2.347884,0.447216 3.242316,1.341648 0.894432,0.894432 1.341648,1.970545 1.341648,3.22834 0,1.229844 -0.447216,2.305958 -1.355624,3.20039 -0.908407,0.908407 -1.970545,1.355623 -3.214365,1.355623 h -9.65707 c -0.153731,0 -0.237584,0.08385 -0.237584,0.237584 v 1.872717 c 0,0.15373 0.08385,0.237583 0.237584,0.237583 h 9.65707 c 1.257795,0 2.417762,-0.307461 3.479899,-0.922383 1.062139,-0.614922 1.914644,-1.453452 2.529566,-2.51559 0.614922,-1.062138 0.936359,-2.222104 0.936359,-3.4799 0,-1.257794 -0.307461,-2.403786 -0.908408,-3.451948 1.006236,-0.894432 1.705011,-2.096325 2.110301,-3.605679 L 35.67901,12.4657 c 0.01397,-0.01398 0.01397,-0.04193 0.01397,-0.09783 0,-0.111804 -0.06988,-0.181682 -0.209633,-0.223608 L 34.616869,11.836805 C 34.001947,11.655123 33.456903,11.389589 32.995712,11.040201 32.520545,10.690814 32.157181,10.2995 31.877672,9.866259 31.598162,9.4330185 31.402505,8.999778 31.26275,8.552562 31.122995,8.105346 31.053117,7.6721055 31.053117,7.2248895 c 0,-0.335412 0.0559,-0.7407015 0.153731,-1.2158685 l 0.181681,-0.8525055 c 0.0559,-0.1257795 0,-0.2375835 -0.181681,-0.3214365 L 30.032906,4.4856915 c -0.614922,-0.1537305 -1.187918,-0.223608 -1.746938,-0.223608 -0.531069,0 -1.048162,0.055902 -1.579231,0.1816815 -0.531069,0.1257795 -1.076114,0.307461 -1.649109,0.5729955 -0.572996,0.251559 -1.11804,0.6288975 -1.649109,1.11804 -0.53107,0.4891425 -0.992261,1.0481625 -1.383575,1.705011 -1.076113,-0.447216 -2.194153,-0.670824 -3.312193,-0.670824 -1.970546,0 -3.717483,0.614922 -5.240813,1.844766 -1.523329,1.2298435 -2.487639,2.7950995 -2.906904,4.7237185 -1.2158685,0.27951 -2.2780065,0.852506 -3.186414,1.705011 -0.9084075,0.866481 -1.5512805,1.886693 -1.900668,3.088586 v 0.04193 c -0.027951,0.01398 -0.041926,0.0559 -0.041926,0.111805 z M 6.456237,30.549999 c 0,0.335412 0.111804,0.614922 0.3493875,0.83853 0.223608,0.237584 0.503118,0.349388 0.83853,0.349388 H 20.823051 c 0.335412,0 0.614922,-0.111804 0.852506,-0.349388 0.237583,-0.237583 0.349387,-0.517093 0.349387,-0.83853 0,-0.321436 -0.111804,-0.600946 -0.349387,-0.824554 -0.237584,-0.223608 -0.517094,-0.335412 -0.852506,-0.335412 H 7.6441545 c -0.335412,0 -0.614922,0.111804 -0.83853,0.335412 C 6.568041,29.949053 6.456237,30.228563 6.456237,30.549999 Z"
   id="path2"
   style="stroke-width:1.39755"
   sodipodi:nodetypes="sssscscssssscssssssssscsscscccccssccsssscssssssssscccscccsssccccsscscssccccccscssssssscs" />
</svg>
