#define weather_forecast_day_scattered_clouds_width 18
#define weather_forecast_day_scattered_clouds_height 18
static unsigned char weather_forecast_day_scattered_clouds_bits[] = {
   0x00, 0x00, 0x00, 0x00, 0x00, 0x00, 0x00, 0x00, 0x00, 0x80, 0x03, 0x00,
   0x60, 0x0c, 0x00, 0x10, 0x10, 0x00, 0x10, 0x10, 0x00, 0x0c, 0xe0, 0x00,
   0x02, 0x00, 0x01, 0x02, 0x00, 0x01, 0x02, 0x00, 0x01, 0x02, 0x00, 0x01,
   0x02, 0x00, 0x01, 0x04, 0x80, 0x00, 0xf8, 0x7f, 0x00, 0x00, 0x00, 0x00,
   0x00, 0x00, 0x00, 0x00, 0x00, 0x00 };
