#define weather_forecast_night_rain_width 18
#define weather_forecast_night_rain_height 18
static unsigned char weather_forecast_night_rain_bits[] = {
   0x08, 0x20, 0x00, 0x08, 0x70, 0x00, 0x3e, 0xa0, 0x00, 0x08, 0x82, 0x00,
   0x08, 0xc2, 0x01, 0x80, 0xef, 0x03, 0x00, 0xe2, 0x03, 0x10, 0xc2, 0x01,
   0x10, 0x00, 0x00, 0x10, 0x40, 0x00, 0xfe, 0x40, 0x00, 0x10, 0xe0, 0x00,
   0x10, 0xe0, 0x00, 0x10, 0xf0, 0x01, 0x80, 0xf8, 0x03, 0x82, 0xf8, 0x03,
   0xc7, 0xf9, 0x03, 0xc2, 0xf1, 0x01 };
