#define weather_forecast_day_few_clouds_width 18
#define weather_forecast_day_few_clouds_height 18
static unsigned char weather_forecast_day_few_clouds_bits[] = {
   0x00, 0x02, 0x00, 0x08, 0x82, 0x00, 0x10, 0x42, 0x00, 0x20, 0x22, 0x00,
   0x40, 0x10, 0x00, 0x00, 0x07, 0x00, 0xe0, 0x1f, 0x00, 0x90, 0x3f, 0x00,
   0x08, 0xbf, 0x03, 0x0c, 0x3e, 0x00, 0x06, 0x3c, 0x00, 0x03, 0x30, 0x00,
   0x01, 0xa0, 0x00, 0x01, 0x30, 0x01, 0x02, 0x18, 0x02, 0xfc, 0x0f, 0x00,
   0x00, 0x02, 0x00, 0x00, 0x02, 0x00 };
