#define weather_forecast_day_thunderstorm_width 18
#define weather_forecast_day_thunderstorm_height 18
static unsigned char weather_forecast_day_thunderstorm_bits[] = {
   0x00, 0x00, 0x00, 0x00, 0x80, 0x03, 0x00, 0xc0, 0x03, 0xe0, 0xe7, 0x01,
   0xf0, 0xf3, 0x00, 0xf8, 0xf9, 0x03, 0xfc, 0xc0, 0x01, 0x7e, 0xe0, 0x00,
   0xff, 0x63, 0x00, 0xff, 0x31, 0x00, 0xf0, 0x10, 0x00, 0x70, 0x00, 0x00,
   0x30, 0x00, 0x00, 0x38, 0x00, 0x00, 0x18, 0x00, 0x00, 0x08, 0x00, 0x00,
   0x08, 0x00, 0x00, 0x00, 0x00, 0x00 };
