#define time_timer_width 24
#define time_timer_height 28
static char time_timer_bits[] = {
  0x00, 0x00, 0x00, 0x00, 0x3F, 0x00, 0x00, 0x3F, 0x00, 0x00, 0x3F, 0x00, 
  0x00, 0x3F, 0x00, 0x00, 0x1E, 0x00, 0x00, 0x00, 0x00, 0x00, 0x1E, 0x10, 
  0xC0, 0xFF, 0x38, 0xE0, 0xFF, 0x79, 0xF0, 0x80, 0x33, 0x38, 0x38, 0x07, 
  0x1C, 0xF8, 0x0E, 0x0C, 0xF8, 0x0D, 0x0C, 0xF8, 0x1D, 0x0E, 0xF8, 0x1B, 
  0x06, 0xF8, 0x1B, 0x06, 0xF8, 0x1B, 0x0E, 0xF0, 0x1B, 0x0E, 0xC0, 0x1D, 
  0x0C, 0x80, 0x1D, 0x1C, 0x00, 0x0C, 0x18, 0x00, 0x0E, 0x78, 0x00, 0x07, 
  0xF0, 0xC0, 0x03, 0xC0, 0xFF, 0x01, 0x80, 0x7F, 0x00, 0x00, 0x00, 0x00, 
  };
