#define time_wait_width 18
#define time_wait_height 18
static char time_wait_bits[] = {
  0xF0, 0x23, 0x00, 0xF8, 0x7F, 0x00, 0x08, 0x60, 0x00, 0x18, 0x20, 0x00, 
  0x10, 0x30, 0x00, 0xE0, 0x1F, 0x00, 0xC0, 0x0F, 0x00, 0x80, 0x03, 0x00, 
  0x00, 0x03, 0x00, 0x00, 0x03, 0x00, 0x80, 0x07, 0x00, 0xC0, 0x0C, 0x00, 
  0x30, 0x10, 0x00, 0x10, 0x20, 0x00, 0x18, 0x60, 0x00, 0xF8, 0x7F, 0x00, 
  0xF8, 0x7F, 0x00, 0xF8, 0x7F, 0x00, };
