#define time_calendar_width 18
#define time_calendar_height 18
static char time_calendar_bits[] = {
  0x00, 0x00, 0x00, 0xFF, 0xFF, 0x03, 0xFF, 0xFF, 0x03, 0xFF, 0xFF, 0x03, 
  0xEF, 0xDF, 0x03, 0x08, 0x40, 0x00, 0x01, 0x00, 0x02, 0x29, 0x54, 0x02, 
  0xA9, 0x54, 0x02, 0x21, 0x14, 0x02, 0xA9, 0x54, 0x02, 0x01, 0x00, 0x02, 
  0xA9, 0xD4, 0x02, 0x01, 0x00, 0x02, 0xA9, 0xD5, 0x02, 0x01, 0x00, 0x02, 
  0xFF, 0xFF, 0x03, 0x00, 0x00, 0x00, };
