#define weather_forecast_night_alt_sleet_storm_width 36
#define weather_forecast_night_alt_sleet_storm_height 36
static unsigned char weather_forecast_night_alt_sleet_storm_bits[] = {
   0x00, 0x00, 0x80, 0x07, 0x00, 0x00, 0x00, 0xe0, 0x07, 0x00, 0x00, 0x00,
   0xf0, 0x07, 0x00, 0x00, 0x00, 0xf8, 0x0f, 0x00, 0x00, 0x00, 0xf8, 0x0f,
   0x00, 0x00, 0xe0, 0xfd, 0x1f, 0x00, 0x00, 0xf8, 0xfd, 0x1f, 0x00, 0x00,
   0xfe, 0xff, 0x3f, 0x00, 0x00, 0x1e, 0xf0, 0x7f, 0x00, 0x00, 0x07, 0xe0,
   0xff, 0x01, 0x80, 0x03, 0xc0, 0xff, 0x0f, 0x80, 0x03, 0xc0, 0xff, 0x0f,
   0xc0, 0x01, 0x80, 0xff, 0x0f, 0xf0, 0x01, 0x80, 0xff, 0x0f, 0xf8, 0x01,
   0x80, 0xff, 0x07, 0x3c, 0x00, 0x00, 0xf0, 0x07, 0x1e, 0x00, 0x00, 0xc0,
   0x03, 0x0e, 0x00, 0x00, 0xc0, 0x01, 0x07, 0x00, 0x00, 0x80, 0x00, 0x0f,
   0x00, 0x00, 0x80, 0x01, 0x0f, 0xf8, 0x00, 0xc0, 0x01, 0x1e, 0xfc, 0x30,
   0xc0, 0x01, 0x3c, 0x7c, 0x30, 0xe0, 0x00, 0x38, 0x3e, 0x00, 0xec, 0x00,
   0x70, 0x9e, 0x01, 0x6e, 0x00, 0x60, 0xcf, 0x01, 0x06, 0x00, 0x00, 0xc7,
   0x30, 0x00, 0x00, 0x80, 0x1f, 0x38, 0x06, 0x00, 0xc0, 0x1f, 0x18, 0x06,
   0x00, 0x00, 0x8e, 0x01, 0x00, 0x00, 0x00, 0x86, 0x01, 0x00, 0x00, 0x00,
   0x03, 0x30, 0x00, 0x00, 0x00, 0x01, 0x30, 0x06, 0x00, 0x00, 0x01, 0x00,
   0x07, 0x00, 0x00, 0x80, 0x01, 0x03, 0x00, 0x00, 0x80, 0x01, 0x00, 0x00 };
