#define weather_forecast_night_storm_light_rain_width 36
#define weather_forecast_night_storm_light_rain_height 36
static unsigned char weather_forecast_night_storm_light_rain_bits[] = {
   0x00, 0x00, 0x00, 0x1f, 0x00, 0x00, 0x00, 0xc0, 0x7f, 0x00, 0x00, 0x00,
   0xf0, 0xff, 0x01, 0x00, 0xf0, 0xfb, 0xff, 0x03, 0x00, 0xfc, 0xff, 0xff,
   0x07, 0x00, 0x7e, 0xfc, 0xff, 0x07, 0x00, 0x0f, 0xf8, 0xff, 0x0f, 0x00,
   0x07, 0xf8, 0xff, 0x0f, 0x80, 0x03, 0xe0, 0xff, 0x0f, 0x80, 0x03, 0xc0,
   0xff, 0x0f, 0xc0, 0x03, 0xc0, 0xff, 0x0f, 0xf0, 0x01, 0x80, 0xff, 0x0f,
   0xf8, 0x01, 0x80, 0xff, 0x0f, 0x3c, 0x00, 0x80, 0xff, 0x0f, 0x1e, 0x00,
   0x00, 0xf0, 0x0f, 0x0e, 0x00, 0x00, 0xc0, 0x07, 0x0f, 0x00, 0x00, 0x80,
   0x07, 0x07, 0x00, 0x00, 0x80, 0x03, 0x03, 0x00, 0x00, 0x80, 0x01, 0x03,
   0x00, 0x00, 0x80, 0x00, 0x07, 0x7c, 0x00, 0x80, 0x01, 0x0e, 0x7e, 0x00,
   0xc0, 0x03, 0x1c, 0x3e, 0x30, 0xe0, 0x03, 0x18, 0x1f, 0x38, 0xf0, 0x03,
   0x30, 0x0f, 0x18, 0x78, 0x00, 0xa0, 0x07, 0x00, 0x1e, 0x00, 0x80, 0x83,
   0x01, 0x07, 0x00, 0xc0, 0xcf, 0x01, 0x03, 0x00, 0xe0, 0xcf, 0x00, 0x00,
   0x00, 0x00, 0x07, 0x00, 0x00, 0x00, 0x00, 0x03, 0x30, 0x00, 0x00, 0x80,
   0x01, 0x38, 0x00, 0x00, 0x80, 0x00, 0x18, 0x00, 0x00, 0x80, 0x00, 0x00,
   0x00, 0x00, 0x00, 0x80, 0x01, 0x06, 0x00, 0x00, 0xc0, 0x01, 0x07, 0x00 };
