#define weather_forecast_lightning_width 36
#define weather_forecast_lightning_height 36
static char weather_forecast_lightning_bits[] = {
  0x00, 0x00, 0x00, 0x00, 0x00, 0x00, 0xC0, 0x0F, 0x00, 0x00, 0x00, 0xF0, 
  0x3F, 0x00, 0x00, 0x00, 0xFC, 0x7F, 0x00, 0x00, 0x00, 0x3E, 0xF0, 0x00, 
  0x00, 0x00, 0x0E, 0xE0, 0x01, 0x00, 0x00, 0x07, 0xC0, 0x03, 0x00, 0x00, 
  0x07, 0x80, 0x03, 0x00, 0x80, 0x03, 0x80, 0x0F, 0x00, 0xE0, 0x03, 0x00, 
  0x7F, 0x00, 0xF0, 0x03, 0x00, 0xFF, 0x00, 0x78, 0x00, 0x00, 0xE0, 0x01, 
  0x3C, 0x00, 0x00, 0xC0, 0x03, 0x1C, 0x00, 0x00, 0x80, 0x03, 0x0E, 0x00, 
  0x00, 0x00, 0x03, 0x0E, 0x00, 0x00, 0x00, 0x07, 0x0E, 0x00, 0x00, 0x00, 
  0x07, 0x0E, 0x00, 0x00, 0x00, 0x07, 0x1C, 0x00, 0x1E, 0x80, 0x03, 0x1C, 
  0x00, 0x1E, 0x80, 0x03, 0x3C, 0x00, 0x0F, 0xC0, 0x03, 0xF8, 0x00, 0x0F, 
  0xF0, 0x01, 0xF0, 0x81, 0x07, 0xF8, 0x00, 0xC0, 0x81, 0x07, 0x38, 0x00, 
  0x00, 0x80, 0x1F, 0x00, 0x00, 0x00, 0xC0, 0x1F, 0x00, 0x00, 0x00, 0x00, 
  0x0E, 0x00, 0x00, 0x00, 0x00, 0x06, 0x00, 0x00, 0x00, 0x00, 0x07, 0x00, 
  0x00, 0x00, 0x00, 0x03, 0x00, 0x00, 0x00, 0x00, 0x01, 0x00, 0x00, 0x00, 
  0x80, 0x01, 0x00, 0x00, 0x00, 0x80, 0x00, 0x00, 0x00, 0x00, 0x40, 0x00, 
  0x00, 0x00, 0x00, 0x00, 0x00, 0x00, 0x00, 0x00, 0x00, 0x00, 0x00, 0x00, 
  };
