#define weather_forecast_thunderstorm_width 36
#define weather_forecast_thunderstorm_height 36
static unsigned char weather_forecast_thunderstorm_bits[] = {
   0x00, 0x00, 0x00, 0x00, 0x00, 0x00, 0xe0, 0x0f, 0x00, 0x00, 0x00, 0xf8,
   0x3f, 0x00, 0x00, 0x00, 0xfc, 0xff, 0x00, 0x00, 0x00, 0x3e, 0xf0, 0x01,
   0x00, 0x00, 0x0f, 0xc0, 0x01, 0x00, 0x00, 0x07, 0x80, 0x03, 0x00, 0x80,
   0x03, 0x80, 0x03, 0x00, 0x80, 0x03, 0x00, 0x07, 0x00, 0xe0, 0x03, 0x00,
   0x7f, 0x00, 0xf8, 0x03, 0x00, 0xff, 0x01, 0x7c, 0x00, 0x00, 0xe0, 0x03,
   0x3c, 0x00, 0x00, 0xc0, 0x03, 0x1e, 0x00, 0x00, 0x80, 0x07, 0x0e, 0x00,
   0x00, 0x00, 0x07, 0x0e, 0x00, 0x00, 0x00, 0x07, 0x0e, 0x00, 0x00, 0x00,
   0x07, 0x0e, 0x00, 0x00, 0x00, 0x07, 0x0e, 0x00, 0x00, 0x00, 0x07, 0x0e,
   0xf0, 0x01, 0x00, 0x07, 0x1c, 0xf8, 0xcd, 0x8c, 0x03, 0x3c, 0xf8, 0xcc,
   0xcc, 0x03, 0x78, 0x7c, 0xcc, 0xec, 0x01, 0xf0, 0x3c, 0x66, 0xf6, 0x00,
   0xc0, 0x1e, 0x66, 0x36, 0x00, 0x00, 0x0e, 0x33, 0x03, 0x00, 0x00, 0x3f,
   0x33, 0x03, 0x00, 0x80, 0x3f, 0x33, 0x03, 0x00, 0x00, 0x9c, 0x99, 0x01,
   0x00, 0x00, 0x8c, 0x99, 0x01, 0x00, 0x00, 0x86, 0x99, 0x01, 0x00, 0x00,
   0x82, 0x99, 0x01, 0x00, 0x00, 0xc2, 0xcc, 0x00, 0x00, 0x00, 0xc0, 0xcc,
   0x00, 0x00, 0x00, 0x00, 0x00, 0x00, 0x00, 0x00, 0x00, 0x00, 0x00, 0x00 };
