#define weather_forecast_night_thunderstorm_heavy_drizzle_width 36
#define weather_forecast_night_thunderstorm_heavy_drizzle_height 36
static unsigned char weather_forecast_night_thunderstorm_heavy_drizzle_bits[] = {
   0x00, 0x00, 0x00, 0x1f, 0x00, 0x00, 0x00, 0xc0, 0x7f, 0x00, 0x00, 0x00,
   0xf0, 0xff, 0x01, 0x00, 0xf0, 0xfb, 0xff, 0x03, 0x00, 0xfc, 0xff, 0xff,
   0x07, 0x00, 0x3e, 0xfc, 0xff, 0x07, 0x00, 0x0f, 0xf0, 0xff, 0x0f, 0x00,
   0x07, 0xe0, 0xff, 0x0f, 0x80, 0x03, 0xe0, 0xff, 0x0f, 0x80, 0x03, 0xc0,
   0xff, 0x0f, 0xc0, 0x03, 0xc0, 0xff, 0x0f, 0xf0, 0x01, 0xc0, 0xff, 0x0f,
   0xf8, 0x01, 0x00, 0xf8, 0x0f, 0x3c, 0x00, 0x00, 0xe0, 0x0f, 0x1e, 0x00,
   0x00, 0xc0, 0x0f, 0x0e, 0x00, 0x00, 0x80, 0x07, 0x07, 0x00, 0x00, 0x80,
   0x07, 0x03, 0x00, 0x00, 0x80, 0x03, 0x03, 0x00, 0x00, 0x80, 0x01, 0x03,
   0x00, 0x00, 0x80, 0x00, 0x07, 0xf8, 0x00, 0x80, 0x01, 0x0f, 0xfc, 0x66,
   0xc6, 0x03, 0x1e, 0x7c, 0x66, 0xc6, 0x03, 0x3c, 0x3e, 0x00, 0xf0, 0x03,
   0x78, 0x1e, 0x33, 0x7b, 0x00, 0x70, 0x0f, 0x33, 0x3b, 0x00, 0x00, 0x87,
   0x99, 0x01, 0x00, 0x80, 0x9f, 0x99, 0x01, 0x00, 0xc0, 0x9f, 0x99, 0x01,
   0x00, 0x00, 0xce, 0xcc, 0x00, 0x00, 0x00, 0xc6, 0xcc, 0x00, 0x00, 0x00,
   0xc3, 0xcc, 0x00, 0x00, 0x00, 0x01, 0x00, 0x00, 0x00, 0x00, 0x61, 0x66,
   0x00, 0x00, 0x00, 0x60, 0x66, 0x00, 0x00, 0x00, 0x00, 0x00, 0x00, 0x00 };
