#define weather_forecast_day_snow_thunderstorm_width 36
#define weather_forecast_day_snow_thunderstorm_height 36
static unsigned char weather_forecast_day_snow_thunderstorm_bits[] = {
   0x00, 0x00, 0x60, 0x00, 0x00, 0x00, 0x00, 0x60, 0x00, 0x00, 0x00, 0x00,
   0x60, 0x00, 0x00, 0x00, 0x18, 0x60, 0x80, 0x01, 0x00, 0x38, 0x60, 0xc0,
   0x01, 0x00, 0x70, 0x00, 0xe0, 0x00, 0x00, 0x60, 0x00, 0x60, 0x00, 0x00,
   0x00, 0xf8, 0x00, 0x00, 0x00, 0x00, 0xfc, 0x03, 0x00, 0x00, 0xfc, 0x07,
   0x07, 0x00, 0x00, 0xff, 0x03, 0x0c, 0x00, 0x80, 0x07, 0x07, 0x0c, 0x00,
   0xc0, 0x01, 0x06, 0x18, 0x00, 0xc0, 0x00, 0x0c, 0x98, 0x0f, 0xe0, 0x00,
   0x1c, 0x98, 0x0f, 0x70, 0x00, 0x38, 0x18, 0x00, 0x7c, 0x00, 0xf8, 0x0c,
   0x00, 0x1e, 0x00, 0x80, 0x0f, 0x00, 0x0e, 0x00, 0x00, 0x07, 0x00, 0x07,
   0x00, 0x00, 0x02, 0x00, 0x03, 0x00, 0x00, 0x06, 0x00, 0x03, 0x3e, 0x00,
   0x6e, 0x00, 0x03, 0x3f, 0x0c, 0xee, 0x00, 0x07, 0x1f, 0x0c, 0xce, 0x01,
   0x8e, 0x0f, 0x00, 0x87, 0x01, 0x9e, 0x67, 0x00, 0x03, 0x00, 0xdc, 0x63,
   0x80, 0x01, 0x00, 0xc0, 0x01, 0x0c, 0x00, 0x00, 0xe0, 0x07, 0x0c, 0x00,
   0x00, 0xf0, 0x07, 0x80, 0x01, 0x00, 0x80, 0x63, 0x80, 0x01, 0x00, 0x80,
   0x61, 0x00, 0x00, 0x00, 0xc0, 0x00, 0x0c, 0x00, 0x00, 0x40, 0x00, 0x0c,
   0x00, 0x00, 0x40, 0x00, 0x80, 0x01, 0x00, 0x00, 0x60, 0x80, 0x01, 0x00 };
