#define weather_forecast_day_thunderstorm_width 36
#define weather_forecast_day_thunderstorm_height 36
static unsigned char weather_forecast_day_thunderstorm_bits[] = {
   0x00, 0x00, 0x60, 0x00, 0x00, 0x00, 0x00, 0x60, 0x00, 0x00, 0x00, 0x00,
   0x60, 0x00, 0x00, 0x00, 0x18, 0x60, 0x80, 0x01, 0x00, 0x38, 0x60, 0xc0,
   0x01, 0x00, 0x70, 0x00, 0xe0, 0x00, 0x00, 0x60, 0x00, 0x60, 0x00, 0x00,
   0x00, 0xf8, 0x00, 0x00, 0x00, 0x00, 0xfc, 0x03, 0x00, 0x00, 0xfc, 0x07,
   0x07, 0x00, 0x00, 0xff, 0x03, 0x0c, 0x00, 0x80, 0x07, 0x07, 0x0c, 0x00,
   0xc0, 0x01, 0x06, 0x18, 0x00, 0xc0, 0x00, 0x0c, 0x98, 0x0f, 0xe0, 0x00,
   0x1c, 0x98, 0x0f, 0x70, 0x00, 0x38, 0x18, 0x00, 0x78, 0x00, 0xf8, 0x0c,
   0x00, 0x3c, 0x00, 0x80, 0x0f, 0x00, 0x0e, 0x00, 0x00, 0x07, 0x00, 0x07,
   0x00, 0x00, 0x02, 0x00, 0x07, 0x00, 0x00, 0x06, 0x00, 0x03, 0x3e, 0x00,
   0x6e, 0x00, 0x03, 0xbf, 0x19, 0xee, 0x00, 0x07, 0x9f, 0x19, 0xc6, 0x01,
   0x8e, 0x8f, 0x19, 0x87, 0x01, 0x9e, 0xc7, 0x8c, 0x03, 0x00, 0xdc, 0xc3,
   0x8c, 0x03, 0x00, 0xc0, 0x61, 0x06, 0x00, 0x00, 0xe0, 0x67, 0x66, 0x00,
   0x00, 0xf0, 0x67, 0x66, 0x00, 0x00, 0x80, 0x33, 0x33, 0x00, 0x00, 0x80,
   0x31, 0x33, 0x00, 0x00, 0xc0, 0x30, 0x33, 0x00, 0x00, 0x40, 0x30, 0x33,
   0x00, 0x00, 0x40, 0x98, 0x19, 0x00, 0x00, 0x00, 0x00, 0x00, 0x00, 0x00 };
