<?xml version="1.0" encoding="UTF-8" standalone="no"?>
<!-- Generator: Adobe Illustrator 22.0.1, SVG Export Plug-In . SVG Version: 6.00 Build 0)  -->

<svg
   version="1.1"
   id="Layer_1"
   x="0px"
   y="0px"
   viewBox="0 0 36 36"
   xml:space="preserve"
   sodipodi:docname="weather_forecast_night_alt_rain_mix.svg"
   width="36"
   height="36"
   inkscape:version="1.1.2 (0a00cf5339, 2022-02-04, custom)"
   xmlns:inkscape="http://www.inkscape.org/namespaces/inkscape"
   xmlns:sodipodi="http://sodipodi.sourceforge.net/DTD/sodipodi-0.dtd"
   xmlns="http://www.w3.org/2000/svg"
   xmlns:svg="http://www.w3.org/2000/svg"><defs
   id="defs7" /><sodipodi:namedview
   id="namedview5"
   pagecolor="#ffffff"
   bordercolor="#666666"
   borderopacity="1.0"
   inkscape:pageshadow="2"
   inkscape:pageopacity="0.0"
   inkscape:pagecheckerboard="0"
   showgrid="false"
   width="36px"
   inkscape:zoom="13.35"
   inkscape:cx="14.981273"
   inkscape:cy="14.981273"
   inkscape:window-width="1920"
   inkscape:window-height="987"
   inkscape:window-x="0"
   inkscape:window-y="0"
   inkscape:window-maximized="1"
   inkscape:current-layer="Layer_1" />
<path
   d="m 1.1972565,18.468878 c 0,2.044615 0.7225334,3.797143 2.152227,5.272956 1.4296937,1.475814 3.1822214,2.259838 5.226837,2.32133 0.1844766,0 0.2767149,-0.09224 0.2767149,-0.261342 v -2.059988 c 0,-0.169104 -0.092238,-0.261342 -0.2767149,-0.261342 C 7.2696113,23.419 6.1473786,22.880943 5.2249956,21.897068 4.3026126,20.913193 3.8260481,19.760214 3.8260481,18.468878 c 0,-1.30671 0.4304454,-2.444315 1.3067092,-3.397444 0.8762639,-0.95313 1.9523774,-1.491186 3.2283405,-1.598798 l 0.8147717,-0.107611 c 0.1998496,0 0.307461,-0.09224 0.307461,-0.276715 L 9.5909418,12.304285 C 9.7600454,10.613249 10.451833,9.198929 11.69705,8.0766963 c 1.245217,-1.1222326 2.705656,-1.6910355 4.396692,-1.6910355 1.675662,0 3.136102,0.5688029 4.396692,1.6910355 1.26059,1.1222327 1.983124,2.5211797 2.152227,4.1814687 l 0.107612,0.876264 c 0,0.184477 0.09224,0.292088 0.261341,0.292088 h 2.490435 c 1.398947,0 2.582672,0.491938 3.58192,1.491186 0.999248,0.983875 1.491186,2.1676 1.491186,3.551175 0,0.845517 -0.215223,1.644916 -0.630295,2.398196 -0.415072,0.75328 -0.999248,1.368201 -1.737155,1.844766 -0.737906,0.476565 -1.537305,0.737907 -2.398195,0.784026 -0.19985,0 -0.307461,0.09223 -0.307461,0.261342 v 2.059987 c 0,0.169104 0.107611,0.261342 0.307461,0.261342 1.352828,-0.03074 2.598045,-0.399699 3.720278,-1.091486 1.122232,-0.691787 2.013869,-1.61417 2.659537,-2.767149 0.645668,-1.152979 0.968502,-2.398196 0.968502,-3.735651 0,-1.352829 -0.35358,-2.644165 -1.045367,-3.858636 1.275963,-1.137606 2.090735,-2.490434 2.428942,-4.027739 l 0.215223,-1.0453669 c 0.03074,-0.030746 0.04612,-0.061492 0.04612,-0.1076113 0,-0.092238 -0.09224,-0.1691036 -0.261342,-0.2459688 L 33.695881,8.9222141 C 32.819617,8.6608722 32.050965,8.2304268 31.436043,7.6155048 30.805748,7.0005828 30.359929,6.3702878 30.098587,5.6938736 29.837246,5.0328324 29.698888,4.3717913 29.698888,3.7107501 29.668144,3.3879161 29.71426,2.9574707 29.837245,2.45016 l 0.19985,-0.8916369 c 0.06149,-0.1537305 0,-0.2767149 -0.199849,-0.3535801 L 28.607402,0.83598976 C 27.977106,0.66688621 27.316065,0.57464791 26.624278,0.57464791 c -0.55343,0 -1.137606,0.0614922 -1.721782,0.19984965 -0.584175,0.13835745 -1.199097,0.33820714 -1.829392,0.63029504 -0.630296,0.292088 -1.245218,0.7071603 -1.844766,1.2452171 -0.599549,0.5380567 -1.10686,1.1683518 -1.537305,1.8908851 -1.245218,-0.4765645 -2.459688,-0.7071603 -3.612667,-0.7071603 -2.1676,0 -4.104605,0.6764142 -5.780267,2.0292426 -1.6756625,1.3528284 -2.767149,3.07461 -3.2437136,5.1807169 -1.7217816,0.445819 -3.1361022,1.352829 -4.2275887,2.72103 -1.0914866,1.337456 -1.6295433,2.92088 -1.6295433,4.704154 z m 8.3168201,10.838 c 0,0.261342 0.076865,0.522684 0.2459688,0.784025 0.1691035,0.261342 0.4150726,0.430446 0.7225336,0.538057 0.35358,0.107611 0.676414,0.09224 0.983875,-0.06149 0.307461,-0.15373 0.491938,-0.430445 0.599549,-0.860891 l 0.215223,-0.937756 c 0.07687,-0.35358 0.03074,-0.676414 -0.138358,-0.968502 -0.169103,-0.307461 -0.430445,-0.507311 -0.799398,-0.614922 -0.353581,-0.107611 -0.676415,-0.06149 -0.983876,0.122986 -0.307461,0.184475 -0.5226834,0.46119 -0.6149217,0.81477 L 9.5448227,29.01479 c -0.030746,0.06149 -0.030746,0.15373 -0.030746,0.292088 z m 1.1683514,-4.458185 c 0,0.322834 0.122985,0.614922 0.384327,0.876264 0.245968,0.261342 0.522683,0.384326 0.86089,0.384326 0.368954,0 0.676415,-0.122984 0.922383,-0.368953 0.245969,-0.245969 0.368954,-0.538057 0.368954,-0.90701 0,-0.35358 -0.122985,-0.661041 -0.368954,-0.90701 -0.245968,-0.245968 -0.553429,-0.368953 -0.922383,-0.368953 -0.35358,0 -0.661041,0.122985 -0.891636,0.35358 -0.230596,0.230596 -0.353581,0.584176 -0.353581,0.937756 z m 0.937756,-3.489682 c -0.01537,0.245969 0.04612,0.476565 0.215223,0.691787 0.153731,0.230596 0.399699,0.384326 0.737907,0.491938 0.322834,0.09224 0.630295,0.06149 0.953129,-0.107612 0.322834,-0.169103 0.522683,-0.430445 0.630295,-0.784025 l 0.430445,-1.383575 c 0.107611,-0.368953 0.07686,-0.70716 -0.107611,-0.999248 -0.184477,-0.292088 -0.461192,-0.491937 -0.830145,-0.599549 -0.338207,-0.107611 -0.661041,-0.07686 -0.968502,0.107612 -0.307461,0.169103 -0.522684,0.430445 -0.630295,0.768653 l -0.368953,1.414321 c 0,0.03074 -0.01537,0.09224 -0.03074,0.184476 -0.03074,0.07687 -0.03074,0.153731 -0.03074,0.215222 z m 1.783274,12.744258 c 0,0.276715 0.07686,0.522684 0.230596,0.768653 0.15373,0.245969 0.399699,0.415072 0.737906,0.507311 0.122985,0.03074 0.261342,0.04612 0.384327,0.04612 0.661041,0 1.06074,-0.307461 1.214471,-0.937756 l 0.215222,-0.90701 c 0.09224,-0.3997 0.04612,-0.737907 -0.122984,-1.045368 -0.169104,-0.307461 -0.445819,-0.491937 -0.799399,-0.568803 -0.322834,-0.107611 -0.645668,-0.07687 -0.968502,0.107612 -0.322834,0.184476 -0.522684,0.445818 -0.630295,0.784025 l -0.215223,0.90701 c -0.03074,0.138358 -0.04612,0.245969 -0.04612,0.338207 z m 1.199098,-4.458184 c 0,0.338207 0.122985,0.630295 0.384326,0.891637 0.245969,0.245969 0.538057,0.368953 0.876264,0.368953 0.368953,0 0.661041,-0.122984 0.90701,-0.35358 0.245969,-0.245969 0.35358,-0.538057 0.35358,-0.90701 0,-0.35358 -0.122984,-0.645668 -0.35358,-0.891637 -0.230596,-0.245968 -0.538057,-0.35358 -0.90701,-0.35358 -0.368953,0 -0.661041,0.122984 -0.90701,0.35358 -0.230595,0.230596 -0.35358,0.538057 -0.35358,0.891637 z m 0.968502,-3.489682 c -0.01537,0.230595 0.04612,0.476564 0.19985,0.722533 0.15373,0.245969 0.384326,0.399699 0.691787,0.461191 0.35358,0.09224 0.676414,0.06149 0.983875,-0.09224 0.292088,-0.153731 0.507311,-0.445819 0.630295,-0.860891 l 0.415073,-1.383574 c 0.107611,-0.338207 0.07686,-0.661042 -0.107612,-0.968503 -0.184476,-0.307461 -0.445818,-0.50731 -0.814771,-0.614922 -0.338207,-0.107611 -0.661041,-0.06149 -0.983875,0.122985 -0.322834,0.184476 -0.522684,0.461191 -0.630295,0.814772 l -0.338208,1.383574 c -0.03074,0.122985 -0.04612,0.261342 -0.04612,0.415072 z m 4.227589,3.305205 c 0,0.245969 0.07686,0.491939 0.230596,0.737907 0.15373,0.245969 0.399699,0.415072 0.70716,0.50731 0.04612,0 0.122984,0.01537 0.215223,0.03074 0.09224,0.01537 0.15373,0.03074 0.215222,0.03074 0.630296,0 1.014622,-0.338207 1.168352,-1.014621 l 0.215223,-0.922383 c 0.107611,-0.322833 0.07687,-0.645668 -0.107611,-0.968502 -0.169104,-0.322833 -0.430446,-0.522684 -0.784026,-0.630295 -0.384326,-0.09224 -0.737906,-0.06149 -1.045367,0.122984 -0.307461,0.184478 -0.522684,0.44582 -0.630295,0.814773 l -0.138358,0.907013 c 0,0.03074 -0.01537,0.107611 -0.03074,0.184478 0,0.07686 -0.01537,0.138356 -0.01537,0.199848 z m 1.137606,-4.550422 c 0,0.338207 0.122984,0.645668 0.384326,0.876263 0.230596,0.245969 0.522684,0.368954 0.876264,0.368954 0.368953,0 0.661041,-0.122985 0.90701,-0.353581 0.245969,-0.230595 0.35358,-0.538056 0.35358,-0.891636 0,-0.368954 -0.122984,-0.661042 -0.35358,-0.90701 -0.230596,-0.245968 -0.538057,-0.353581 -0.90701,-0.353581 -0.368953,0 -0.661041,0.122985 -0.90701,0.353581 -0.245969,0.230595 -0.35358,0.538056 -0.35358,0.90701 z m 0.937756,-3.551175 c 0,0.261342 0.07687,0.507311 0.245969,0.737906 0.169103,0.230596 0.415072,0.3997 0.753279,0.491938 0.03074,0 0.09224,0.01537 0.184477,0.03074 0.09224,0.01537 0.169103,0.03074 0.215222,0.03074 0.153731,0 0.338207,-0.04612 0.55343,-0.138357 0.322834,-0.169104 0.538057,-0.445819 0.630295,-0.799399 l 0.368953,-1.383575 c 0.09224,-0.35358 0.06149,-0.676414 -0.122984,-0.968502 -0.169104,-0.307461 -0.430445,-0.50731 -0.784026,-0.614922 -0.35358,-0.107611 -0.676414,-0.07687 -0.983875,0.09224 -0.307461,0.169103 -0.491937,0.415072 -0.599549,0.784025 l -0.430445,1.398948 c 0,0.03074 -0.01537,0.09224 -0.03074,0.184476 0.01537,0.04612 0,0.107612 0,0.15373 z"
   id="path2"
   style="stroke-width:1.5373"
   sodipodi:nodetypes="sscsscsssccccsssccsscssscsscssscccscccccccccsssscssccsssscsccccsccsscssssssscccsccccccccccsscsccscsccssssscssscsssccccscsccsscscssccccscccccscssssssssscssccccsccccss" />
</svg>
