<?xml version="1.0" encoding="UTF-8" standalone="no"?>
<!-- Generator: Adobe Illustrator 22.0.1, SVG Export Plug-In . SVG Version: 6.00 Build 0)  -->

<svg
   version="1.1"
   id="Layer_1"
   x="0px"
   y="0px"
   viewBox="0 0 36 36"
   xml:space="preserve"
   sodipodi:docname="weather_forecast_night_rain.svg"
   width="36"
   height="36"
   inkscape:version="1.1.2 (0a00cf5339, 2022-02-04, custom)"
   xmlns:inkscape="http://www.inkscape.org/namespaces/inkscape"
   xmlns:sodipodi="http://sodipodi.sourceforge.net/DTD/sodipodi-0.dtd"
   xmlns="http://www.w3.org/2000/svg"
   xmlns:svg="http://www.w3.org/2000/svg"><defs
   id="defs7" /><sodipodi:namedview
   id="namedview5"
   pagecolor="#ffffff"
   bordercolor="#666666"
   borderopacity="1.0"
   inkscape:pageshadow="2"
   inkscape:pageopacity="0.0"
   inkscape:pagecheckerboard="0"
   showgrid="false"
   width="36px"
   inkscape:zoom="18.879751"
   inkscape:cx="14.989604"
   inkscape:cy="19.438816"
   inkscape:window-width="1920"
   inkscape:window-height="987"
   inkscape:window-x="0"
   inkscape:window-y="0"
   inkscape:window-maximized="1"
   inkscape:current-layer="Layer_1" />
<path
   d="m 0.67896473,18.048315 c 0,1.062937 0.1932612,2.061453 0.61199377,3.027759 0.4187326,0.966306 0.9502009,1.787666 1.6427202,2.496291 0.6925193,0.692519 1.5138794,1.272303 2.4640803,1.691035 0.9502009,0.418733 1.9487171,0.676414 3.0116537,0.72473 0.1771561,0 0.2737867,-0.09664 0.2737867,-0.273787 V 23.55626 c 0,-0.177157 -0.096631,-0.273787 -0.2737867,-0.273787 C 7.008269,23.185838 5.8325967,22.622164 4.8823958,21.623648 3.9321949,20.625131 3.4490419,19.417249 3.4490419,18.048315 c 0,-1.352828 0.4509428,-2.5285 1.3689335,-3.527017 0.9179907,-0.998516 2.0292426,-1.562194 3.382071,-1.67493 l 0.8535703,-0.09663 c 0.2093658,0 0.3221015,-0.09664 0.3221015,-0.305997 l 0.096635,-0.82136 C 9.6495093,9.8669202 10.374239,8.4174612 11.678753,7.257894 c 1.304513,-1.1595672 2.834498,-1.7393508 4.606059,-1.7393508 1.755455,0 3.301545,0.5797836 4.589953,1.7232457 1.304513,1.1595672 2.045348,2.5929211 2.222504,4.3322721 l 0.112736,0.934096 c 0,0.193261 0.09664,0.289891 0.305996,0.289891 h 2.576816 c 1.449459,0 2.689552,0.515364 3.736384,1.54609 1.046831,1.030726 1.562194,2.254714 1.562194,3.688068 0,1.385038 -0.483153,2.576816 -1.433354,3.575332 -0.9502,0.998516 -2.141978,1.562195 -3.527016,1.658825 -0.209367,0 -0.322102,0.09664 -0.322102,0.273787 v 2.158084 c 0,0.177156 0.112735,0.273786 0.322102,0.273786 2.158083,-0.09663 3.977959,-0.91799 5.459628,-2.43187 1.48167,-1.529984 2.222504,-3.365966 2.222504,-5.507944 0,-1.159567 -0.225471,-2.222504 -0.676414,-3.204915 1.256198,-1.513879 1.884297,-3.317651 1.884297,-5.4113136 0,-1.5138794 -0.370418,-2.9150231 -1.127357,-4.2195362 C 33.436739,3.8919325 32.406012,2.8612061 31.117604,2.1042664 29.829196,1.3473267 28.411947,0.9608043 26.898068,0.9608043 c -2.512396,0 -4.589953,0.9340958 -6.248779,2.7861823 -1.417249,-0.6925193 -2.866708,-1.0468315 -4.348377,-1.0468315 -2.270819,0 -4.283956,0.7086244 -6.039412,2.1258732 -1.7554567,1.4172488 -2.8828137,3.22102 -3.3820718,5.4435237 -1.771561,0.418733 -3.2371251,1.336723 -4.3966923,2.786182 -1.2239876,1.497775 -1.80377117,3.140495 -1.80377117,4.992581 z M 9.5206652,28.806522 c 0,0.644204 0.3543122,1.062937 1.0468308,1.256198 0.338207,0.112736 0.676414,0.08053 1.014621,-0.09663 0.338207,-0.177156 0.563678,-0.450943 0.66031,-0.805255 l 2.415765,-9.228222 c 0.09664,-0.354312 0.04831,-0.69252 -0.144947,-1.014622 -0.19326,-0.322102 -0.483152,-0.531468 -0.869675,-0.644204 -0.354313,-0.112735 -0.69252,-0.08052 -1.014622,0.112736 -0.322102,0.193261 -0.531468,0.467048 -0.628099,0.837465 L 9.5850845,28.40389 c -0.048312,0.177156 -0.064416,0.305997 -0.064416,0.402628 z m 4.1712208,4.912056 c 0,0.193261 0.04831,0.386522 0.128841,0.595888 0.161051,0.338208 0.434838,0.563679 0.82136,0.69252 0.03221,0 0.09663,0 0.161051,0.0161 0.06442,0.0161 0.128841,0.0161 0.177156,0.0161 h 0.144946 c 0.692519,0 1.095147,-0.354313 1.223986,-1.062937 L 20.053401,19.9004 c 0.112735,-0.354313 0.08052,-0.69252 -0.09664,-1.014622 -0.177155,-0.322102 -0.450942,-0.531468 -0.805255,-0.644204 -0.386523,-0.112735 -0.756939,-0.08053 -1.095147,0.112736 -0.338207,0.193261 -0.531469,0.467048 -0.611994,0.837465 l -3.720278,14.091963 c -0.0161,0.161051 -0.03221,0.305997 -0.03221,0.434837 z m 6.699722,-4.928161 c 0,0.257682 0.08053,0.499258 0.257681,0.75694 0.177156,0.257681 0.418733,0.418732 0.724729,0.515363 0.09663,0.03221 0.225472,0.04831 0.370417,0.04831 0.273787,0 0.531468,-0.08052 0.789151,-0.225471 0.257682,-0.144946 0.418733,-0.386523 0.515363,-0.72473 l 2.415765,-9.228222 c 0.128841,-0.338207 0.08052,-0.660309 -0.112736,-0.998516 -0.193261,-0.338207 -0.467047,-0.547574 -0.837465,-0.660309 -0.386522,-0.112736 -0.740834,-0.08052 -1.062936,0.112735 -0.322102,0.193261 -0.515364,0.467048 -0.579784,0.837465 l -2.415765,9.179907 c -0.04831,0.177157 -0.06442,0.305997 -0.06442,0.386523 z"
   id="path2"
   style="stroke-width:1.61051"
   sodipodi:nodetypes="sscscsscsssccccsscccssssscssccscsssscssccsscsccscsccsscccsssccscsccccsscssccscsccss" />
</svg>
