<?xml version="1.0" encoding="UTF-8" standalone="no"?>
<!-- Generator: Adobe Illustrator 22.0.1, SVG Export Plug-In . SVG Version: 6.00 Build 0)  -->

<svg
   version="1.1"
   id="Layer_1"
   x="0px"
   y="0px"
   viewBox="0 0 36 36"
   xml:space="preserve"
   sodipodi:docname="weather_forecast_day_rain.svg"
   width="36"
   height="36"
   inkscape:version="1.1.1 (3bf5ae0d25, 2021-09-20, custom)"
   xmlns:inkscape="http://www.inkscape.org/namespaces/inkscape"
   xmlns:sodipodi="http://sodipodi.sourceforge.net/DTD/sodipodi-0.dtd"
   xmlns="http://www.w3.org/2000/svg"
   xmlns:svg="http://www.w3.org/2000/svg"><defs
   id="defs7" /><sodipodi:namedview
   id="namedview5"
   pagecolor="#ffffff"
   bordercolor="#666666"
   borderopacity="1.0"
   inkscape:pageshadow="2"
   inkscape:pageopacity="0.0"
   inkscape:pagecheckerboard="0"
   showgrid="false"
   inkscape:zoom="19.492577"
   inkscape:cx="14.980061"
   inkscape:cy="18.160759"
   inkscape:window-width="1920"
   inkscape:window-height="987"
   inkscape:window-x="0"
   inkscape:window-y="0"
   inkscape:window-maximized="1"
   inkscape:current-layer="Layer_1" />
<path
   d="m 0.04481,21.480565 c 0,1.77023 0.61226,3.30088 1.85009,4.57864 1.23783,1.27776 2.74186,1.95657 4.53871,2.03643 0.14641,0 0.22627,-0.07986 0.22627,-0.22627 v -1.78354 c 0,-0.14641 -0.07986,-0.22627 -0.22627,-0.22627 -1.14466,-0.05324 -2.11629,-0.51909 -2.91489,-1.37093 -0.7986,-0.85184 -1.1979,-1.8634 -1.1979,-3.00806 0,-1.09142 0.37268,-2.04974 1.13135,-2.87496 0.75867,-0.82522 1.69037,-1.29107 2.7951,-1.42417 l 0.70543,-0.06655 c 0.17303,0 0.2662,-0.07986 0.2662,-0.22627 l 0.09317,-0.71874 c 0.14641,-1.43748 0.74536,-2.64869 1.82347,-3.62032 1.07811,-0.97163 2.34256,-1.4641 3.79335,-1.4641 1.45079,0 2.71524,0.49247 3.80666,1.4641 1.09142,0.97163 1.70368,2.18284 1.8634,3.62032 l 0.09317,0.75867 c 0,0.15972 0.07986,0.25289 0.22627,0.25289 h 2.15622 c 1.18459,0 2.19615,0.42592 3.0613,1.27776 0.86515,0.85184 1.29107,1.85009 1.29107,3.02137 0,1.15797 -0.3993,2.15622 -1.1979,3.00806 -0.7986,0.85184 -1.77023,1.30438 -2.90158,1.37093 -0.15972,0 -0.25289,0.07986 -0.25289,0.22627 v 1.78354 c 0,0.14641 0.07986,0.22627 0.25289,0.22627 1.77023,-0.05324 3.27426,-0.73205 4.51209,-2.00981 1.23783,-1.29107 1.85009,-2.82172 1.85009,-4.59195 0,-0.95832 -0.18634,-1.85009 -0.55902,-2.67531 1.03818,-1.29107 1.55727,-2.75517 1.55727,-4.40561 0,-1.26445 -0.31944,-2.43573 -0.94501,-3.51384 -0.62557,-1.07811 -1.47741,-1.92995 -2.55552,-2.55552 -1.07811,-0.62557 -2.23608,-0.9317 -3.48722,-0.9317 -2.07636,0 -3.79335,0.77198 -5.16428,2.31594 -1.09142,-0.58564 -2.28932,-0.87846 -3.60701,-0.87846 -1.87671,0 -3.55377,0.58564 -5.00456,1.75692 -1.45079,1.17128 -2.38249,2.662 -2.7951,4.47216 -1.47741,0.34606 -2.68862,1.11804 -3.64694,2.31594 -0.95832,1.1979 -1.43748,2.55552 -1.43748,4.08617 z m 7.1874,9.13066 c 0,0.22627 0.06655,0.43923 0.21296,0.65219 0.14641,0.21296 0.35937,0.35937 0.65219,0.43923 0.14641,0.02662 0.2662,0.05324 0.35937,0.05324 0.51909,0 0.86515,-0.27951 1.02487,-0.85184 l 2.10298,-7.82628 c 0.09317,-0.31944 0.05324,-0.61226 -0.10648,-0.89177 -0.15972,-0.27951 -0.3993,-0.43923 -0.70543,-0.50578 -0.29282,-0.09317 -0.57233,-0.06655 -0.83853,0.09317 -0.2662,0.14641 -0.45254,0.37268 -0.54571,0.67881 l -2.10298,7.86621 c -0.02662,0.17303 -0.05324,0.2662 -0.05324,0.29282 z m 3.47391,4.09948 c 0,0.25289 0.06655,0.47916 0.19965,0.69212 0.1331,0.21296 0.35937,0.34606 0.69212,0.3993 0.14641,0.02662 0.2662,0.05324 0.34606,0.05324 0.21296,0 0.41261,-0.07986 0.59895,-0.22627 0.18634,-0.15972 0.30613,-0.37268 0.35937,-0.63888 l 3.1944,-11.88583 c 0.07986,-0.30613 0.05324,-0.59895 -0.09317,-0.85184 -0.14641,-0.25289 -0.37268,-0.43923 -0.6655,-0.5324 -0.30613,-0.09317 -0.59895,-0.06655 -0.86515,0.09317 -0.2662,0.14641 -0.45254,0.37268 -0.5324,0.67881 l -3.1944,11.88583 c -0.02662,0.19965 -0.03993,0.31944 -0.03993,0.33275 z m 0.55902,-29.58813 c 0,0.31944 0.10648,0.58564 0.33275,0.81191 l 0.86515,0.87846 c 0.25289,0.19965 0.5324,0.29282 0.82522,0.29282 0.27951,0 0.54571,-0.10648 0.77198,-0.30613 0.22627,-0.21296 0.34606,-0.46585 0.34606,-0.78529 0,-0.31944 -0.10648,-0.61226 -0.31944,-0.85184 l -0.85184,-0.86515 c -0.23958,-0.22627 -0.50578,-0.33275 -0.7986,-0.33275 -0.31944,0 -0.59895,0.11979 -0.82522,0.34606 -0.22627,0.22627 -0.34606,0.50578 -0.34606,0.81191 z m 4.96463,25.51527 c 0,0.21296 0.06655,0.42592 0.19965,0.62557 0.1331,0.19965 0.34606,0.34606 0.61226,0.42592 0.14641,0.02662 0.2662,0.05324 0.33275,0.05324 0.22627,0 0.45254,-0.06655 0.65219,-0.19965 0.19965,-0.1331 0.33275,-0.34606 0.3993,-0.65219 l 2.10298,-7.82628 c 0.07986,-0.30613 0.05324,-0.59895 -0.09317,-0.85184 -0.14641,-0.2662 -0.37268,-0.43923 -0.6655,-0.5324 -0.31944,-0.09317 -0.59895,-0.06655 -0.86515,0.09317 -0.2662,0.14641 -0.43923,0.37268 -0.51909,0.67881 l -2.10298,7.86621 c -0.02662,0.19965 -0.05324,0.30613 -0.05324,0.31944 z m 2.16953,-19.61894 c 0.94501,-0.89177 2.03643,-1.331 3.30088,-1.331 1.30438,0 2.42242,0.46585 3.3275,1.38424 0.91839,0.91839 1.37093,2.03643 1.37093,3.35412 0,0.82522 -0.22627,1.65044 -0.69212,2.46235 -1.29107,-1.29107 -2.83503,-1.92995 -4.64519,-1.92995 h -0.43923 c -0.35937,-1.57058 -1.10473,-2.87496 -2.22277,-3.93976 z m 2.15622,-6.98775 c 0,0.30613 0.10648,0.57233 0.33275,0.78529 0.22627,0.21296 0.49247,0.31944 0.81191,0.31944 0.30613,0 0.57233,-0.10648 0.78529,-0.30613 0.21296,-0.21296 0.31944,-0.46585 0.31944,-0.78529 v -2.74186 c 0,-0.34606 -0.10648,-0.62557 -0.30613,-0.83853 -0.21296,-0.21296 -0.46585,-0.31944 -0.78529,-0.31944 -0.33275,0 -0.61226,0.10648 -0.82522,0.33275 -0.21296,0.22627 -0.31944,0.49247 -0.31944,0.82522 v 2.72855 z m 7.36043,3.03468 c 0,0.31944 0.11979,0.58564 0.35937,0.78529 0.18634,0.21296 0.42592,0.31944 0.73205,0.34606 0.30613,0.02662 0.58564,-0.09317 0.82522,-0.34606 l 1.91664,-1.90333 c 0.23958,-0.22627 0.34606,-0.50578 0.34606,-0.83853 0,-0.31944 -0.10648,-0.59895 -0.33275,-0.81191 -0.22627,-0.21296 -0.49247,-0.31944 -0.81191,-0.31944 -0.27951,0 -0.5324,0.10648 -0.77198,0.33275 l -1.90333,1.91664 c -0.23958,0.22627 -0.35937,0.50578 -0.35937,0.83853 z m 1.07811,15.77235 c 0,0.31944 0.10648,0.59895 0.31944,0.83853 l 0.86515,0.83853 c 0.23958,0.18634 0.50578,0.27951 0.7986,0.27951 l 0.02662,0.02662 c 0.30613,0 0.55902,-0.10648 0.77198,-0.31944 0.21296,-0.21296 0.31944,-0.49247 0.31944,-0.81191 0,-0.31944 -0.11979,-0.57233 -0.34606,-0.77198 l -0.82522,-0.87846 c -0.23958,-0.21296 -0.51909,-0.31944 -0.82522,-0.31944 -0.30613,0 -0.57233,0.10648 -0.78529,0.33275 -0.21296,0.22627 -0.31944,0.46585 -0.31944,0.78529 z m 1.94326,-8.42523 c 0,0.31944 0.11979,0.57233 0.34606,0.78529 0.23958,0.23958 0.50578,0.34606 0.82522,0.34606 h 2.70193 c 0.31944,0 0.58564,-0.10648 0.81191,-0.33275 0.22627,-0.22627 0.33275,-0.49247 0.33275,-0.7986 0,-0.31944 -0.10648,-0.58564 -0.33275,-0.81191 -0.22627,-0.22627 -0.49247,-0.34606 -0.81191,-0.34606 H 32.1086 c -0.31944,0 -0.58564,0.11979 -0.82522,0.34606 -0.23958,0.22627 -0.34606,0.49247 -0.34606,0.81191 z"
   id="path2"
   style="stroke-width:1.331" />
</svg>
