<?xml version="1.0" encoding="UTF-8" standalone="no"?>
<!-- Generator: Adobe Illustrator 22.0.1, SVG Export Plug-In . SVG Version: 6.00 Build 0)  -->

<svg
   version="1.1"
   id="Layer_1"
   x="0px"
   y="0px"
   viewBox="0 0 18 18"
   xml:space="preserve"
   sodipodi:docname="moon-north-waning-crescent-6.svg"
   width="18"
   height="18"
   inkscape:version="1.1.1 (3bf5ae0d25, 2021-09-20, custom)"
   xmlns:inkscape="http://www.inkscape.org/namespaces/inkscape"
   xmlns:sodipodi="http://sodipodi.sourceforge.net/DTD/sodipodi-0.dtd"
   xmlns="http://www.w3.org/2000/svg"
   xmlns:svg="http://www.w3.org/2000/svg"><defs
   id="defs7" /><sodipodi:namedview
   id="namedview5"
   pagecolor="#ffffff"
   bordercolor="#666666"
   borderopacity="1.0"
   inkscape:pageshadow="2"
   inkscape:pageopacity="0.0"
   inkscape:pagecheckerboard="0"
   showgrid="false"
   height="18px"
   inkscape:zoom="26.7"
   inkscape:cx="14.981273"
   inkscape:cy="15.018727"
   inkscape:window-width="1920"
   inkscape:window-height="987"
   inkscape:window-x="0"
   inkscape:window-y="0"
   inkscape:window-maximized="1"
   inkscape:current-layer="Layer_1" />
<path
   d="m 0.795105,8.996355 c 0,-1.10808 0.2187,-2.17242 0.64881,-3.18573 0.43011,-1.01331 1.0206,-1.88082 1.7496,-2.61711 0.729,-0.73629 1.6038,-1.31949 2.61711,-1.7496 1.01331,-0.43011 2.07036,-0.64881 3.18573,-0.64881 1.11537,0 2.17242,0.2187 3.18573,0.64881 1.01331,0.43011 1.88811,1.0206 2.6244,1.7496 0.73629,0.729 1.31949,1.6038 1.7496,2.61711 0.43011,1.01331 0.64881,2.07036 0.64881,3.18573 0,1.11537 -0.2187,2.17242 -0.64881,3.18573 -0.43011,1.01331 -1.0206,1.88811 -1.7496,2.6244 -0.729,0.73629 -1.6038,1.31949 -2.6244,1.7496 -1.0206,0.43011 -2.07765,0.64881 -3.18573,0.64881 -1.10808,0 -2.17242,-0.2187 -3.18573,-0.64881 -1.01331,-0.43011 -1.88082,-1.0206 -2.61711,-1.7496 -0.73629,-0.729 -1.31949,-1.6038 -1.7496,-2.6244 -0.43011,-1.0206 -0.64881,-2.07036 -0.64881,-3.18573 z m 0.8748,0 c 0,1.80792 0.5832,3.39714 1.75689,4.76037 1.17369,1.36323 2.63898,2.19429 4.39587,2.48589 -0.73629,-0.3645 -1.35594,-0.8019 -1.86624,-1.32678 -0.5103,-0.52488 -0.91125,-1.0935 -1.18827,-1.72773 -0.27702,-0.63423 -0.48114,-1.29033 -0.60507,-1.9683 -0.12393,-0.67797 -0.18954,-1.42155 -0.18954,-2.23074 0,-1.53819 0.3645,-2.95974 1.08621,-4.25736 0.72171,-1.29762 1.72773,-2.30364 3.00348,-3.00348 -1.18827,0.15309 -2.26719,0.56133 -3.24405,1.2393 -0.97686,0.67797 -1.74231,1.55277 -2.30364,2.61711 -0.56133,1.06434 -0.84564,2.19429 -0.84564,3.41172 z"
   id="path2"
   style="stroke-width:0.729" />
</svg>
