<?xml version="1.0" encoding="UTF-8" standalone="no"?>
<!-- Generator: Adobe Illustrator 22.0.1, SVG Export Plug-In . SVG Version: 6.00 Build 0)  -->

<svg
   version="1.1"
   id="Layer_1"
   x="0px"
   y="0px"
   viewBox="0 0 18 18"
   xml:space="preserve"
   sodipodi:docname="moon-north-waxing-gibbous-3.svg"
   width="18"
   height="18"
   inkscape:version="1.1.1 (3bf5ae0d25, 2021-09-20, custom)"
   xmlns:inkscape="http://www.inkscape.org/namespaces/inkscape"
   xmlns:sodipodi="http://sodipodi.sourceforge.net/DTD/sodipodi-0.dtd"
   xmlns="http://www.w3.org/2000/svg"
   xmlns:svg="http://www.w3.org/2000/svg"><defs
   id="defs7" /><sodipodi:namedview
   id="namedview5"
   pagecolor="#ffffff"
   bordercolor="#666666"
   borderopacity="1.0"
   inkscape:pageshadow="2"
   inkscape:pageopacity="0.0"
   inkscape:pagecheckerboard="0"
   showgrid="false"
   height="18px"
   inkscape:zoom="26.7"
   inkscape:cx="14.981273"
   inkscape:cy="15.018727"
   inkscape:window-width="1920"
   inkscape:window-height="987"
   inkscape:window-x="0"
   inkscape:window-y="0"
   inkscape:window-maximized="1"
   inkscape:current-layer="Layer_1" />
<path
   d="m 0.795105,8.996355 c 0,-1.47987 0.3645,-2.85039 1.10079,-4.11156 0.73629,-1.26117 1.72773,-2.2599 2.9889,-2.9889 1.26117,-0.729 2.63169,-1.10079 4.11156,-1.10079 1.10808,0 2.17242,0.2187 3.18573,0.64881 1.01331,0.43011 1.88811,1.0206 2.6244,1.7496 0.73629,0.729 1.31949,1.6038 1.7496,2.61711 0.43011,1.01331 0.64881,2.07036 0.64881,3.18573 0,1.11537 -0.2187,2.17242 -0.64881,3.18573 -0.43011,1.01331 -1.0206,1.88811 -1.7496,2.6244 -0.729,0.73629 -1.6038,1.31949 -2.6244,1.7496 -1.0206,0.43011 -2.07765,0.64881 -3.18573,0.64881 -1.10808,0 -2.17242,-0.2187 -3.18573,-0.64881 -1.01331,-0.43011 -1.88811,-1.0206 -2.61711,-1.7496 -0.729,-0.729 -1.3122,-1.6038 -1.7496,-2.6244 -0.4374,-1.0206 -0.64881,-2.07036 -0.64881,-3.18573 z m 4.9572,0 c 0,3.23676 0.85293,5.67162 2.5515,7.30458 0.05103,0 0.12393,0 0.2187,0.0073 0.09477,0.0073 0.18225,0.01458 0.25515,0.01458 0.0729,0 0.1458,0.0073 0.2187,0.0073 0.99144,0 1.93914,-0.19683 2.8431,-0.5832 0.90396,-0.38637 1.69128,-0.91125 2.34738,-1.56735 0.6561,-0.6561 1.17369,-1.43613 1.56735,-2.34009 0.39366,-0.90396 0.5832,-1.85166 0.5832,-2.85039 0,-0.99144 -0.19683,-1.93914 -0.5832,-2.8431 -0.38637,-0.90396 -0.91125,-1.68399 -1.56735,-2.34009 -0.6561,-0.6561 -1.43613,-1.17369 -2.34738,-1.56735 -0.91125,-0.39366 -1.85895,-0.5832 -2.8431,-0.5832 -0.26244,0 -0.45927,0.00729 -0.59049,0.02187 -0.78732,0.88938 -1.42884,1.96101 -1.92456,3.22218 -0.49572,1.26117 -0.729,2.63169 -0.729,4.09698 z"
   id="path2"
   style="stroke-width:0.729" />
</svg>
