<?xml version="1.0" encoding="UTF-8" standalone="no"?>
<!-- Generator: Adobe Illustrator 22.0.1, SVG Export Plug-In . SVG Version: 6.00 Build 0)  -->

<svg
   version="1.1"
   id="Layer_1"
   x="0px"
   y="0px"
   viewBox="0 0 18 18"
   xml:space="preserve"
   sodipodi:docname="moon-north-waning-gibbous-2.svg"
   width="18"
   height="18"
   inkscape:version="1.1.1 (3bf5ae0d25, 2021-09-20, custom)"
   xmlns:inkscape="http://www.inkscape.org/namespaces/inkscape"
   xmlns:sodipodi="http://sodipodi.sourceforge.net/DTD/sodipodi-0.dtd"
   xmlns="http://www.w3.org/2000/svg"
   xmlns:svg="http://www.w3.org/2000/svg"><defs
   id="defs7" /><sodipodi:namedview
   id="namedview5"
   pagecolor="#ffffff"
   bordercolor="#666666"
   borderopacity="1.0"
   inkscape:pageshadow="2"
   inkscape:pageopacity="0.0"
   inkscape:pagecheckerboard="0"
   showgrid="false"
   height="18px"
   inkscape:zoom="26.7"
   inkscape:cx="14.981273"
   inkscape:cy="15.018727"
   inkscape:window-width="1920"
   inkscape:window-height="987"
   inkscape:window-x="0"
   inkscape:window-y="0"
   inkscape:window-maximized="1"
   inkscape:current-layer="Layer_1" />
<path
   d="m 0.795105,8.996355 c 0,-1.10808 0.2187,-2.17242 0.64881,-3.18573 0.43011,-1.01331 1.0206,-1.88082 1.7496,-2.61711 0.729,-0.73629 1.6038,-1.31949 2.61711,-1.7496 1.01331,-0.43011 2.07036,-0.64881 3.18573,-0.64881 1.11537,0 2.17242,0.2187 3.18573,0.64881 1.01331,0.43011 1.88811,1.0206 2.6244,1.7496 0.73629,0.729 1.31949,1.6038 1.7496,2.61711 0.43011,1.01331 0.64881,2.07036 0.64881,3.18573 0,1.11537 -0.2187,2.17242 -0.64881,3.18573 -0.43011,1.01331 -1.0206,1.88811 -1.7496,2.6244 -0.729,0.73629 -1.6038,1.31949 -2.6244,1.7496 -1.0206,0.43011 -2.07765,0.64881 -3.18573,0.64881 -1.10808,0 -2.17242,-0.2187 -3.18573,-0.64881 -1.01331,-0.43011 -1.88082,-1.0206 -2.61711,-1.7496 -0.73629,-0.729 -1.31949,-1.6038 -1.7496,-2.6244 -0.43011,-1.0206 -0.64881,-2.07036 -0.64881,-3.18573 z m 0.8748,0 c 0,0.99873 0.19683,1.94643 0.5832,2.85039 0.38637,0.90396 0.91125,1.68399 1.56735,2.34009 0.6561,0.6561 1.43613,1.17369 2.34009,1.56735 0.90396,0.39366 1.85166,0.5832 2.8431,0.5832 0.26244,0 0.55404,-0.01458 0.8748,-0.05103 0.67797,-0.41553 1.24659,-0.90396 1.71315,-1.47987 0.46656,-0.57591 0.81648,-1.19556 1.04247,-1.86624 0.22599,-0.67068 0.38637,-1.3122 0.47385,-1.93185 0.08748,-0.61965 0.13122,-1.29033 0.13122,-2.00475 0,-0.91125 -0.10935,-1.79334 -0.33534,-2.65356 -0.22599,-0.86022 -0.61236,-1.70586 -1.15911,-2.54421 -0.54675,-0.83835 -1.23201,-1.53819 -2.04849,-2.10681 -0.29889,-0.01458 -0.53217,-0.02187 -0.69255,-0.02187 -0.99144,0 -1.93914,0.19683 -2.8431,0.5832 -0.90396,0.38637 -1.68399,0.90396 -2.34009,1.56006 -0.6561,0.6561 -1.17369,1.43613 -1.56735,2.34009 -0.39366,0.90396 -0.5832,1.85166 -0.5832,2.83581 z"
   id="path2"
   style="stroke-width:0.729" />
</svg>
