<?xml version="1.0" encoding="UTF-8" standalone="no"?>
<!-- Generator: Adobe Illustrator 22.0.1, SVG Export Plug-In . SVG Version: 6.00 Build 0)  -->

<svg
   version="1.1"
   id="Layer_1"
   x="0px"
   y="0px"
   viewBox="0 0 18 18"
   xml:space="preserve"
   sodipodi:docname="moon-north-waning-crescent-2.svg"
   width="18"
   height="18"
   inkscape:version="1.1.1 (3bf5ae0d25, 2021-09-20, custom)"
   xmlns:inkscape="http://www.inkscape.org/namespaces/inkscape"
   xmlns:sodipodi="http://sodipodi.sourceforge.net/DTD/sodipodi-0.dtd"
   xmlns="http://www.w3.org/2000/svg"
   xmlns:svg="http://www.w3.org/2000/svg"><defs
   id="defs7" /><sodipodi:namedview
   id="namedview5"
   pagecolor="#ffffff"
   bordercolor="#666666"
   borderopacity="1.0"
   inkscape:pageshadow="2"
   inkscape:pageopacity="0.0"
   inkscape:pagecheckerboard="0"
   showgrid="false"
   height="18px"
   inkscape:zoom="26.7"
   inkscape:cx="14.981273"
   inkscape:cy="15.018727"
   inkscape:window-width="1920"
   inkscape:window-height="987"
   inkscape:window-x="0"
   inkscape:window-y="0"
   inkscape:window-maximized="1"
   inkscape:current-layer="Layer_1" />
<path
   d="m 0.795105,8.996355 c 0,-1.10808 0.2187,-2.17242 0.64881,-3.18573 0.43011,-1.01331 1.0206,-1.88082 1.7496,-2.61711 0.729,-0.73629 1.6038,-1.31949 2.61711,-1.7496 1.01331,-0.43011 2.07036,-0.64881 3.18573,-0.64881 1.11537,0 2.17242,0.2187 3.18573,0.64881 1.01331,0.43011 1.88811,1.0206 2.6244,1.7496 0.73629,0.729 1.31949,1.6038 1.7496,2.61711 0.43011,1.01331 0.64881,2.07036 0.64881,3.18573 0,1.11537 -0.2187,2.17242 -0.64881,3.18573 -0.43011,1.01331 -1.0206,1.88811 -1.7496,2.6244 -0.729,0.73629 -1.6038,1.31949 -2.6244,1.7496 -1.0206,0.43011 -2.07765,0.64881 -3.18573,0.64881 -1.10808,0 -2.17242,-0.2187 -3.18573,-0.64881 -1.01331,-0.43011 -1.88082,-1.0206 -2.61711,-1.7496 -0.73629,-0.729 -1.31949,-1.6038 -1.7496,-2.6244 -0.43011,-1.0206 -0.64881,-2.07036 -0.64881,-3.18573 z m 0.8748,0 c 0,0.99144 0.18954,1.93185 0.57591,2.83581 0.38637,0.90396 0.90396,1.6767 1.54548,2.3328 0.64152,0.6561 1.42155,1.18098 2.31093,1.56735 0.88938,0.38637 1.83708,0.59049 2.82123,0.59778 -0.84564,-1.80063 -1.26846,-4.25007 -1.26846,-7.33374 0,-2.63169 0.4374,-5.07384 1.3122,-7.32645 -0.99144,0 -1.93185,0.19683 -2.83581,0.59049 -0.90396,0.39366 -1.6767,0.91125 -2.32551,1.56735 -0.64881,0.6561 -1.17369,1.43613 -1.56006,2.3328 -0.38637,0.89667 -0.57591,1.85166 -0.57591,2.83581 z"
   id="path2"
   style="stroke-width:0.729" />
</svg>
