<?xml version="1.0" encoding="UTF-8" standalone="no"?>
<!-- Generator: Adobe Illustrator 22.0.1, SVG Export Plug-In . SVG Version: 6.00 Build 0)  -->

<svg
   version="1.1"
   id="Layer_1"
   x="0px"
   y="0px"
   viewBox="0 0 18 18"
   xml:space="preserve"
   sodipodi:docname="moon-south-waxing-gibbous-1.svg"
   width="18"
   height="18"
   inkscape:version="1.1.1 (3bf5ae0d25, 2021-09-20, custom)"
   xmlns:inkscape="http://www.inkscape.org/namespaces/inkscape"
   xmlns:sodipodi="http://sodipodi.sourceforge.net/DTD/sodipodi-0.dtd"
   xmlns="http://www.w3.org/2000/svg"
   xmlns:svg="http://www.w3.org/2000/svg"><defs
   id="defs7" /><sodipodi:namedview
   id="namedview5"
   pagecolor="#ffffff"
   bordercolor="#666666"
   borderopacity="1.0"
   inkscape:pageshadow="2"
   inkscape:pageopacity="0.0"
   inkscape:pagecheckerboard="0"
   showgrid="false"
   height="18px"
   inkscape:zoom="27.566667"
   inkscape:cx="15.018138"
   inkscape:cy="15.018138"
   inkscape:window-width="1920"
   inkscape:window-height="987"
   inkscape:window-x="0"
   inkscape:window-y="0"
   inkscape:window-maximized="1"
   inkscape:current-layer="Layer_1" />
<path
   d="m 8.996,17.204895 c 1.48716,0 2.86497,-0.3645 4.11885,-1.10079 1.25388,-0.73629 2.2599,-1.72773 2.9889,-2.9889 0.729,-1.26117 1.10079,-2.63169 1.10079,-4.11885 0,-1.48716 -0.3645,-2.85768 -1.10079,-4.11885 -0.73629,-1.26117 -1.72773,-2.25261 -2.9889,-2.98161 -1.26117,-0.729 -2.63169,-1.10079 -4.11885,-1.10079 1.21743,2.1141 1.8225,4.84785 1.8225,8.20125 0,1.69857 -0.12393,3.22947 -0.37908,4.5927 -0.25515,1.36323 -0.729,2.55879 -1.44342,3.61584 z"
   id="path2"
   style="stroke-width:0.729" />
</svg>
