<?xml version="1.0" encoding="UTF-8" standalone="no"?>
<!-- Generator: Adobe Illustrator 22.0.1, SVG Export Plug-In . SVG Version: 6.00 Build 0)  -->

<svg
   version="1.1"
   id="Layer_1"
   x="0px"
   y="0px"
   viewBox="0 0 18 18"
   xml:space="preserve"
   sodipodi:docname="moon-south-waning-crescent-3.svg"
   width="18"
   height="18"
   inkscape:version="1.1.1 (3bf5ae0d25, 2021-09-20, custom)"
   xmlns:inkscape="http://www.inkscape.org/namespaces/inkscape"
   xmlns:sodipodi="http://sodipodi.sourceforge.net/DTD/sodipodi-0.dtd"
   xmlns="http://www.w3.org/2000/svg"
   xmlns:svg="http://www.w3.org/2000/svg"><defs
   id="defs7" /><sodipodi:namedview
   id="namedview5"
   pagecolor="#ffffff"
   bordercolor="#666666"
   borderopacity="1.0"
   inkscape:pageshadow="2"
   inkscape:pageopacity="0.0"
   inkscape:pagecheckerboard="0"
   showgrid="false"
   height="18px"
   inkscape:zoom="27.566667"
   inkscape:cx="15.018138"
   inkscape:cy="15.018138"
   inkscape:window-width="1920"
   inkscape:window-height="987"
   inkscape:window-x="0"
   inkscape:window-y="0"
   inkscape:window-maximized="1"
   inkscape:current-layer="Layer_1" />
<path
   d="m 0.795,8.989065 c 0,1.10808 0.2187,2.17242 0.64881,3.18573 0.43011,1.01331 1.01331,1.88082 1.7496,2.61711 0.73629,0.73629 1.6038,1.3122 2.61711,1.7496 1.01331,0.4374 2.07036,0.64881 3.18573,0.64881 2.10681,-1.74231 3.16386,-4.47606 3.16386,-8.19396 0,-1.70586 -0.29889,-3.25863 -0.88938,-4.63644 -0.59049,-1.37781 -1.34865,-2.56608 -2.26719,-3.55023 -1.47987,0 -2.85039,0.3645 -4.11156,1.10079 -1.26117,0.73629 -2.26719,1.72044 -3.00348,2.97432 -0.73629,1.25388 -1.0935,2.6244 -1.0935,4.10427 z"
   id="path2"
   style="stroke-width:0.729" />
</svg>
