<?xml version="1.0" encoding="UTF-8" standalone="no"?>
<!-- Generator: Adobe Illustrator 22.0.1, SVG Export Plug-In . SVG Version: 6.00 Build 0)  -->

<svg
   version="1.1"
   id="Layer_1"
   x="0px"
   y="0px"
   viewBox="0 0 18 18"
   xml:space="preserve"
   sodipodi:docname="moon-south-waxing-crescent-4.svg"
   width="18"
   height="18"
   inkscape:version="1.1.1 (3bf5ae0d25, 2021-09-20, custom)"
   xmlns:inkscape="http://www.inkscape.org/namespaces/inkscape"
   xmlns:sodipodi="http://sodipodi.sourceforge.net/DTD/sodipodi-0.dtd"
   xmlns="http://www.w3.org/2000/svg"
   xmlns:svg="http://www.w3.org/2000/svg"><defs
   id="defs7" /><sodipodi:namedview
   id="namedview5"
   pagecolor="#ffffff"
   bordercolor="#666666"
   borderopacity="1.0"
   inkscape:pageshadow="2"
   inkscape:pageopacity="0.0"
   inkscape:pagecheckerboard="0"
   showgrid="false"
   height="18px"
   inkscape:zoom="27.566667"
   inkscape:cx="15.018138"
   inkscape:cy="15.018138"
   inkscape:window-width="1920"
   inkscape:window-height="987"
   inkscape:window-x="0"
   inkscape:window-y="0"
   inkscape:window-maximized="1"
   inkscape:current-layer="Layer_1" />
<path
   d="m 6.649,8.99271 c 0,1.74231 0.17496,3.29508 0.51759,4.65831 0.34263,1.36323 0.95499,2.5515 1.82979,3.56481 1.10808,0 2.17242,-0.2187 3.18573,-0.64881 1.01331,-0.43011 1.88811,-1.0206 2.6244,-1.7496 0.73629,-0.729 1.31949,-1.6038 1.7496,-2.6244 0.43011,-1.0206 0.64881,-2.07765 0.64881,-3.20031 0,-1.12266 -0.2187,-2.17971 -0.64881,-3.19302 C 16.126,4.78638 15.53551,3.91887 14.80651,3.18258 14.07751,2.44629 13.20271,1.86309 12.18211,1.43298 11.16151,1.00287 10.10446,0.78417 8.99638,0.78417 8.2528,1.84851 7.67689,3.08781 7.26865,4.52394 6.86041,5.96007 6.649,7.43994 6.649,8.99271 Z"
   id="path2"
   style="stroke-width:0.729" />
</svg>
